﻿<?xml version="1.0"?>
<!-- Generator: Adobe Illustrator 10.0, SVG Export Plug-In . SVG Version: 3.0.0 Build 77)  -->
<!DOCTYPE svg PUBLIC "-//W3C//DTD SVG 1.0//EN" "http://www.w3.org/TR/2001/REC-SVG-20010904/DTD/svg10.dtd"[
	<!ENTITY ns_flows "http://ns.adobe.com/Flows/1.0/">
	<!ENTITY ns_svg "http://www.w3.org/2000/svg">
	<!ENTITY ns_xlink "http://www.w3.org/1999/xlink">
	<!ENTITY st0 "fill:none;stroke:#000000;stroke-linecap:round;stroke-linejoin:round;">
	<!ENTITY st1 "fill:none;stroke:#000000;stroke-width:0.6;stroke-linecap:round;stroke-linejoin:round;">
	<!ENTITY st2 "font-size:6px;">
	<!ENTITY st3 "font-family:'Arial';">
	<!ATTLIST svg
		ewd:ver CDATA #IMPLIED
		xmlns:ewd CDATA #FIXED "http://shcl.co.jp/ewd"
		xmlns:a CDATA #FIXED "http://ns.adobe.com/AdobeSVGViewerExtensions/3.0/">
	<!ATTLIST g
		ewd:pinNo CDATA #IMPLIED>
]>
<svg width="332.447" height="84.286" viewBox="0 0 332.447 84.286" style="overflow:visible;enable-background:new 0 0 332.447 84.286" xml:space="preserve" onload="call_execInitLoadProc_svg('connector')" ewd:ver="L2.1.2.9" xmlns="&ns_svg;" xmlns:ewd="http://shcl.co.jp/ewd" xmlns:a="http://ns.adobe.com/AdobeSVGViewerExtensions/3.0/" xmlns:xlink="&ns_xlink;">
<script type="text/javascript" xlink:href="../../../../../system/js/ewd/fig/svgfig.js"/>
<g id="レイヤー_1">
	<path style="&st1;" d="M51.491,8.999c-7.822,0-14.164,6.342-14.164,14.164"/>
	<path style="&st1;" d="M40.16,61.124c0,6.258,5.073,11.332,11.331,11.332"/>
	<path style="&st1;" d="M51.491,11.832c-6.258,0-11.331,5.074-11.331,11.332"/>
	<path style="&st1;" d="M272.455,72.455c6.258,0,11.331-5.074,11.331-11.332"/>
	<path style="&st1;" d="M283.786,23.163c0-6.258-5.073-11.332-11.331-11.332"/>
	<path style="&st1;" d="M37.327,61.124c0,7.822,6.342,14.164,14.164,14.164"/>
	<path style="&st1;" d="M272.455,75.288c7.822,0,14.164-6.342,14.164-14.164"/>
	<path style="&st1;" d="M286.619,23.163c0-7.822-6.342-14.164-14.164-14.164"/>
	<path style="&st0;" d="M327.735,81.449c1.369,0.76,3.096,0.267,3.855-1.102"/>
	<path style="&st0;" d="M331.59,80.347c0.246-0.442,0.356-0.871,0.356-1.377"/>
	<path style="&st0;" d="M331.944,5.316c0-1.564-1.268-2.833-2.832-2.833"/>
	<path style="&st0;" d="M329.112,2.483c-0.505,0-0.934,0.112-1.375,0.357"/>
	<path style="&st1;" d="M286.619,61.124v-37.96"/>
	<path style="&st1;" d="M51.491,8.999h220.963"/>
	<path style="&st1;" d="M82.653,20.33h158.64"/>
	<path style="&st1;" d="M195.967,8.999V4.75h-8.499v4.25"/>
	<path style="&st0;" d="M289.452,83.786v-2.833h4.249v2.833"/>
	<path style="&st1;" d="M127.979,8.999V4.75h8.499v4.25"/>
	<path style="&st1;" d="M195.967,75.288v4.25h-8.499v-4.25"/>
	<path style="&st1;" d="M76.987,31.662h169.971"/>
	<path style="&st1;" d="M127.979,75.288v4.25h8.499v-4.25"/>
	<path style="&st1;" d="M76.987,42.993h169.971"/>
	<path style="&st1;" d="M82.653,31.662V20.33"/>
	<path style="&st1;" d="M93.984,31.662V20.33"/>
	<path style="&st1;" d="M105.316,31.662V20.33"/>
	<path style="&st1;" d="M116.647,31.662V20.33"/>
	<path style="&st1;" d="M127.979,31.662V20.33"/>
	<path style="&st1;" d="M139.31,31.662V20.33"/>
	<path style="&st1;" d="M150.642,31.662V20.33"/>
	<path style="&st1;" d="M161.973,31.662V20.33"/>
	<path style="&st1;" d="M173.304,31.662V20.33"/>
	<path style="&st1;" d="M184.636,31.662V20.33"/>
	<path style="&st1;" d="M195.967,31.662V20.33"/>
	<path style="&st1;" d="M207.299,31.662V20.33"/>
	<path style="&st1;" d="M218.63,31.662V20.33"/>
	<path style="&st1;" d="M229.961,31.662V20.33"/>
	<path style="&st1;" d="M241.292,31.662V20.33"/>
	<path style="&st1;" d="M76.987,42.993V31.662"/>
	<path style="&st1;" d="M88.319,42.993V31.662"/>
	<path style="&st1;" d="M99.65,42.993V31.662"/>
	<path style="&st1;" d="M110.981,42.993V31.662"/>
	<path style="&st1;" d="M122.313,42.993V31.662"/>
	<path style="&st1;" d="M133.645,42.993V31.662"/>
	<path style="&st1;" d="M144.976,42.993V31.662"/>
	<path style="&st1;" d="M156.307,42.993V31.662"/>
	<path style="&st1;" d="M167.639,42.993V31.662"/>
	<path style="&st1;" d="M178.97,42.993V31.662"/>
	<path style="&st1;" d="M190.302,42.993V31.662"/>
	<path style="&st1;" d="M201.633,42.993V31.662"/>
	<path style="&st1;" d="M212.964,42.993V31.662"/>
	<path style="&st1;" d="M224.296,42.993V31.662"/>
	<path style="&st1;" d="M235.627,42.993V31.662"/>
	<path style="&st1;" d="M246.958,42.993V31.662"/>
	<path style="&st0;" d="M293.701,0.5h4.25"/>
	<path style="&st1;" d="M76.987,44.976v5.666h169.971v-5.666H76.987"/>
	<path style="&st1;" d="M40.16,35.061h5.666v14.165H40.16"/>
	<path style="&st1;" d="M40.16,61.124v-37.96"/>
	<path style="&st1;" d="M283.786,35.061h-5.666v14.165h5.666"/>
	<path style="&st1;" d="M283.786,61.124v-37.96"/>
	<path style="&st1;" d="M275.288,46.959v16.997H258.29V46.959H275.288"/>
	<path style="&st1;" d="M275.288,20.33v16.997H258.29V20.33H275.288"/>
	<path style="&st1;" d="M37.327,61.124v-37.96"/>
	<path style="&st1;" d="M71.321,72.455V11.832"/>
	<path style="&st1;" d="M252.625,11.832v60.624"/>
	<path style="&st0;" d="M293.701,83.786h4.25"/>
	<path style="&st0;" d="M28.829,0.5h260.623"/>
	<path style="&st1;" d="M82.653,63.956V52.625"/>
	<path style="&st1;" d="M82.653,52.625h158.64"/>
	<path style="&st1;" d="M82.653,63.956h158.64"/>
	<path style="&st1;" d="M241.292,63.956V52.625"/>
	<path style="&st1;" d="M93.984,63.956V52.625"/>
	<path style="&st1;" d="M105.316,63.956V52.625"/>
	<path style="&st1;" d="M116.647,63.956V52.625"/>
	<path style="&st1;" d="M127.979,63.956V52.625"/>
	<path style="&st1;" d="M139.31,63.956V52.625"/>
	<path style="&st1;" d="M150.642,63.956V52.625"/>
	<path style="&st1;" d="M161.973,63.956V52.625"/>
	<path style="&st1;" d="M173.304,63.956V52.625"/>
	<path style="&st1;" d="M184.636,63.956V52.625"/>
	<path style="&st1;" d="M195.967,63.956V52.625"/>
	<path style="&st1;" d="M207.299,63.956V52.625"/>
	<path style="&st1;" d="M218.63,63.956V52.625"/>
	<path style="&st1;" d="M229.961,63.956V52.625"/>
	<path style="&st1;" d="M48.659,46.959v16.997h16.997V46.959H48.659"/>
	<path style="&st1;" d="M51.491,11.832h220.963"/>
	<path style="&st1;" d="M48.659,20.33v16.997h16.997V20.33H48.659"/>
	<path style="&st1;" d="M51.491,72.455h220.963"/>
	<path style="&st1;" d="M51.491,75.288h220.963"/>
	<path style="&st0;" d="M297.951,83.786V69.622"/>
	<path style="&st0;" d="M0.5,6.166v71.955"/>
	<path style="&st0;" d="M297.951,0.5v14.165"/>
	<path style="&st0;" d="M28.829,83.786h260.623"/>
	<path style="&st1;" d="M289.452,3.333v14.165h8.499v49.292h-8.499v14.165"/>
	<path style="&st0;" d="M28.829,0.5v5.666"/>
	<path style="&st0;" d="M28.829,83.786v-5.666"/>
	<path style="&st0;" d="M17.497,78.121h11.332"/>
	<path style="&st0;" d="M17.497,6.166h11.332"/>
	<path style="&st0;" d="M17.497,8.999V6.166"/>
	<path style="&st0;" d="M17.497,78.121v-2.833"/>
	<path style="&st0;" d="M6.166,8.999h11.332"/>
	<path style="&st0;" d="M6.166,75.288h11.332"/>
	<path style="&st0;" d="M6.166,75.288v2.833"/>
	<path style="&st0;" d="M0.5,78.121h5.666"/>
	<path style="&st0;" d="M6.166,8.999V6.166"/>
	<path style="&st0;" d="M0.5,6.166h5.666"/>
	<path style="&st1;" d="M6.166,8.999v66.289"/>
	<path style="&st1;" d="M17.497,8.999v66.289"/>
	<path style="&st0;" d="M289.452,0.5v2.833h4.249V0.5"/>
	<path style="&st1;" d="M34.494,83.786V0.5"/>
	<path style="&st1;" d="M6.166,30.812h11.332"/>
	<path style="&st1;" d="M6.166,53.475h11.332"/>
	<path style="&st1;" d="M6.166,57.724h11.332"/>
	<path style="&st1;" d="M6.166,26.563h11.332"/>
	<path style="&st0;" d="M331.944,5.316V78.97"/>
	<path style="&st0;" d="M297.951,14.665h8.498"/>
	<path style="&st0;" d="M297.951,69.622h8.498"/>
	<path style="&st0;" d="M306.449,14.665l21.286-11.827"/>
	<path style="&st0;" d="M306.449,69.622l21.286,11.827"/>
	<g ewd:pinNo="9">
		<text transform="matrix(1 0 0 1 165.9629 28.0991)"><tspan x="0" y="0" style="&st3; &st2;">9</tspan></text>
	</g>
	<g ewd:pinNo="13">
		<text transform="matrix(1 0 0 1 209.2695 28.0991)"><tspan x="0" y="0" style="&st3; &st2;">13</tspan></text>
	</g>
	<g ewd:pinNo="12">
		<text transform="matrix(1 0 0 1 197.9385 28.0991)"><tspan x="0" y="0" style="&st3; &st2;">12</tspan></text>
	</g>
	<g ewd:pinNo="11">
		<text transform="matrix(1 0 0 1 186.8296 28.0991)"><tspan x="0" y="0" style="&st3; &st2;">11</tspan></text>
	</g>
	<g ewd:pinNo="10">
		<text transform="matrix(1 0 0 1 175.2754 28.0991)"><tspan x="0" y="0" style="&st3; &st2;">10</tspan></text>
	</g>
	<g ewd:pinNo="8">
		<text transform="matrix(1 0 0 1 154.6313 28.0991)"><tspan x="0" y="0" style="&st3; &st2;">8</tspan></text>
	</g>
	<g ewd:pinNo="7">
		<text transform="matrix(1 0 0 1 143.2998 28.0991)"><tspan x="0" y="0" style="&st3; &st2;">7</tspan></text>
	</g>
	<g ewd:pinNo="6">
		<text transform="matrix(1 0 0 1 131.9683 28.0991)"><tspan x="0" y="0" style="&st3; &st2;">6</tspan></text>
	</g>
	<g ewd:pinNo="5">
		<text transform="matrix(1 0 0 1 120.6367 28.0991)"><tspan x="0" y="0" style="&st3; &st2;">5</tspan></text>
	</g>
	<g ewd:pinNo="4">
		<text transform="matrix(1 0 0 1 109.3057 28.0991)"><tspan x="0" y="0" style="&st3; &st2;">4</tspan></text>
	</g>
	<g ewd:pinNo="3">
		<text transform="matrix(1 0 0 1 97.9741 28.0991)"><tspan x="0" y="0" style="&st3; &st2;">3</tspan></text>
	</g>
	<g ewd:pinNo="2">
		<text transform="matrix(1 0 0 1 86.6426 28.0991)"><tspan x="0" y="0" style="&st3; &st2;">2</tspan></text>
	</g>
	<g ewd:pinNo="40">
		<text transform="matrix(1 0 0 1 164.3423 60.3936)"><tspan x="0" y="0" style="&st3; &st2;">40</tspan></text>
	</g>
	<g ewd:pinNo="44">
		<text transform="matrix(1 0 0 1 209.668 60.3936)"><tspan x="0" y="0" style="&st3; &st2;">44</tspan></text>
	</g>
	<g ewd:pinNo="43">
		<text transform="matrix(1 0 0 1 198.3369 60.3936)"><tspan x="0" y="0" style="&st3; &st2;">43</tspan></text>
	</g>
	<g ewd:pinNo="42">
		<text transform="matrix(1 0 0 1 187.0054 60.3936)"><tspan x="0" y="0" style="&st3; &st2;">42</tspan></text>
	</g>
	<g ewd:pinNo="41">
		<text transform="matrix(1 0 0 1 175.6738 60.3936)"><tspan x="0" y="0" style="&st3; &st2;">41</tspan></text>
	</g>
	<g ewd:pinNo="34">
		<text transform="matrix(1 0 0 1 96.354 60.3936)"><tspan x="0" y="0" style="&st3; &st2;">34</tspan></text>
	</g>
	<g ewd:pinNo="39">
		<text transform="matrix(1 0 0 1 153.0112 60.3936)"><tspan x="0" y="0" style="&st3; &st2;">39</tspan></text>
	</g>
	<g ewd:pinNo="38">
		<text transform="matrix(1 0 0 1 141.6797 60.3936)"><tspan x="0" y="0" style="&st3; &st2;">38</tspan></text>
	</g>
	<g ewd:pinNo="37">
		<text transform="matrix(1 0 0 1 130.3481 60.3936)"><tspan x="0" y="0" style="&st3; &st2;">37</tspan></text>
	</g>
	<g ewd:pinNo="36">
		<text transform="matrix(1 0 0 1 119.0166 60.3936)"><tspan x="0" y="0" style="&st3; &st2;">36</tspan></text>
	</g>
	<g ewd:pinNo="35">
		<text transform="matrix(1 0 0 1 107.6851 60.3936)"><tspan x="0" y="0" style="&st3; &st2;">35</tspan></text>
	</g>
	<g ewd:pinNo="45">
		<text transform="matrix(1 0 0 1 221 60.3936)"><tspan x="0" y="0" style="&st3; &st2;">45</tspan></text>
	</g>
	<g ewd:pinNo="47">
		<text transform="matrix(1 0 0 1 263.4917 57.5605)"><tspan x="0" y="0" style="&st3; &st2;">47</tspan></text>
	</g>
	<g ewd:pinNo="16">
		<text transform="matrix(1 0 0 1 263.0933 30.9316)"><tspan x="0" y="0" style="&st3; &st2;">16</tspan></text>
	</g>
	<g ewd:pinNo="32">
		<text transform="matrix(1 0 0 1 53.8491 57.5605)"><tspan x="0" y="0" style="&st3; &st2;">32</tspan></text>
	</g>
	<g ewd:pinNo="33">
		<text transform="matrix(1 0 0 1 85.0225 60.3936)"><tspan x="0" y="0" style="&st3; &st2;">33</tspan></text>
	</g>
	<g ewd:pinNo="1">
		<text transform="matrix(1 0 0 1 55.481 30.9316)"><tspan x="0" y="0" style="&st3; &st2;">1</tspan></text>
	</g>
	<g ewd:pinNo="46">
		<text transform="matrix(1 0 0 1 232.3296 60.3936)"><tspan x="0" y="0" style="&st3; &st2;">46</tspan></text>
	</g>
	<g ewd:pinNo="14">
		<text transform="matrix(1 0 0 1 220.6006 28.0991)"><tspan x="0" y="0" style="&st3; &st2;">14</tspan></text>
	</g>
	<g ewd:pinNo="15">
		<text transform="matrix(1 0 0 1 231.9331 28.0991)"><tspan x="0" y="0" style="&st3; &st2;">15</tspan></text>
	</g>
	<g ewd:pinNo="17">
		<text transform="matrix(1 0 0 1 78.958 39.4307)"><tspan x="0" y="0" style="&st3; &st2;">17</tspan></text>
	</g>
	<g ewd:pinNo="18">
		<text transform="matrix(1 0 0 1 90.2896 39.4307)"><tspan x="0" y="0" style="&st3; &st2;">18</tspan></text>
	</g>
	<g ewd:pinNo="19">
		<text transform="matrix(1 0 0 1 101.6211 39.4307)"><tspan x="0" y="0" style="&st3; &st2;">19</tspan></text>
	</g>
	<g ewd:pinNo="20">
		<text transform="matrix(1 0 0 1 113.3511 39.4307)"><tspan x="0" y="0" style="&st3; &st2;">20</tspan></text>
	</g>
	<g ewd:pinNo="21">
		<text transform="matrix(1 0 0 1 124.6821 39.4307)"><tspan x="0" y="0" style="&st3; &st2;">21</tspan></text>
	</g>
	<g ewd:pinNo="22">
		<text transform="matrix(1 0 0 1 136.0137 39.4307)"><tspan x="0" y="0" style="&st3; &st2;">22</tspan></text>
	</g>
	<g ewd:pinNo="23">
		<text transform="matrix(1 0 0 1 147.3452 39.4307)"><tspan x="0" y="0" style="&st3; &st2;">23</tspan></text>
	</g>
	<g ewd:pinNo="24">
		<text transform="matrix(1 0 0 1 158.6768 39.4307)"><tspan x="0" y="0" style="&st3; &st2;">24</tspan></text>
	</g>
	<g ewd:pinNo="25">
		<text transform="matrix(1 0 0 1 170.0083 39.4307)"><tspan x="0" y="0" style="&st3; &st2;">25</tspan></text>
	</g>
	<g ewd:pinNo="26">
		<text transform="matrix(1 0 0 1 181.3394 39.4307)"><tspan x="0" y="0" style="&st3; &st2;">26</tspan></text>
	</g>
	<g ewd:pinNo="27">
		<text transform="matrix(1 0 0 1 192.6709 39.4307)"><tspan x="0" y="0" style="&st3; &st2;">27</tspan></text>
	</g>
	<g ewd:pinNo="28">
		<text transform="matrix(1 0 0 1 204.0024 39.4307)"><tspan x="0" y="0" style="&st3; &st2;">28</tspan></text>
	</g>
	<g ewd:pinNo="29">
		<text transform="matrix(1 0 0 1 215.334 39.4307)"><tspan x="0" y="0" style="&st3; &st2;">29</tspan></text>
	</g>
	<g ewd:pinNo="30">
		<text transform="matrix(1 0 0 1 226.666 39.4307)"><tspan x="0" y="0" style="&st3; &st2;">30</tspan></text>
	</g>
	<g ewd:pinNo="31">
		<text transform="matrix(1 0 0 1 237.9956 39.4307)"><tspan x="0" y="0" style="&st3; &st2;">31</tspan></text>
	</g>
</g>
</svg>