﻿<?xml version="1.0"?>
<!-- Generator: Adobe Illustrator 10.0, SVG Export Plug-In . SVG Version: 3.0.0 Build 77)  -->
<!DOCTYPE svg PUBLIC "-//W3C//DTD SVG 1.0//EN" "http://www.w3.org/TR/2001/REC-SVG-20010904/DTD/svg10.dtd"[
	<!ENTITY ns_flows "http://ns.adobe.com/Flows/1.0/">
	<!ENTITY ns_svg "http://www.w3.org/2000/svg">
	<!ENTITY ns_xlink "http://www.w3.org/1999/xlink">
	<!ENTITY st0 "fill:none;stroke:#000000;stroke-linecap:round;stroke-linejoin:round;">
	<!ENTITY st1 "fill:none;stroke:#000000;stroke-width:0.6;stroke-linecap:round;stroke-linejoin:round;">
	<!ENTITY st2 "font-size:6px;">
	<!ENTITY st3 "font-family:'Arial';">
	<!ATTLIST svg
		ewd:ver CDATA #IMPLIED
		xmlns:ewd CDATA #FIXED "http://shcl.co.jp/ewd"
		xmlns:a CDATA #FIXED "http://ns.adobe.com/AdobeSVGViewerExtensions/3.0/">
	<!ATTLIST g
		ewd:pinNo CDATA #IMPLIED>
]>
<svg width="58.59" height="63.012" viewBox="0 0 58.59 63.012" style="overflow:visible;enable-background:new 0 0 58.59 63.012" xml:space="preserve" onload="call_execInitLoadProc_svg('connector')" ewd:ver="L2.1.2.9" xmlns="&ns_svg;" xmlns:ewd="http://shcl.co.jp/ewd" xmlns:a="http://ns.adobe.com/AdobeSVGViewerExtensions/3.0/" xmlns:xlink="&ns_xlink;">
<script type="text/javascript" xlink:href="../../../../../system/js/ewd/fig/svgfig.js"/>
<g id="レイヤー_1">
	<path style="&st1;" d="M20.796,25.436v3.257"/>
	<path style="&st1;" d="M37.793,25.436v3.257"/>
	<path style="&st1;" d="M20.796,25.436h16.997"/>
	<path style="&st1;" d="M20.796,34.784h16.997"/>
	<path style="&st1;" d="M25.046,34.784v9.348"/>
	<path style="&st1;" d="M33.544,34.784v9.348"/>
	<path style="&st1;" d="M29.295,25.436v9.348"/>
	<path style="&st1;" d="M25.046,44.132h8.499"/>
	<path style="&st1;" d="M20.796,31.526v3.258"/>
	<path style="&st1;" d="M37.793,31.526v3.258"/>
	<path style="&st0;" d="M5.295,48.206L2.68,43.679"/>
	<path style="&st1;" d="M13.55,46.109l-0.801-1.235"/>
	<path style="&st1;" d="M18.669,21.752h21.25"/>
	<path style="&st1;" d="M16.445,37.9h8.601"/>
	<path style="&st1;" d="M15.131,16.087h28.329"/>
	<path style="&st1;" d="M27.878,21.752h2.833"/>
	<path style="&st1;" d="M26.462,16.087v4.249"/>
	<path style="&st1;" d="M32.128,16.087v4.249"/>
	<path style="&st1;" d="M19.38,8.724v11.612"/>
	<path style="&st1;" d="M39.21,8.724v11.612"/>
	<path style="&st1;" d="M16.547,21.752h1.416"/>
	<path style="&st1;" d="M40.626,21.752h1.417"/>
	<path style="&st1;" d="M26.462,6.367v3.773"/>
	<path style="&st1;" d="M32.128,6.367v3.773"/>
	<path style="&st1;" d="M33.544,37.9h8.601"/>
	<path style="&st1;" d="M15.131,28.834v2.833"/>
	<path style="&st1;" d="M43.459,28.834v2.833"/>
	<path style="&st1;" d="M14.372,31.667h0.759"/>
	<path style="&st1;" d="M14.221,28.834h0.91"/>
	<path style="&st1;" d="M43.459,28.834h0.909"/>
	<path style="&st1;" d="M43.459,31.667h0.759"/>
	<path style="&st1;" d="M8.796,39.489L6.85,40.752"/>
	<path style="&st1;" d="M11.966,44.707l-1.793,1.165"/>
	<path style="&st1;" d="M9.57,40.679l-0.997,0.646"/>
	<path style="&st1;" d="M11.193,43.52l-0.841,0.547"/>
	<path style="&st1;" d="M14.74,45.339l-0.802-1.235"/>
	<path style="&st1;" d="M22.213,30.109c0-0.782-0.634-1.417-1.417-1.417"/>
	<path style="&st1;" d="M20.796,31.526c0.782,0,1.417-0.634,1.417-1.417"/>
	<path style="&st1;" d="M37.793,28.693c-0.782,0-1.416,0.634-1.416,1.417"/>
	<path style="&st1;" d="M36.377,30.109c0,0.782,0.634,1.417,1.416,1.417"/>
	<path style="&st0;" d="M53.375,10.421c-13.338-13.229-34.82-13.229-48.159,0"/>
	<path style="&st0;" d="M0.967,24.585c-1.155,4.618-0.169,9.053,2.833,12.748"/>
	<path style="&st0;" d="M54.791,37.333c3.001-3.694,3.987-8.13,2.833-12.748"/>
	<path style="&st0;" d="M3.312,40.092c-1.065,0.894-1.328,2.382-0.632,3.587"/>
	<path style="&st0;" d="M5.295,48.206c0.697,1.209,2.126,1.725,3.436,1.241"/>
	<path style="&st0;" d="M11.318,50.311c-0.562-0.871-1.615-1.223-2.587-0.865"/>
	<path style="&st0;" d="M3.312,40.092c0.82-0.687,1.021-1.832,0.486-2.758"/>
	<path style="&st0;" d="M19.221,58.305c5.5,5.563,14.468,5.616,20.031,0.116"/>
	<path style="&st0;" d="M39.252,58.421c0.041-0.041,0.076-0.075,0.116-0.116"/>
	<path style="&st1;" d="M22.244,55.319c3.85,3.894,10.128,3.929,14.022,0.079"/>
	<path style="&st1;" d="M36.267,55.398c0.028-0.028,0.052-0.051,0.08-0.079"/>
	<path style="&st1;" d="M13.55,46.109c0.553,0.851,1.093,1.523,1.807,2.245"/>
	<path style="&st1;" d="M51.318,34.869c3.753-4.473,3.17-11.142-1.303-14.895"/>
	<path style="&st1;" d="M50.015,19.974c-1.923-1.614-4.045-2.414-6.555-2.471"/>
	<path style="&st1;" d="M15.131,17.503c-5.837,0.133-10.461,4.973-10.329,10.81"/>
	<path style="&st1;" d="M4.802,28.313c0.055,2.412,0.793,4.451,2.295,6.34"/>
	<path style="&st1;" d="M42.439,10.928c-7.707-6.419-18.582-6.419-26.289,0"/>
	<path style="&st1;" d="M16.15,10.928c-0.671,0.559-1.021,1.305-1.021,2.178"/>
	<path style="&st1;" d="M43.459,13.106c0-0.873-0.35-1.619-1.021-2.177"/>
	<path style="&st1;" d="M17.23,22.146c-4.806,2.839-6.4,9.038-3.561,13.844"/>
	<path style="&st1;" d="M13.669,35.99c0.153,0.26,0.292,0.474,0.467,0.72"/>
	<path style="&st1;" d="M46.326,30.849c0-3.686-1.793-6.827-4.966-8.702"/>
	<path style="&st1;" d="M44.451,36.71c1.275-1.791,1.874-3.663,1.874-5.861"/>
	<path style="&st1;" d="M18.669,21.752c-0.531,0-0.982,0.124-1.439,0.393"/>
	<path style="&st1;" d="M41.36,22.146c-0.458-0.271-0.91-0.395-1.442-0.395"/>
	<path style="&st1;" d="M42.145,37.9c0.948,0,1.757-0.417,2.307-1.189"/>
	<path style="&st1;" d="M14.136,36.71c0.55,0.773,1.36,1.191,2.309,1.191"/>
	<path style="&st1;" d="M23.629,44.132c1.389,3.129,5.052,4.54,8.181,3.15"/>
	<path style="&st1;" d="M31.811,47.282c1.464-0.65,2.5-1.686,3.15-3.15"/>
	<path style="&st1;" d="M24.924,43.557c1.072,2.414,3.897,3.502,6.312,2.431"/>
	<path style="&st1;" d="M31.236,45.988c1.129-0.501,1.929-1.301,2.43-2.431"/>
	<path style="&st1;" d="M26.462,20.336c0,0.782,0.634,1.417,1.416,1.417"/>
	<path style="&st1;" d="M30.711,21.752c0.782,0,1.417-0.634,1.417-1.417"/>
	<path style="&st1;" d="M15.131,20.336c0,0.782,0.634,1.417,1.417,1.417"/>
	<path style="&st1;" d="M17.963,21.752c0.783,0,1.417-0.634,1.417-1.417"/>
	<path style="&st1;" d="M42.043,21.752c0.782,0,1.417-0.634,1.417-1.417"/>
	<path style="&st1;" d="M39.21,20.336c0,0.782,0.634,1.417,1.417,1.417"/>
	<path style="&st1;" d="M13.323,28.515c0.265,0.217,0.556,0.321,0.898,0.321"/>
	<path style="&st1;" d="M14.372,31.667c-0.433,0-0.802,0.171-1.082,0.502"/>
	<path style="&st1;" d="M44.369,28.834c0.342,0,0.633-0.104,0.897-0.32"/>
	<path style="&st1;" d="M45.301,32.169c-0.28-0.331-0.649-0.502-1.082-0.502"/>
	<path style="&st1;" d="M43.346,9.84c-8.238-6.862-19.864-6.862-28.102,0"/>
	<path style="&st1;" d="M44.876,13.106c0-1.31-0.524-2.428-1.531-3.266"/>
	<path style="&st1;" d="M15.244,9.84c-1.007,0.838-1.531,1.957-1.531,3.266"/>
	<path style="&st1;" d="M15.162,18.92c-5.055,0.115-9.059,4.308-8.944,9.362"/>
	<path style="&st1;" d="M6.218,28.282c0.049,2.122,0.708,3.916,2.047,5.563"/>
	<path style="&st1;" d="M12.749,44.875c-0.17-0.262-0.52-0.337-0.783-0.168"/>
	<path style="&st1;" d="M8.796,39.489c0.237-0.155,0.323-0.453,0.204-0.71"/>
	<path style="&st1;" d="M6.85,40.752c-0.263,0.17-0.337,0.522-0.167,0.785"/>
	<path style="&st1;" d="M9.392,45.704c0.17,0.261,0.519,0.335,0.78,0.166"/>
	<path style="&st1;" d="M9.57,40.679c0.834-0.543,1.136-1.592,0.719-2.495"/>
	<path style="&st1;" d="M13.938,44.104c-0.596-0.919-1.825-1.182-2.745-0.586"/>
	<path style="&st1;" d="M11.193,43.518C11.192,43.518,11.192,43.518,11.193,43.518"/>
	<path style="&st1;" d="M8.573,41.325c-0.263,0.17-0.338,0.522-0.167,0.785"/>
	<path style="&st1;" d="M9.57,43.9c0.17,0.262,0.52,0.337,0.783,0.168"/>
	<path style="&st1;" d="M14.74,45.339c0.497,0.766,0.983,1.369,1.625,2.019"/>
	<path style="&st1;" d="M23.25,54.322c3.3,3.339,8.681,3.371,12.02,0.071"/>
	<path style="&st1;" d="M35.27,54.393c0.024-0.024,0.045-0.045,0.069-0.069"/>
	<path style="&st1;" d="M50.159,34.042c3.296-3.833,2.861-9.613-0.972-12.909"/>
	<path style="&st1;" d="M49.188,21.132c-1.678-1.443-3.549-2.162-5.762-2.211"/>
	<path style="&st1;" d="M8.338,33.965c-0.021-0.044-0.043-0.08-0.075-0.119"/>
	<path style="&st1;" d="M42.683,46.894c0.035-0.036,0.061-0.069,0.086-0.113"/>
	<path style="&st1;" d="M51.318,34.869c-0.022,0.026-0.039,0.05-0.056,0.08"/>
	<path style="&st1;" d="M50.159,34.042c-0.024,0.028-0.042,0.053-0.061,0.084"/>
	<path style="&st1;" d="M20.796,28.693l-2.833,1.417l2.833,1.417"/>
	<path style="&st1;" d="M37.793,28.693l2.833,1.417l-2.833,1.417"/>
	<path style="&st0;" d="M5.216,10.421L0.967,24.585"/>
	<path style="&st0;" d="M53.375,10.421l4.249,14.164"/>
	<path style="&st0;" d="M11.318,50.311l7.903,7.994"/>
	<path style="&st0;" d="M47.272,50.311l-7.904,7.994"/>
	<path style="&st0;" d="M54.791,37.333l-7.519,12.978"/>
	<path style="&st1;" d="M15.357,48.353l6.887,6.966"/>
	<path style="&st1;" d="M43.867,47.71l-7.521,7.609"/>
	<path style="&st1;" d="M51.261,34.948L43.867,47.71"/>
	<path style="&st1;" d="M9.003,38.778l-1.907-4.125"/>
	<path style="&st1;" d="M15.131,13.106v4.397"/>
	<path style="&st1;" d="M43.459,13.106v4.397"/>
	<path style="&st1;" d="M39.21,37.9l-4.249,6.232"/>
	<path style="&st1;" d="M19.38,37.9l4.25,6.232"/>
	<path style="&st1;" d="M21.094,37.9l3.85,5.643"/>
	<path style="&st1;" d="M37.496,37.9l-3.85,5.643"/>
	<path style="&st1;" d="M15.131,17.503v2.833"/>
	<path style="&st1;" d="M43.459,20.336v-2.833"/>
	<path style="&st1;" d="M19.38,8.724h19.83"/>
	<path style="&st1;" d="M45.91,27.985l-0.643,0.53"/>
	<path style="&st1;" d="M46.074,33.084l-0.773-0.915"/>
	<path style="&st1;" d="M13.29,32.169l-0.773,0.915"/>
	<path style="&st1;" d="M12.678,27.985l0.646,0.53"/>
	<path style="&st1;" d="M13.714,13.106v4.397"/>
	<path style="&st1;" d="M44.876,13.106v4.397"/>
	<path style="&st1;" d="M6.683,41.537l2.708,4.167"/>
	<path style="&st1;" d="M10.29,38.183l-1.952-4.218"/>
	<path style="&st1;" d="M8.405,42.109L9.57,43.9"/>
	<path style="&st1;" d="M16.366,47.356l6.884,6.966"/>
	<path style="&st1;" d="M42.683,46.894l-7.346,7.428"/>
	<path style="&st1;" d="M50.1,34.126l-7.332,12.654"/>
	<g ewd:pinNo="1">
		<text transform="matrix(1 0 0 1 23.3467 32.2183)"><tspan x="0" y="0" style="&st3; &st2;">1</tspan></text>
	</g>
	<g ewd:pinNo="2">
		<text transform="matrix(1 0 0 1 31.8452 32.2183)"><tspan x="0" y="0" style="&st3; &st2;">2</tspan></text>
	</g>
	<g ewd:pinNo="3">
		<text transform="matrix(1 0 0 1 27.5962 41.5669)"><tspan x="0" y="0" style="&st3; &st2;">3</tspan></text>
	</g>
</g>
</svg>