﻿<?xml version="1.0"?>
<!-- Generator: Adobe Illustrator 10.0, SVG Export Plug-In . SVG Version: 3.0.0 Build 77)  -->
<!DOCTYPE svg PUBLIC "-//W3C//DTD SVG 1.0//EN" "http://www.w3.org/TR/2001/REC-SVG-20010904/DTD/svg10.dtd"[
	<!ENTITY ns_flows "http://ns.adobe.com/Flows/1.0/">
	<!ENTITY ns_svg "http://www.w3.org/2000/svg">
	<!ENTITY ns_xlink "http://www.w3.org/1999/xlink">
	<!ENTITY st0 "fill:none;">
	<!ENTITY st1 "stroke:#000000;">
	<!ENTITY st2 "stroke-linecap:round;">
	<!ENTITY st3 "stroke-linejoin:round;">
	<!ENTITY st4 "stroke-width:0.6;">
	<!ENTITY st5 "font-size:6px;">
	<!ENTITY st6 "font-family:'Arial';">
	<!ENTITY st7 "stroke-width:1.4;">
	<!ATTLIST svg
		ewd:ver CDATA #IMPLIED
		xmlns:ewd CDATA #FIXED "http://shcl.co.jp/ewd"
		xmlns:a CDATA #FIXED "http://ns.adobe.com/AdobeSVGViewerExtensions/3.0/">
	<!ATTLIST g
		ewd:pinNo CDATA #IMPLIED>
]>
<svg width="154.985" height="90.811" viewBox="0 0 154.985 90.811" style="overflow:visible;enable-background:new 0 0 61.906 73.805" xml:space="preserve" onload="call_execInitLoadProc_svg('connector')" ewd:ver="L2.1.2.9" xmlns="&ns_svg;" xmlns:ewd="http://shcl.co.jp/ewd" xmlns:a="http://ns.adobe.com/AdobeSVGViewerExtensions/3.0/" xmlns:xlink="&ns_xlink;">
<script type="text/javascript" xlink:href="../../../../../system/js/ewd/fig/svgfig.js"/>
<g id="レイヤー_1" transform="translate(0,17.008)">
	<path style="&st0;&st1;&st2;&st3;" d="M11.914,0.5c-1.894,0-3.51,0.832-4.61,2.373"/>
	<path style="&st0;&st1;&st2;&st3;" d="M54.602,2.874c-1.1-1.54-2.716-2.372-4.609-2.372"/>
	<path style="&st0;&st1;&st4;&st2;&st3;" d="M45.826,27.979v33.994H16.081V27.979H45.826"/>
	<path style="&st0;&st1;&st4;&st2;&st3;" d="M45.826,39.311H16.081"/>
	<path style="&st0;&st1;&st4;&st2;&st3;" d="M45.826,50.642H16.081"/>
	<path style="&st0;&st1;&st4;&st2;&st3;" d="M35.911,61.973V27.979"/>
	<path style="&st0;&st1;&st4;&st2;&st3;" d="M25.996,27.979v33.994"/>
	<path style="&st0;&st1;&st4;&st2;&st3;" d="M45.826,23.729h11.332v33.995H45.826"/>
	<path style="&st0;&st1;&st4;&st2;&st3;" d="M45.826,40.727h11.332"/>
	<path style="&st0;&st1;&st4;&st2;&st3;" d="M45.826,27.979v-4.25"/>
	<path style="&st0;&st1;&st4;&st2;&st3;" d="M16.081,27.979v-4.25"/>
	<path style="&st0;&st1;&st4;&st2;&st3;" d="M16.081,40.727H4.749"/>
	<path style="&st0;&st1;&st4;&st2;&st3;" d="M16.081,23.729H4.749v33.995h11.332"/>
	<path style="&st0;&st1;&st4;&st2;&st3;" d="M0.5,47.809h2.833v11.332h11.332v4.249"/>
	<path style="&st0;&st1;&st4;&st2;&st3;" d="M3.333,22.313v4.249H0.5"/>
	<path style="&st0;&st1;&st4;&st2;&st3;" d="M1.916,26.563v21.247"/>
	<path style="&st0;&st1;&st4;&st2;&st3;" d="M7.582,67.639h46.742"/>
	<path style="&st0;&st1;&st4;&st2;&st3;" d="M0.5,15.231l1.416-1.417h1.417l1.417,1.417v7.082"/>
	<path style="&st0;&st1;&st4;&st2;&st3;" d="M1.916,22.313v-8.499"/>
	<path style="&st0;&st1;&st4;&st2;&st3;" d="M3.333,22.313v-8.499"/>
	<path style="&st0;&st1;&st4;&st2;&st3;" d="M0.5,22.313h4.249"/>
	<path style="&st0;&st1;&st4;&st2;&st3;" d="M57.157,22.313H45.826V5.316H16.081v16.998H4.749"/>
	<path style="&st0;&st1;&st4;&st2;&st3;" d="M16.081,8.149h14.873"/>
	<path style="&st0;&st1;&st4;&st2;&st3;" d="M16.081,10.274h7.437V8.149"/>
	<path style="&st0;&st1;&st4;&st2;&st3;" d="M16.081,12.398h14.873"/>
	<path style="&st0;&st1;&st4;&st2;&st3;" d="M48.659,22.313V3.333H13.248v18.98"/>
	<path style="&st0;&st1;&st2;&st3;" d="M11.914,0.5h38.079"/>
	<path style="&st0;&st1;&st2;&st3;" d="M7.304,2.874L0.5,12.398"/>
	<path style="&st0;&st1;&st4;&st2;&st3;" d="M8.999,22.313V1.308"/>
	<path style="&st0;&st1;&st4;&st2;&st3;" d="M5.458,67.639v-4.25"/>
	<path style="&st0;&st1;&st4;&st2;&st3;" d="M16.081,67.639v-4.25"/>
	<path style="&st0;&st1;&st4;&st2;&st3;" d="M5.458,65.514h10.623"/>
	<path style="&st0;&st1;&st4;&st2;&st3;" d="M61.406,47.809h-2.833v11.332H47.242v4.249"/>
	<path style="&st0;&st1;&st4;&st2;&st3;" d="M58.574,22.313v-8.499"/>
	<path style="&st0;&st1;&st4;&st2;&st3;" d="M59.99,22.313v-8.499"/>
	<path style="&st0;&st1;&st4;&st2;&st3;" d="M61.406,15.231l-1.416-1.417h-1.417l-1.417,1.417v7.082"/>
	<path style="&st0;&st1;&st4;&st2;&st3;" d="M59.99,26.563v21.247"/>
	<path style="&st0;&st1;&st4;&st2;&st3;" d="M58.574,22.313v4.249h2.833"/>
	<path style="&st0;&st1;&st4;&st2;&st3;" d="M45.826,8.149H30.953"/>
	<path style="&st0;&st1;&st4;&st2;&st3;" d="M45.826,10.274H38.39V8.149"/>
	<path style="&st0;&st1;&st4;&st2;&st3;" d="M45.826,12.398H30.953"/>
	<path style="&st0;&st1;&st2;&st3;" d="M54.602,2.874l6.804,9.524"/>
	<path style="&st0;&st1;&st4;&st2;&st3;" d="M56.449,67.639v-4.25"/>
	<path style="&st0;&st1;&st4;&st2;&st3;" d="M52.908,22.313V1.308"/>
	<path style="&st0;&st1;&st4;&st2;&st3;" d="M45.826,67.639v-4.25"/>
	<path style="&st0;&st1;&st4;&st2;&st3;" d="M56.449,65.514H45.826"/>
	<path style="&st0;&st1;&st4;&st2;&st3;" d="M57.157,22.313h4.249"/>
	<path style="&st0;&st1;&st2;&st3;" d="M61.406,12.398V63.39h-2.833v4.25h-4.25l-11.686,5.666H19.268L7.582,67.639h-4.25v-4.25H0.5V12.398"/>
	<path style="&st0;&st1;&st4;&st2;&st3;" d="M58.574,63.39H3.333"/>
	<g ewd:pinNo="13">
		<text transform="matrix(1 0 0 1 47.9346 51.1704)"><tspan x="0" y="0" style="&st6; &st5;">13</tspan></text>
	</g>
	<g ewd:pinNo="12">
		<text transform="matrix(1 0 0 1 37.311 58.2524)"><tspan x="0" y="0" style="&st6; &st5;">12</tspan></text>
	</g>
	<g ewd:pinNo="11">
		<text transform="matrix(1 0 0 1 27.6187 58.2524)"><tspan x="0" y="0" style="&st6; &st5;">11</tspan></text>
	</g>
	<g ewd:pinNo="8">
		<text transform="matrix(1 0 0 1 39.1631 46.9209)"><tspan x="0" y="0" style="&st6; &st5;">8</tspan></text>
	</g>
	<g ewd:pinNo="2">
		<text transform="matrix(1 0 0 1 19.333 35.5894)"><tspan x="0" y="0" style="&st6; &st5;">2</tspan></text>
	</g>
	<g ewd:pinNo="5">
		<text transform="matrix(1 0 0 1 49.7861 34.1729)"><tspan x="0" y="0" style="&st6; &st5;">5</tspan></text>
	</g>
	<g ewd:pinNo="3">
		<text transform="matrix(1 0 0 1 29.248 35.5894)"><tspan x="0" y="0" style="&st6; &st5;">3</tspan></text>
	</g>
	<g ewd:pinNo="1">
		<text transform="matrix(1 0 0 1 8.7095 34.1729)"><tspan x="0" y="0" style="&st6; &st5;">1</tspan></text>
	</g>
	<g ewd:pinNo="7">
		<text transform="matrix(1 0 0 1 29.248 46.9209)"><tspan x="0" y="0" style="&st6; &st5;">7</tspan></text>
	</g>
	<g ewd:pinNo="9">
		<text transform="matrix(1 0 0 1 8.7095 51.1704)"><tspan x="0" y="0" style="&st6; &st5;">9</tspan></text>
	</g>
	<g ewd:pinNo="4">
		<text transform="matrix(1 0 0 1 39.1631 35.5894)"><tspan x="0" y="0" style="&st6; &st5;">4</tspan></text>
	</g>
	<g ewd:pinNo="10">
		<text transform="matrix(1 0 0 1 17.481 58.2524)"><tspan x="0" y="0" style="&st6; &st5;">10</tspan></text>
	</g>
	<g ewd:pinNo="6">
		<text transform="matrix(1 0 0 1 19.333 46.9209)"><tspan x="0" y="0" style="&st6; &st5;">6</tspan></text>
	</g>
</g>
<g id="レイヤー_1" transform="translate(81.747,17.008)">
	<path style="&st0;&st1;&st2;&st3;" d="M0.5,61.407c0,1.564,1.269,2.833,2.833,2.833"/>
	<path style="&st0;&st1;&st2;&st3;" d="M72.738,6.166c0-3.129-2.537-5.666-5.666-5.666"/>
	<path style="&st0;&st1;&st2;&st3;" d="M11.832,70.472c0,1.565,1.268,2.833,2.833,2.833"/>
	<path style="&st0;&st1;&st4;&st2;&st3;" d="M46.18,65.656c0,0.782,0.634,1.416,1.417,1.416"/>
	<path style="&st0;&st1;&st4;&st2;&st3;" d="M25.642,67.072c-0.782,0-1.417,0.634-1.417,1.417"/>
	<path style="&st0;&st1;&st4;&st2;&st3;" d="M22.809,73.305c0.782,0,1.417-0.634,1.417-1.417"/>
	<path style="&st0;&st1;&st4;&st2;&st3;" d="M25.642,67.072c0.782,0,1.417-0.634,1.417-1.416"/>
	<path style="&st0;&st1;&st4;&st2;&st3;" d="M49.013,71.888c0,0.782,0.634,1.417,1.417,1.417"/>
	<path style="&st0;&st1;&st2;&st3;" d="M58.574,73.305c1.564,0,2.833-1.268,2.833-2.833"/>
	<path style="&st0;&st1;&st2;&st3;" d="M6.166,0.5C3.037,0.5,0.5,3.037,0.5,6.166"/>
	<path style="&st0;&st1;&st4;&st2;&st3;" d="M49.013,68.489c0-0.782-0.634-1.417-1.417-1.417"/>
	<path style="&st0;&st1;&st2;&st3;" d="M69.905,64.239c1.565,0,2.833-1.268,2.833-2.833"/>
	<path style="&st0;&st1;&st4;&st2;&st3;" d="M10.415,57.157v2.833h9.915v-2.833H10.415"/>
	<path style="&st0;&st1;&st4;&st2;&st3;" d="M21.747,23.163v33.994h29.745V23.163H21.747"/>
	<path style="&st0;&st1;&st4;&st2;&st3;" d="M21.747,34.495h29.745"/>
	<path style="&st0;&st1;&st4;&st2;&st3;" d="M26.704,61.407v-2.833h19.83v2.833"/>
	<path style="&st0;&st1;&st4;&st2;&st3;" d="M21.747,45.826h29.745"/>
	<path style="&st0;&st1;&st4;&st2;&st3;" d="M31.662,57.157V23.163"/>
	<path style="&st0;&st1;&st4;&st2;&st3;" d="M41.577,23.163v33.994"/>
	<path style="&st0;&st1;&st4;&st2;&st3;" d="M21.747,18.914H10.415v33.994h11.332"/>
	<path style="&st0;&st1;&st4;&st2;&st3;" d="M21.747,35.911H10.415"/>
	<path style="&st0;&st1;&st4;&st2;&st3;" d="M21.747,23.163v-4.249"/>
	<path style="&st0;&st1;&st4;&st2;&st3;" d="M51.491,23.163v-4.249"/>
	<path style="&st0;&st1;&st4;&st2;&st3;" d="M51.491,35.911h11.332"/>
	<path style="&st0;&st1;&st4;&st2;&st3;" d="M51.491,18.914h11.332v33.994H51.491"/>
	<path style="&st0;&st1;&st4;&st2;&st3;" d="M20.33,59.99h2.479l1.417,1.417h24.788l1.417-1.417h2.479"/>
	<path style="&st0;&st1;&st4;&st2;&st3;" d="M10.415,14.665V6.166H4.749v19.122l-1.417,1.417v20.538l1.417,1.417V59.99h5.666"/>
	<path style="&st0;&st1;&st4;&st2;&st3;" d="M10.415,14.665h11.332V3.333h14.873"/>
	<path style="&st0;&st1;&st4;&st2;&st3;" d="M24.579,3.333l1.983,1.983h10.057"/>
	<path style="&st0;&st1;&st4;&st2;&st3;" d="M28.545,5.316v1.983h8.074"/>
	<path style="&st0;&st1;&st4;&st2;&st3;" d="M13.248,3.333v8.499h5.666V3.333H13.248"/>
	<path style="&st0;&st1;&st2;&st3;" d="M0.5,6.166v55.241"/>
	<path style="&st0;&st1;&st4;&st2;&st3;" d="M3.333,64.239h8.499"/>
	<path style="&st0;&st1;&st4;&st2;&st3;" d="M5.316,66.223v-1.983"/>
	<path style="&st0;&st1;&st2;&st3;" d="M11.832,66.223H3.333v-1.983"/>
	<path style="&st0;&st1;&st4;&st2;&st3;" d="M11.832,66.223v-1.983"/>
	<path style="&st0;&st1;&st2;&st3;" d="M11.832,66.223v4.249"/>
	<path style="&st0;&st1;&st2;&st3;" d="M14.664,73.305h43.91"/>
	<path style="&st0;&st1;&st4;&st2;&st3;" d="M24.225,69.056h24.788"/>
	<path style="&st0;&st1;&st4;&st2;&st3;" d="M13.248,62.823l1.416,1.416h43.91l1.417-1.416"/>
	<path style="&st0;&st1;&st4;&st2;&st3;" d="M40.868,69.056v-3.399"/>
	<path style="&st0;&st1;&st4;&st2;&st3;" d="M27.058,64.239v1.417"/>
	<path style="&st0;&st1;&st4;&st2;&st3;" d="M24.225,71.888v-3.399"/>
	<path style="&st0;&st1;&st2;&st3;" d="M6.166,0.5h60.907"/>
	<path style="&st0;&st1;&st4;&st2;&st3;" d="M33.786,69.056v1.983h5.666v-1.983"/>
	<path style="&st0;&st1;&st4;&st2;&st3;" d="M46.18,64.239v1.417"/>
	<path style="&st0;&st1;&st4;&st2;&st3;" d="M49.013,71.888v-3.399"/>
	<path style="&st0;&st1;&st2;&st3;" d="M61.406,66.223v4.249"/>
	<path style="&st0;&st1;&st4;&st2;&st3;" d="M61.406,66.223v-1.983"/>
	<path style="&st0;&st1;&st2;&st3;" d="M61.406,66.223h8.499v-1.983"/>
	<path style="&st0;&st1;&st4;&st2;&st3;" d="M67.922,66.223v-1.983"/>
	<path style="&st0;&st1;&st4;&st2;&st3;" d="M69.905,64.239h-8.499"/>
	<path style="&st0;&st1;&st2;&st3;" d="M72.738,6.166v55.241"/>
	<path style="&st0;&st1;&st4;&st2;&st3;" d="M59.99,3.333v8.499h-5.666V3.333H59.99"/>
	<path style="&st0;&st1;&st4;&st2;&st3;" d="M44.692,5.316v1.983h-8.073"/>
	<path style="&st0;&st1;&st4;&st2;&st3;" d="M48.659,3.333l-1.983,1.983H36.619"/>
	<path style="&st0;&st1;&st4;&st2;&st3;" d="M62.823,14.665H51.491V3.333H36.619"/>
	<path style="&st0;&st1;&st4;&st2;&st3;" d="M62.823,14.665V6.166h5.666v19.122l1.416,1.417v20.538l-1.416,1.417V59.99h-5.666"/>
	<path style="&st0;&st1;&st4;&st2;&st3;" d="M62.823,57.157v2.833h-9.915v-2.833H62.823"/>
	<path style="&st0;&st1;&st4;&st2;&st3;" d="M27.058,65.656H46.18"/>
	<path style="&st0;&st1;&st4;&st2;&st3;" d="M32.37,69.056v-3.399"/>
	<g ewd:pinNo="13">
		<text transform="matrix(1 0 0 1 12.4609 46.7246)"><tspan x="0" y="0" style="&st6; &st5;">13</tspan></text>
	</g>
	<g ewd:pinNo="12">
		<text transform="matrix(1 0 0 1 23.0845 53.8066)"><tspan x="0" y="0" style="&st6; &st5;">12</tspan></text>
	</g>
	<g ewd:pinNo="11">
		<text transform="matrix(1 0 0 1 33.2222 53.8066)"><tspan x="0" y="0" style="&st6; &st5;">11</tspan></text>
	</g>
	<g ewd:pinNo="8">
		<text transform="matrix(1 0 0 1 25.1001 42.4751)"><tspan x="0" y="0" style="&st6; &st5;">8</tspan></text>
	</g>
	<g ewd:pinNo="2">
		<text transform="matrix(1 0 0 1 44.9302 31.1436)"><tspan x="0" y="0" style="&st6; &st5;">2</tspan></text>
	</g>
	<g ewd:pinNo="5">
		<text transform="matrix(1 0 0 1 14.4771 29.7275)"><tspan x="0" y="0" style="&st6; &st5;">5</tspan></text>
	</g>
	<g ewd:pinNo="3">
		<text transform="matrix(1 0 0 1 35.0151 31.1436)"><tspan x="0" y="0" style="&st6; &st5;">3</tspan></text>
	</g>
	<g ewd:pinNo="1">
		<text transform="matrix(1 0 0 1 55.5532 29.7275)"><tspan x="0" y="0" style="&st6; &st5;">1</tspan></text>
	</g>
	<g ewd:pinNo="7">
		<text transform="matrix(1 0 0 1 35.0151 42.4751)"><tspan x="0" y="0" style="&st6; &st5;">7</tspan></text>
	</g>
	<g ewd:pinNo="9">
		<text transform="matrix(1 0 0 1 55.5532 46.7246)"><tspan x="0" y="0" style="&st6; &st5;">9</tspan></text>
	</g>
	<g ewd:pinNo="4">
		<text transform="matrix(1 0 0 1 25.1001 31.1436)"><tspan x="0" y="0" style="&st6; &st5;">4</tspan></text>
	</g>
	<g ewd:pinNo="10">
		<text transform="matrix(1 0 0 1 42.9146 53.8066)"><tspan x="0" y="0" style="&st6; &st5;">10</tspan></text>
	</g>
	<g ewd:pinNo="6">
		<text transform="matrix(1 0 0 1 44.9302 42.4751)"><tspan x="0" y="0" style="&st6; &st5;">6</tspan></text>
	</g>
</g>
<path d="M30.953,9.069v-8.504h87.413v8.504" style="&st0;&st1;&st7;&st2;&st3;"/>
</svg>