﻿<?xml version="1.0"?>
<!-- Generator: Adobe Illustrator 10.0, SVG Export Plug-In . SVG Version: 3.0.0 Build 77)  -->
<!DOCTYPE svg PUBLIC "-//W3C//DTD SVG 1.0//EN" "http://www.w3.org/TR/2001/REC-SVG-20010904/DTD/svg10.dtd"[
	<!ENTITY ns_flows "http://ns.adobe.com/Flows/1.0/">
	<!ENTITY ns_svg "http://www.w3.org/2000/svg">
	<!ENTITY ns_xlink "http://www.w3.org/1999/xlink">
	<!ENTITY st0 "fill:none;stroke:#000000;stroke-linecap:round;stroke-linejoin:round;">
	<!ENTITY st1 "fill:none;stroke:#000000;stroke-width:0.6;stroke-linecap:round;stroke-linejoin:round;">
	<!ENTITY st2 "font-size:6px;">
	<!ENTITY st3 "font-family:'Arial';">
	<!ATTLIST svg
		ewd:ver CDATA #IMPLIED
		xmlns:ewd CDATA #FIXED "http://shcl.co.jp/ewd"
		xmlns:a CDATA #FIXED "http://ns.adobe.com/AdobeSVGViewerExtensions/3.0/">
	<!ATTLIST g
		ewd:pinNo CDATA #IMPLIED>
]>
<svg width="53.408" height="42.785" viewBox="0 0 53.408 42.785" style="overflow:visible;enable-background:new 0 0 53.408 42.785" xml:space="preserve" onload="call_execInitLoadProc_svg('connector')" ewd:ver="L2.1.2.9" xmlns="&ns_svg;" xmlns:ewd="http://shcl.co.jp/ewd" xmlns:a="http://ns.adobe.com/AdobeSVGViewerExtensions/3.0/" xmlns:xlink="&ns_xlink;">
<script type="text/javascript" xlink:href="../../../../../system/js/ewd/fig/svgfig.js"/>
<g id="レイヤー_1">
	<path style="&st1;" d="M24.933,15.373h3.542"/>
	<path style="&st1;" d="M20.33,3.333h12.748"/>
	<path style="&st1;" d="M21.747,6.166h9.915"/>
	<path style="&st0;" d="M20.33,0.5h12.748"/>
	<path style="&st1;" d="M17.497,10.132h2.833"/>
	<path style="&st1;" d="M32.37,18.993v11.173"/>
	<path style="&st1;" d="M21.038,18.993v11.173"/>
	<path style="&st1;" d="M43.701,22.905v3.348"/>
	<path style="&st1;" d="M9.707,22.905v3.348"/>
	<path style="&st1;" d="M33.078,10.132h2.833"/>
	<path style="&st0;" d="M13.248,42.285H40.16"/>
	<path style="&st1;" d="M7.582,22.905v3.348"/>
	<path style="&st1;" d="M45.826,22.905v3.348"/>
	<path style="&st1;" d="M3.333,22.905v3.348"/>
	<path style="&st1;" d="M50.075,22.905v3.348"/>
	<path style="&st0;" d="M0.5,22.905v3.348"/>
	<path style="&st0;" d="M52.908,22.905v3.348"/>
	<path style="&st1;" d="M24.225,12.56v2.105"/>
	<path style="&st1;" d="M29.183,12.56v2.105"/>
	<path style="&st1;" d="M20.33,3.333c-1.564,0-2.833,1.269-2.833,2.833"/>
	<path style="&st1;" d="M35.911,6.166c0-1.564-1.269-2.833-2.833-2.833"/>
	<path style="&st1;" d="M21.747,6.166c-0.782,0-1.417,0.634-1.417,1.417"/>
	<path style="&st1;" d="M33.078,7.583c0-0.783-0.634-1.417-1.416-1.417"/>
	<path style="&st0;" d="M38.712,5.571C38.406,2.667,35.998,0.5,33.078,0.5"/>
	<path style="&st0;" d="M20.33,0.5c-2.919,0-5.328,2.168-5.635,5.071"/>
	<path style="&st1;" d="M40.398,19.373c-9.615-0.646-17.773-0.646-27.388,0"/>
	<path style="&st1;" d="M13.01,29.786c9.615,0.646,17.773,0.646,27.388,0"/>
	<path style="&st1;" d="M34.497,39.311c-0.078,1.563,1.125,2.893,2.688,2.972"/>
	<path style="&st1;" d="M37.186,42.282c0.05,0.002,0.092,0.003,0.142,0.003"/>
	<path style="&st0;" d="M40.16,42.285c1.491,0,2.714-1.137,2.825-2.624"/>
	<path style="&st0;" d="M10.423,39.662c0.11,1.486,1.334,2.623,2.825,2.623"/>
	<path style="&st1;" d="M13.01,19.373c-1.867,0.125-3.303,1.661-3.303,3.532"/>
	<path style="&st1;" d="M9.707,26.253c0,1.872,1.436,3.408,3.303,3.533"/>
	<path style="&st1;" d="M43.701,22.905c0-1.872-1.436-3.407-3.303-3.533"/>
	<path style="&st1;" d="M40.398,29.786c1.867-0.125,3.303-1.661,3.303-3.533"/>
	<path style="&st1;" d="M40.54,17.253c-9.714-0.652-17.957-0.652-27.671,0"/>
	<path style="&st1;" d="M12.868,17.253c-2.988,0.201-5.285,2.657-5.285,5.652"/>
	<path style="&st1;" d="M7.582,26.253c0,2.996,2.297,5.453,5.286,5.653"/>
	<path style="&st1;" d="M12.868,31.905c9.714,0.652,17.957,0.652,27.671,0"/>
	<path style="&st1;" d="M40.54,31.905c2.988-0.201,5.285-2.657,5.285-5.652"/>
	<path style="&st1;" d="M45.826,22.905c0-2.996-2.297-5.452-5.286-5.653"/>
	<path style="&st1;" d="M40.826,13.013c-9.915-0.666-18.328-0.666-28.244,0"/>
	<path style="&st1;" d="M12.582,13.013c-5.229,0.353-9.249,4.651-9.249,9.893"/>
	<path style="&st1;" d="M3.333,26.253c0,5.242,4.02,9.541,9.25,9.893"/>
	<path style="&st1;" d="M50.075,22.905c0-5.242-4.02-9.541-9.25-9.893"/>
	<path style="&st0;" d="M10.35,10.492C4.495,11.858,0.5,16.893,0.5,22.905"/>
	<path style="&st1;" d="M12.582,36.146c8.686,0.583,16.051,0.645,24.745,0.206"/>
	<path style="&st1;" d="M40.826,36.146c5.229-0.352,9.249-4.651,9.249-9.893"/>
	<path style="&st0;" d="M43.973,38.418c5.419-1.699,8.935-6.485,8.935-12.165"/>
	<path style="&st1;" d="M12.392,38.973c7.759,0.521,14.334,0.622,22.105,0.338"/>
	<path style="&st0;" d="M0.5,26.253c0,5.679,3.516,10.466,8.935,12.165"/>
	<path style="&st0;" d="M52.908,22.905c0-6.012-3.995-11.047-9.85-12.414"/>
	<path style="&st0;" d="M43.973,38.418c-0.565,0.178-0.942,0.653-0.988,1.244"/>
	<path style="&st0;" d="M10.423,39.662c-0.045-0.591-0.422-1.067-0.988-1.245"/>
	<path style="&st1;" d="M40.16,36.188c0.234-0.015,0.432-0.028,0.666-0.043"/>
	<path style="&st1;" d="M24.225,14.665c0,0.391,0.317,0.708,0.708,0.708"/>
	<path style="&st1;" d="M28.475,15.373c0.391,0,0.708-0.317,0.708-0.708"/>
	<path style="&st0;" d="M10.35,10.492c2.397-0.56,4.085-2.473,4.344-4.921"/>
	<path style="&st0;" d="M38.712,5.571c0.258,2.449,1.948,4.362,4.345,4.922"/>
	<path style="&st1;" d="M9.435,38.418c1.012,0.317,1.899,0.484,2.958,0.555"/>
	<path style="&st1;" d="M17.497,6.166v9.207h2.833V7.583h12.748v7.791h2.833V6.166"/>
	<path style="&st1;" d="M29.183,7.583v1.7h-4.958v-1.7"/>
	<path style="&st1;" d="M40.16,36.188v3.264h-2.833V36.35"/>
	<g ewd:pinNo="1">
		<text transform="matrix(1 0 0 1 13.9048 26.7046)"><tspan x="0" y="0" style="&st3; &st2;">1</tspan></text>
	</g>
	<g ewd:pinNo="2">
		<text transform="matrix(1 0 0 1 25.2363 26.7046)"><tspan x="0" y="0" style="&st3; &st2;">2</tspan></text>
	</g>
	<g ewd:pinNo="3">
		<text transform="matrix(1 0 0 1 36.5679 26.7046)"><tspan x="0" y="0" style="&st3; &st2;">3</tspan></text>
	</g>
</g>
</svg>