﻿<?xml version="1.0"?>
<!-- Generator: Adobe Illustrator 10.0, SVG Export Plug-In . SVG Version: 3.0.0 Build 77)  -->
<!DOCTYPE svg PUBLIC "-//W3C//DTD SVG 1.0//EN" "http://www.w3.org/TR/2001/REC-SVG-20010904/DTD/svg10.dtd"[
	<!ENTITY ns_flows "http://ns.adobe.com/Flows/1.0/">
	<!ENTITY ns_svg "http://www.w3.org/2000/svg">
	<!ENTITY ns_xlink "http://www.w3.org/1999/xlink">
	<!ENTITY st0 "fill:none;stroke:#000000;stroke-width:0.28;stroke-linecap:round;stroke-linejoin:round;">
	<!ENTITY st1 "fill:none;stroke:#FFFFFF;stroke-width:2;stroke-linejoin:round;">
	<!ENTITY st2 "fill:none;stroke:#000000;stroke-width:0.3;stroke-linecap:round;stroke-linejoin:round;">
	<!ENTITY st3 "fill:#99CF16;stroke:#000000;stroke-width:0.6;">
	<!ENTITY st4 "fill:none;stroke:#000000;stroke-width:0.6;stroke-linecap:round;stroke-linejoin:round;">
	<!ENTITY st5 "fill:#FFFF00;stroke:#000000;stroke-width:0.6;stroke-linecap:round;stroke-linejoin:round;">
	<!ENTITY st6 "font-family:'Arial';font-weight:bold;">
	<!ENTITY st7 "fill:#80CFE2;stroke:#000000;stroke-width:0.6;stroke-linecap:round;stroke-linejoin:round;">
	<!ENTITY st8 "fill:none;stroke:#000000;stroke-width:0.5;stroke-linejoin:round;">
	<!ENTITY st9 "fill:#FFFFFF;">
	<!ENTITY st10 "fill:#99CF16;stroke:#000000;stroke-width:0.3;stroke-linecap:round;stroke-linejoin:round;">
	<!ENTITY st11 "fill:#99CF16;stroke:#000000;stroke-width:0.6;stroke-linecap:round;stroke-linejoin:round;">
	<!ENTITY st12 "font-family:'Arial';">
	<!ENTITY st13 "fill:#80CFE2;stroke:#000000;stroke-width:0.6;">
	<!ENTITY st14 "font-size:10px;">
	<!ENTITY st15 "fill:#FFB300;stroke:#000000;stroke-width:0.6;stroke-linecap:round;stroke-linejoin:round;">
	<!ENTITY st16 "fill:#F65095;stroke:#000000;stroke-width:0.6;stroke-linecap:round;stroke-linejoin:round;">
	<!ENTITY st17 "fill:#FFFFFF;stroke:#000000;stroke-width:1.5;">
	<!ENTITY st18 "fill:none;stroke:#FFFFFF;stroke-width:1.2;stroke-linecap:round;stroke-linejoin:round;">
	<!ATTLIST svg
		xmlns:ewd CDATA #FIXED "http://shcl.co.jp/ewd"
		xmlns:a CDATA #FIXED "http://ns.adobe.com/AdobeSVGViewerExtensions/3.0/"
		ewd:ver CDATA #IMPLIED>
	<!ATTLIST a
		ewd:innerGroupID CDATA #IMPLIED
		ewd:figtype CDATA #IMPLIED
		ewd:code CDATA #IMPLIED
		ewd:pinNo CDATA #IMPLIED>
]>
<svg width="518.74" height="312.164" viewBox="0 0 518.74 312.164" style="overflow:visible;enable-background:new 0 0 518.74 312.164" xml:space="preserve" onload="call_execInitLoadProc_svg('location')" ewd:ver="L2.1.2.9" xmlns="&ns_svg;" xmlns:ewd="http://shcl.co.jp/ewd" xmlns:a="http://ns.adobe.com/AdobeSVGViewerExtensions/3.0/" xmlns:xlink="&ns_xlink;">
<script type="text/javascript" xlink:href="../../../../../system/js/ewd/fig/svgfig.js"/>
<g id="waku">
	<path style="&st9;" d="M518.74,311.811V0H0v311.811H518.74z"/>
</g>
<g id="イラスト">
	<g>
		<path style="&st15;" d="M125.962,234.135c-6.186-3.428-17.736-10.244-19.15-11.32c-1.844-1.404-2.367-3.344-1.793-4.334     c0.612-1.059,2.105-1.342,2.768-1.064l0.001-2.332c-2.45-0.652-4.068,0.973-4.793,2.225c-1.078,1.865-0.604,5.078,2.401,7.365     c1.595,1.215,14.509,8.818,20.565,12.113L125.962,234.135z"/>
		<g>
			<path style="&st15;" d="M113.558,215.162l-2.895-1.67l-2.876,0.771v4.777l2.893,1.674l2.878-0.771V215.162z"/>
			<path style="&st0;" d="M110.679,220.715v-4.781"/>
			<path style="&st0;" d="M110.679,215.934l2.878-0.771"/>
			<path style="&st0;" d="M107.787,214.264l2.893,1.67"/>
		</g>
		<g>
			<path style="&st15;" d="M130.866,234.877l-2.895-1.67l-2.011,0.57v4.85l2.893,1.674l2.013-0.643V234.877z"/>
			<path style="&st0;" d="M128.854,240.301v-4.854"/>
			<path style="&st0;" d="M128.854,235.447l2.013-0.57"/>
			<path style="&st0;" d="M125.961,233.777l2.893,1.67"/>
		</g>
	</g>
	<path style="&st16;" d="M321.84,129.073l0.98-0.323c-1.517-0.862-3.531-1.522-6.251-0.727c-2.596,0.76-4.665,2.761-5.151,4.981    c-0.07,0.324,0.135,0.644,0.459,0.714c0.323,0.071,0.643-0.134,0.714-0.458c0.388-1.775,2.163-3.456,4.315-4.085    c2.082-0.609,3.655-0.236,4.931,0.407L321.84,129.073z"/>
	<path style="&st11;" d="M317.604,124.697c1.519-0.537,2.66-1.362,3.116-2.273c0.243-0.486,1.845-0.869,2.885-0.625    c0.796,0.188,2.069,1.799,1.743,3.57c-0.258,1.407-0.719,3.344-1.139,5.017l1.529,0.479c0.432-1.719,0.913-3.737,1.184-5.207    c0.562-3.057-1.824-5.152-2.951-5.417c-1.865-0.438-4.158,0.418-4.682,1.466c-0.255,0.509-1.209,1.218-2.767,1.654    c-0.134,0.038-0.247,0.109-0.341,0.2l1.389,0.634L317.604,124.697z"/>
	<g>
		<path style="&st11;" d="M390.758,141.003l-0.206,4.195l-2.144,0.541l-2.373-1.28l0.207-4.397l1.907-0.492L390.758,141.003z"/>
		<path style="&st2;" d="M386.242,140.3l2.551,1.313l-0.24,4.018"/>
		<path style="&st2;" d="M388.658,141.579l1.965-0.498"/>
	</g>
	<path style="&st11;" d="M392.998,137.068c-0.446-0.612-1.14-0.98-2.061-1.096c-0.648-0.081-1.251,0.094-1.744,0.505    c-1.127,0.941-1.395,2.875-1.454,3.944c-0.024,0.441,0.313,0.819,0.754,0.843c0.441,0.024,0.819-0.313,0.844-0.754    c0.074-1.338,0.412-2.412,0.882-2.805c0.154-0.128,0.31-0.172,0.52-0.146c0.466,0.058,0.791,0.21,0.968,0.452    c0.281,0.386,0.234,1.033,0.146,1.507c-0.113,0.603-0.311,1.282-0.52,2c-0.309,1.061-0.65,2.26-0.847,3.596l1.685-0.389    c0.188-0.993,0.454-1.921,0.698-2.759c0.221-0.757,0.429-1.472,0.556-2.152C393.639,138.672,393.495,137.749,392.998,137.068z"/>
	<g>
		<path style="&st11;" d="M328.949,137.286l-2.02-1.484l0.534-1.247v-3.029l-3.979-1.247l-1.96,3.266l-9.323,2.672l-6.532-0.593     l-1.365,3.206v2.197l4.334,0.475l0.714,0.416l-2.376,0.713v2.969l3.623,1.781l5.582-1.484l6.074,2.659"/>
		<path style="&st4;" d="M309.174,141.978l4.038-1.188"/>
		<path style="&st4;" d="M326.87,135.979l-1.425-1.009"/>
		<path style="&st11;" d="M322.951,145.718l-0.695,2.838l-6.5,2.1l-0.101,3.307l4,1.9l31.7-9.614v-3.293l-3.7-1.9l-5.597,1.135     l-3.846-0.332l-2.257-1.069l2.266-0.619v-2.729l-4.346-1.92l-4.851,1.617"/>
		<path style="&st2;" d="M305.255,138.592l4.751,0.416l3.324,1.604"/>
		<path style="&st2;" d="M307.096,142.927l3.563,1.485v2.791"/>
		<path style="&st2;" d="M310.836,144.412l5.464-1.485l6.532,2.672"/>
		<path style="&st2;" d="M316.642,151.057l3.214,1.499l31.117-9.542"/>
		<path style="&st2;" d="M325.445,134.97l1.662-3.326"/>
		<path style="&st2;" d="M316.122,143.699v2.198"/>
		<path style="&st2;" d="M309.768,139.839v1.841"/>
		<path style="&st4;" d="M336.135,140.849l-3.267-1.841"/>
		<path style="&st2;" d="M332.868,139.008l4.395-1.424"/>
	</g>
	<path style="&st7;" d="M243.423,165.393l-0.438-1.285c-0.526-1.576-1.122-3.363-1.781-4.352c-0.521-0.781-1.29-1.279-2.165-1.402    c-0.723-0.104-1.856,0.006-3.151,1.102l-3.067,2.447c-1.188,0.924-2.309,1.799-2.947,2.365c-0.554,0.492-1.279,0.594-1.535,0.447    c-0.168-0.098-0.114-0.469-0.083-0.625c0.373-1.867,2.272-7.73,2.908-9.638c0.735-2.207,0.798-3.442,0.208-4.132    c-0.188-0.219-0.614-0.568-1.366-0.443c-0.051,0.008-0.101,0.022-0.149,0.04l-0.713,0.267l0.354,0.195l0.068,1.35    c0.018-0.005,0.036-0.007,0.053-0.014c0,0,0.306-0.115,0.542-0.203c0.003,0.034,0.008,0.054,0.008,0.102    c0,0.335-0.086,1.02-0.523,2.333c-0.025,0.075-2.495,7.509-2.958,9.829c-0.045,0.227-0.065,0.434-0.065,0.621    c0,1.049,0.619,1.533,0.921,1.705c0.927,0.531,2.386,0.258,3.394-0.637c0.6-0.533,1.701-1.393,2.868-2.301l3.118-2.488    c0.667-0.563,1.322-0.82,1.894-0.738c0.535,0.076,0.87,0.426,1.057,0.705c0.541,0.811,1.125,2.564,1.594,3.971l0.453,1.326    c0.355,0.977-0.226,2.371-1.726,4.143c-1.487,1.758-7.666,14.633-7.275,18.418l1.571-0.586c0.126-3.398,5.426-15.025,6.926-16.799    C243.34,168.842,243.997,166.969,243.423,165.393z"/>
	<path style="&st7;" d="M222.341,199.076c-0.009-1.643-0.49-2.582-1.21-3.68c-0.093,0.117-0.22,0.211-0.374,0.262    c-1.328,0.443-3.168,0.391-4.285-0.727c-0.751-0.752-2.324-2.164-3.078-2.666c-0.183-0.123-0.37-0.193-0.581-0.219v-0.736    l-1.237-0.721c0.793-0.215,1.752-0.291,2.705,0.344c0.881,0.588,2.523,2.068,3.322,2.867c0.526,0.525,1.622,0.67,2.617,0.348    c-0.729-0.881-1.478-1.463-3.149-2.715c-1.341-1.006-1.658-2.293-1.913-3.326c-0.211-0.855-0.365-1.4-0.854-1.801    c-1.458-1.193-4.951-3.529-6.278-4.129c-2.348-1.061-5.887-1.238-9.389-0.531v-0.781l-1.708-0.877    c4.298-1.121,8.911-0.992,11.919,0.367c1.621,0.732,5.282,3.225,6.722,4.404c1.029,0.842,1.295,1.918,1.529,2.869    c0.224,0.908,0.401,1.627,1.171,2.203c2.049,1.537,2.923,2.221,4.009,3.713c1.188,1.635,1.868,2.977,2.055,5.377l-0.03,1.045    l-1.9,0.467C222.404,200.434,222.344,199.621,222.341,199.076z"/>
	<g>
		<path style="&st11;" d="M317.57,124.196l0.135,2.019l-3.018,0.958l-1.796-0.795l-0.146-2.204l2.804-0.901L317.57,124.196z"/>
		<path style="&st2;" d="M312.761,124.392l1.96,0.814l0.093,1.859"/>
		<path style="&st10;" d="M314.595,125.184l2.857-0.909"/>
	</g>
	<g>
		<path style="&st16;" d="M314.555,125.155l0.133,2.018l-3.017,0.958l-1.796-0.794l-0.146-2.204l2.805-0.901L314.555,125.155z"/>
		<path style="&st2;" d="M309.744,125.351l1.96,0.814l0.093,1.858"/>
		<path style="&st10;" d="M311.578,126.143l2.857-0.909"/>
	</g>
	<g>
		<path style="&st16;" d="M313.154,121.955l0.134,2.019l-3.017,0.958l-1.797-0.795l-0.146-2.204l2.804-0.901L313.154,121.955z"/>
		<path style="&st2;" d="M308.344,122.151l1.961,0.814l0.092,1.859"/>
		<path style="&st10;" d="M310.178,122.942l2.858-0.909"/>
	</g>
	<path style="&st7;" d="M175.122,217.357l57.358-14.998l-0.782,8.418l4.232-1.242l1.196-15.824l-2.024-6.025l-3.818,1.426    l2.024,5.061c0,0-2.346,0.598-3.542,0.965c-1.196,0.369-1.702,0.691-1.748,1.934c-0.039,1.037,0.092,1.148,0.092,2.115    s-0.545,0.947-0.545,0.947l-46.381,11.402v-2.98l-3.498,1.037l0.389-5.961l-3.757,0.906l-0.526,12.143    C173.791,216.68,173.788,217.621,175.122,217.357z"/>
	<path style="&st11;" d="M392.291,158.646l0.52-14.069l-3.682,0.85l-0.331,6.137c0,0-1.458,0.496-2.026,0.78    c-0.567,0.283-0.993,1.277-0.993,1.277l-0.426,3.264l-44.712,12.493l0.285-5.254l-5.395,1.42l2.271-6.104l-3.406-1.137    l-3.407,7.523l-1.277,17.461l4.69-1.1l0.789-7.439L392.291,158.646z"/>
	<path style="&st2;" d="M388.9,155.912c-0.262,0.223-0.584,0.317-0.867,0.225c-0.473-0.154-0.665-0.767-0.429-1.369    c0.235-0.602,0.81-0.964,1.28-0.81c0.354,0.115,0.549,0.485,0.528,0.916"/>
	<path style="&st2;" d="M178.853,212.846c-0.262,0.221-0.583,0.316-0.868,0.223c-0.473-0.154-0.665-0.768-0.429-1.369    c0.235-0.602,0.809-0.963,1.281-0.809c0.353,0.113,0.549,0.484,0.528,0.914"/>
	<path style="&st2;" d="M338.022,168.588c0.386-0.113,0.796-0.283,0.899-0.807c0.103-0.521-0.135-1.008-0.528-1.086    c-0.021-0.004-0.04-0.006-0.061-0.008l-2.344,0.549c-0.319,0.055-0.608,0.377-0.692,0.807c-0.102,0.523,0.133,1.008,0.528,1.086    l0.742-0.15"/>
	<path style="&st2;" d="M232.295,197.979c0.385-0.113,0.796-0.283,0.899-0.807c0.102-0.521-0.134-1.008-0.528-1.086    c-0.021-0.004-0.041-0.006-0.061-0.008l-2.344,0.547c-0.319,0.057-0.607,0.377-0.692,0.809c-0.102,0.521,0.133,1.008,0.528,1.086    l0.743-0.152"/>
	<g>
		<path style="&st11;" d="M287.764,140.268v2.443l-3.718,1.316l-2.207-1.276v-2.732l3.382-1.248L287.764,140.268z"/>
		<path style="&st2;" d="M281.839,140.359l2.46,1.323l-0.048,2.192"/>
		<path style="&st2;" d="M284.107,141.634l3.464-1.256"/>
	</g>
	<g>
		<path style="&st7;" d="M189.004,162.436v3.029l-4.667,1.105l-2.208-1.277v-3.318l4.333-1.035L189.004,162.436z"/>
		<path style="&st2;" d="M182.13,162.07l2.46,1.324l-0.048,3.021"/>
		<path style="&st2;" d="M184.495,163.395l4.415-1.043"/>
	</g>
	<g>
		<path style="&st7;" d="M203.122,173.426v3.762l-4.668,1.105l-2.207-1.277v-4.051l4.333-1.035L203.122,173.426z"/>
		<path style="&st2;" d="M196.247,173.061l2.459,1.324l-0.047,3.754"/>
		<path style="&st2;" d="M198.612,174.385l4.415-1.043"/>
	</g>
	<g>
		<path style="&st7;" d="M194.28,169.178v3.029l-4.668,1.104l-2.953-1.738v-3.318l4.333-1.037L194.28,169.178z"/>
		<path style="&st2;" d="M186.66,168.35l3.205,1.785l-0.048,3.021"/>
		<path style="&st2;" d="M189.771,170.135l4.415-1.043"/>
	</g>
	<g>
		<path style="&st7;" d="M152.226,193.346v3.029l-4.667,1.105l-2.953-1.74v-3.316l4.333-1.037L152.226,193.346z"/>
		<path style="&st2;" d="M144.606,192.518l3.205,1.787l-0.048,3.021"/>
		<path style="&st2;" d="M147.717,194.305l4.415-1.043"/>
	</g>
	<g>
		<path style="&st11;" d="M308.123,153.64v2.442l-3.718,1.316l-2.207-1.276v-2.731l3.382-1.249L308.123,153.64z"/>
		<path style="&st2;" d="M302.198,153.73l2.46,1.324l-0.048,2.192"/>
		<path style="&st2;" d="M304.467,155.005l3.464-1.256"/>
	</g>
	<g>
		<path style="&st11;" d="M308.881,160.822v2.076l-3.16,1.119l-1.876-1.086v-2.322l2.875-1.061L308.881,160.822z"/>
		<path style="&st2;" d="M303.846,160.898l2.09,1.125l-0.04,1.863"/>
		<path style="&st2;" d="M305.772,161.982l2.945-1.068"/>
	</g>
	<g>
		<path style="&st11;" d="M277.827,181.629v2.076l-3.159,1.119l-3.903-1.83l0.107-2.158l2.874-1.061L277.827,181.629z"/>
		<path style="&st2;" d="M271.061,181.078l3.822,1.752l-0.041,1.863"/>
		<path style="&st2;" d="M274.72,182.789l2.944-1.066"/>
	</g>
	<g>
		<path style="&st7;" d="M244.501,180.891l-0.25,5.076l-2.593,0.654l-2.872-1.549l0.25-5.322l2.309-0.596L244.501,180.891z"/>
		<path style="&st2;" d="M239.037,180.039l3.086,1.588l-0.291,4.863"/>
		<path style="&st2;" d="M241.96,181.586l2.378-0.602"/>
	</g>
	<g>
		<path style="&st7;" d="M171.837,202.42l-0.25,5.076l-2.594,0.654l-2.872-1.549l0.25-5.322l2.309-0.596L171.837,202.42z"/>
		<path style="&st2;" d="M166.372,201.568l3.086,1.59l-0.291,4.861"/>
		<path style="&st2;" d="M169.295,203.117l2.378-0.604"/>
	</g>
	<g>
		<path style="&st7;" d="M163.396,164.332v2.674l-4.063,1l-3.551-1.896v-2.918l3.778-0.943L163.396,164.332z"/>
		<path style="&st2;" d="M155.783,163.48l3.766,1.936l-0.041,2.461"/>
		<path style="&st2;" d="M159.385,165.375l3.848-0.949"/>
	</g>
	<g>
		<path style="&st5;" d="M159.394,165.375v2.674l-4.063,1l-3.551-1.896v-2.92l3.778-0.941L159.394,165.375z"/>
		<path style="&st2;" d="M151.78,164.521l3.766,1.938l-0.04,2.459"/>
		<path style="&st2;" d="M155.383,166.418l3.848-0.949"/>
	</g>
	<g>
		<path style="&st11;" d="M370.149,144.778v2.076l-3.16,1.119l-3.19-2.071v-2.322l2.875-1.061L370.149,144.778z"/>
		<path style="&st2;" d="M363.799,143.869l3.322,2.11l0.043,1.863"/>
		<path style="&st2;" d="M367.041,145.938l2.945-1.067"/>
	</g>
	<g>
		<path style="&st11;" d="M373.909,137.075v3.67l-2.297,0.628l-3.19-2.071v-3.916l2.013-0.571L373.909,137.075z"/>
		<path style="&st2;" d="M368.423,135.676l3.321,2.11l0.043,3.457"/>
		<path style="&st2;" d="M371.664,137.746l2.082-0.578"/>
	</g>
	<g>
		<path style="&st7;" d="M153.465,226.51v3.67l-2.297,0.629l-3.722-1.531v-3.916l2.013-0.57L153.465,226.51z"/>
		<path style="&st2;" d="M147.446,225.65l3.853,1.57l0.043,3.457"/>
		<path style="&st2;" d="M151.219,227.182l2.083-0.578"/>
	</g>
	<g>
		<path style="&st7;" d="M134.039,236.521v4.605l-2.297,0.629l-2.917-1.443v-4.854l2.012-0.57L134.039,236.521z"/>
		<path style="&st2;" d="M128.824,235.748l3.049,1.484l0.042,4.393"/>
		<path style="&st2;" d="M131.793,237.191l2.083-0.578"/>
	</g>
	<g>
		<path style="&st7;" d="M127.988,219.076v4.541l-2.297,0.629l-3.196-1.551v-4.785l2.013-0.572L127.988,219.076z"/>
		<path style="&st2;" d="M122.494,218.199l3.328,1.588l0.043,4.328"/>
		<path style="&st2;" d="M125.742,219.748l2.083-0.578"/>
	</g>
	<g>
		<path style="&st7;" d="M127.988,212.676v4.541l-2.297,0.629l-3.196-1.549v-4.787l2.013-0.57L127.988,212.676z"/>
		<path style="&st2;" d="M122.494,211.799l3.328,1.59l0.043,4.326"/>
		<path style="&st2;" d="M125.742,213.348l2.083-0.578"/>
	</g>
	<g>
		<path style="&st7;" d="M127.785,225.564v4.541l-2.297,0.629l-3.196-1.551v-4.787l2.013-0.57L127.785,225.564z"/>
		<path style="&st2;" d="M122.292,224.686l3.327,1.59l0.043,4.326"/>
		<path style="&st2;" d="M125.539,226.234l2.083-0.578"/>
	</g>
	<g>
		<path style="&st11;" d="M382.722,140.713v2.74l-1.878,0.469l-2.609-1.546v-2.923l1.646-0.426L382.722,140.713z"/>
		<path style="&st2;" d="M378.235,139.669l2.716,1.575l0.036,2.581"/>
		<path style="&st2;" d="M380.886,141.214l1.703-0.431"/>
	</g>
	<g>
		<path style="&st11;" d="M386.023,149.705v2.077l-3.16,1.119l-3.19-2.071v-2.322l2.875-1.062L386.023,149.705z"/>
		<path style="&st2;" d="M379.673,148.796l3.321,2.11l0.043,1.863"/>
		<path style="&st2;" d="M382.915,150.866l2.944-1.067"/>
	</g>
	<g>
		<path style="&st11;" d="M376.703,154.152v2.025l-3.082,0.775l-2.098-1.329v-2.182l2.894-0.739L376.703,154.152z"/>
		<path style="&st2;" d="M371.523,153.628l2.185,1.354l0.028,1.887"/>
		<path style="&st2;" d="M373.655,154.956l2.939-0.743"/>
	</g>
	<g>
		<path style="&st11;" d="M301.97,138.62c-0.451,0.183-0.79,0.408-1.109,0.624c-0.278,0.188-0.542,0.366-0.873,0.498     c-1.452,0.581-2.876,0.927-5.106,0.729c-2.4-0.213-5.325-0.281-7.115-0.166c0,0-0.001,0-0.002,0v1.171     c0.025,0.001,0.052,0.005,0.078,0.003c1.737-0.112,4.589-0.045,6.935,0.163c2.608,0.232,4.256-0.251,5.647-0.808     c0.447-0.179,0.776-0.4,1.095-0.614c0.615-0.415,1.203-0.81,2.785-0.798v-0.59l0.234-0.765     C303.388,137.966,301.97,138.62,301.97,138.62z"/>
	</g>
	<g>
		<path style="&st7;" d="M176.231,175.195l-2.02-1.484l0.535-1.246v-3.029l-3.979-1.246l-1.96,3.266l-9.323,2.672l-6.532-0.594     l-1.366,3.207v2.197l4.335,0.475l0.713,0.416l-2.376,0.713v2.969l3.623,1.781l5.582-1.484l6.075,2.66"/>
		<path style="&st4;" d="M156.456,179.887l4.039-1.188"/>
		<path style="&st4;" d="M174.153,173.889l-1.425-1.01"/>
		<path style="&st7;" d="M170.233,183.629l-0.695,2.838l-6.5,2.1l-0.1,3.307l4,1.9l31.7-9.613v-3.295l-3.7-1.898l-5.597,1.133     l-3.846-0.332l-2.257-1.068l2.266-0.619v-2.729l-4.345-1.92l-4.851,1.617"/>
		<path style="&st2;" d="M152.537,176.502l4.75,0.416l3.326,1.604"/>
		<path style="&st2;" d="M154.378,180.838l3.563,1.484v2.791"/>
		<path style="&st2;" d="M158.119,182.322l5.463-1.484l6.532,2.672"/>
		<path style="&st2;" d="M163.924,188.967l3.214,1.5l31.117-9.543"/>
		<path style="&st2;" d="M172.728,172.879l1.663-3.324"/>
		<path style="&st2;" d="M163.404,181.609v2.197"/>
		<path style="&st2;" d="M157.05,177.75v1.84"/>
		<path style="&st4;" d="M183.417,178.758l-3.266-1.84"/>
		<path style="&st2;" d="M180.15,176.918l4.395-1.426"/>
	</g>
	<path style="&st13;" d="M198.188,175.455c-0.122-0.416-0.553-0.654-0.969-0.533l-1.079,0.316c-1.909,0.566-2.78,0.826-4.242,0.566    c-0.488-0.084-1.313-0.416-2.186-0.766c-1.097-0.441-2.314-0.928-3.51-1.229c0.031-0.021,0.063-0.041,0.093-0.064    c0.411-0.309,0.566-0.775,0.703-1.186c0.216-0.652,0.338-0.943,0.965-1.025c0.429-0.059,0.73-0.451,0.673-0.881    s-0.451-0.732-0.88-0.674c-1.625,0.217-2.029,1.432-2.247,2.086c-0.051,0.154-0.128,0.387-0.177,0.445    c-0.912,0.684-1.93,0.908-2.914,1.127l-0.146,0.031c-0.106,0.023-0.203,0.068-0.286,0.127l3.147,1.393    c1.299,0.225,2.781,0.816,3.995,1.305c0.992,0.396,1.848,0.742,2.497,0.855c1.826,0.322,2.939-0.008,4.96-0.607l1.067-0.313    C198.068,176.307,198.311,175.871,198.188,175.455z"/>
	<path style="&st13;" d="M156.626,182.695c-0.169-0.398-0.629-0.584-1.028-0.414c-3.027,1.283-2.384,3.436-1.914,5.006    c0.202,0.674,0.41,1.371,0.383,2.004c-0.083,1.9-0.708,2.963-2.277,3.795l0.436,0.26v1.275c2.273-1.107,3.295-2.686,3.408-5.262    c0.039-0.896-0.219-1.76-0.447-2.521c-0.473-1.584-0.711-2.377,1.024-3.113C156.609,183.555,156.795,183.094,156.626,182.695z"/>
	<path style="&st3;" d="M331.188,165.391c-1.104-0.201-2.429,0.168-3.728,0.533c-1.019,0.285-2.07,0.58-3.162,0.703    c-0.658,0.072-1.124,0.012-1.313-0.172c-0.36-0.352-0.262-1.543-0.156-2.805c0.061-0.73,0.127-1.557,0.134-2.439l-0.573,0.145    l-0.958-0.516c-0.02,0.068-0.033,0.141-0.033,0.215c0,0.879-0.07,1.723-0.133,2.467c-0.148,1.781-0.266,3.191,0.627,4.059    c0.554,0.537,1.397,0.736,2.578,0.604c1.219-0.135,2.384-0.461,3.412-0.75c1.467-0.41,2.409-0.629,3.025-0.496l0.081-1.109    L331.188,165.391z"/>
	<path style="&st7;" d="M147.836,209.887c-0.431,0.293-0.737,0.607-0.917,0.941c-0.332,0.738,1.23,3.67,2.924,5.229    c0.437,0.395,0.877,0.771,1.292,1.115c1.032,0.855,2.012,1.584,2.875,2.227c2.288,1.705,4.094,3.051,5.234,5.412    c0.658,1.361,0.505,2.705-0.417,3.686c-0.522,0.553-1.234,0.939-2.051,1.152c-1.027,0.182-2.439,0.217-3.25-0.02    c-0.392-0.115-0.795-0.219-1.188-0.381c-0.4-0.166-0.591-0.623-0.426-1.023c0.166-0.4,0.624-0.592,1.024-0.428    c2.056,0.848,3.981,0.438,4.75-0.377c0.472-0.502,0.522-1.15,0.146-1.928c-0.972-2.016-2.561-3.197-4.758-4.836    c-0.879-0.654-1.875-1.396-2.939-2.277c-1.678-1.391-3.356-2.936-4.271-4.512c-0.624-1.197-0.727-2.201-0.626-3.252    c-0.75,0.25-1.9,0.951-2.556,1.502c-1.161,0.953-2.053,1.996-2.799,2.965c-0.005,0.006-0.008,0.012-0.013,0.018    c-0.447,0.564-0.884,1.375-1.308,2.301c0.011,0.15-0.021,0.305-0.101,0.445c-2.293,4.031-0.766,10.451,0.349,15.139    c0.51,2.143,0.913,3.836,0.913,5.021c0,1.699-0.753,2.494-1.385,2.859c-2.08,1.209-5.367-0.549-6.005-0.914    c-0.376-0.215-0.506-0.693-0.292-1.07c0.215-0.375,0.694-0.506,1.07-0.291c1.508,0.861,3.518,1.455,4.439,0.92    c0.149-0.086,0.604-0.352,0.604-1.504c0-1.002-0.403-2.695-0.87-4.658c-0.624-2.623-1.37-5.762-1.544-8.811    c-0.326,0.766-0.652,1.447-0.984,1.979c-1.821,2.912-4.976,2.711-8.05,2.256c-0.428-0.063-0.724-0.461-0.661-0.891    c0.063-0.428,0.462-0.725,0.89-0.66c3.283,0.486,5.29,0.385,6.491-1.537c0.648-1.037,1.323-2.842,2.037-4.754    c0.281-0.752,0.565-1.512,0.855-2.248c-2.957,2.385-7.279,4.066-9.665,3.547c-0.423-0.092-0.692-0.51-0.6-0.932    c0.092-0.424,0.509-0.691,0.933-0.6c1.583,0.344,4.948-0.824,7.563-2.648c-3.763-0.172-6.467-1.477-7.763-2.033    c-0.398-0.17-0.583-0.631-0.412-1.029c0.17-0.398,0.637-0.594,1.029-0.41c3.833,1.789,7.225,2.324,9.164,1.736    c0.064-0.07,0.134-0.137,0.195-0.209c0.155-0.18,0.374-0.268,0.593-0.268c0.003-0.004,0.007-0.008,0.009-0.012l0.512-0.686    c0.825-1.117,1.864-2.518,3.339-3.826c0.946-0.688,1.987-1.514,2.903-2.035c0.533-0.303,1.114-0.564,1.736-0.807    c0.054-0.176,0.149-0.34,0.277-0.473L147.836,209.887z"/>
	<path style="&st7;" d="M152.271,208.467c4.917-1.43,5.575-5.109,6.119-8.617c0.488-3.145,2.877-5.543,7.103-7.127    c0.621-0.232,0.935-0.924,0.702-1.545s-0.924-0.936-1.545-0.701c-5.025,1.883-8.009,4.998-8.631,9.006    c-0.577,3.717-1.431,5.68-4.727,6.779l-0.346,0.094c-0.259,0.076-0.515,0.152-0.767,0.229L152.271,208.467z"/>
	<path style="&st7;" d="M174.359,162.482c0.447,0.205,0.823,0.486,1.111,0.869c0.591,0.783,0.646,1.758,0.447,2.742    c1.292-0.906,2.989-1.438,5.42-2.191l1.638-0.514c0.414-0.129,0.856,0.1,0.986,0.514c0.129,0.412-0.097,0.852-0.511,0.98    l-1.649,0.518c-3.838,1.191-5.427,1.686-6.612,3.873c-0.099,0.182-0.261,0.309-0.444,0.367v-0.205l-1.742-0.545    c-0.093-0.252-0.087-0.539,0.047-0.795c1.309-2.502,1.033-3.326,0.854-3.564c-0.855-1.133-5.452-0.182-9.145,0.582l-1.332,0.273    c-0.011,0.002-0.021,0.002-0.032,0.004v-1.059l-0.932-0.506c0.139-0.178,0.335-0.313,0.574-0.361l1.324-0.271    c1.707-0.354,3.295-0.682,4.723-0.895C170.871,162.133,173.113,162.1,174.359,162.482z"/>
	<path style="&st7;" d="M241.029,193.012c-0.765,0.641-1.664,1.043-2.614,1.469l-1.399,0.668l0.109-1.438l-0.228-0.678l0.718-0.344    c2.292-1.023,3.554-1.588,3.739-5.941c0.004-0.094,0.024-0.18,0.052-0.264l0.251,0.137l1.488-0.377    c0.112,0.168,0.177,0.369,0.167,0.586c-0.067,1.582-0.296,2.789-0.632,3.738C242.404,191.467,241.521,192.559,241.029,193.012z"/>
	<path style="&st7;" d="M232.319,212.08c0.122-0.363,0.209-0.453,0.276-0.756c0.056-0.273,0.108-0.557,0.151-0.855l1.987-0.582    c0.025,0.105,0.037,0.219,0.023,0.334c-0.039,0.338-0.089,0.668-0.146,0.992c-0.05,0.248-0.112,0.303-0.207,0.652    C233.821,212.137,232.319,212.08,232.319,212.08z"/>
	<path style="&st7;" d="M230.671,215.467c-0.323,0.361-0.498,0.449-0.812,0.609c-0.359,0.184-0.899,0.342-1.426,0.045    c-0.475-0.268-1.026-0.977-1.575-1.988l-2.636-1.008c0.92,2.24,2.056,4.033,3.25,4.705c1.002,0.563,2.167,0.561,3.279-0.008    c0.845-0.434,1.592-1.156,2.21-2.109C232.205,215.666,230.671,215.467,230.671,215.467z"/>
	<path style="&st7;" d="M225.156,209.547c-0.285-1.047-0.485-1.695-0.668-2.83c-0.054-0.336-0.129-1.141-0.174-1.33l-1.826,0.479    c0,0,0.054,1.355,0.317,2.602L225.156,209.547z"/>
	<path style="&st11;" d="M367.237,156.223c0.031,0.288,0.048,0.581,0.032,0.883c-0.099,1.988-1.313,3.258-4.061,4.246    c-0.416,0.15-0.874-0.066-1.023-0.48c-0.15-0.416,0.065-0.875,0.481-1.023c2.429-0.875,2.95-1.729,3.005-2.822    c0.056-1.109-0.328-2.06-1.13-2.83c-3.045-0.193-5.804-1.098-7.82-2.676c-0.874-0.684-3.535-2.766-2.612-5.996l0.458-1.292    c0.152-0.387,0.407-1.035,0.349-1.191c-0.003-0.006-0.024-0.034-0.078-0.075c-0.316-0.237-0.72-0.141-2.173,0.341l-1.31,0.404    v-0.754l-1.581-0.812c0.073-0.045,0.149-0.084,0.233-0.11l2.027-0.626c1.635-0.542,2.815-0.934,4.003-0.043    c1.396,1.047,0.814,2.522,0.39,3.599l-0.396,1.109c-0.382,1.338,0.211,2.532,1.922,3.871c2.875,2.25,7.821,2.912,12.603,1.686    c2.439-0.779,4.166-1.211,4.208-1.225c0.261-0.085,0.53-0.054,0.756,0.063c0.21-0.189,0.174-0.373,0.152-0.468    c-0.074-0.329-0.383-0.725-0.819-1.073c-0.717-0.472-1.549-0.795-2.349-0.829c-0.601-0.025-1.601,0-2.136,0.031    c-0.472-0.067-0.787-0.232-1.257-0.527l-0.678-0.403c-0.279-0.166-0.388-0.537-0.222-0.815c0.166-0.279,0.51-0.381,0.789-0.215    l0.735,0.437c0.642,0.403,0.739,0.464,2.548,0.305c0.584-0.051,1.203,0.051,1.794,0.26c0.03-0.004,0.059-0.009,0.09-0.013    c0.266-0.033,0.521,0.044,0.718,0.195c0.575-0.629,0.811-1.453,0.693-2.454c-0.25-2.121-1.908-4.23-2.961-4.877    c-0.276-0.17-0.362-0.532-0.192-0.809c0.171-0.277,0.532-0.363,0.809-0.193c1.478,0.909,3.241,3.433,3.513,5.742    c0.063,0.533,0.041,1.036-0.052,1.506c1.284-0.477,3.291-0.881,6.196-1.273c0.767-0.104,0.966-0.316,0.976-0.383    c0.04-0.275-0.62-1.118-2.023-1.748c-0.297-0.133-0.43-0.481-0.297-0.777c0.134-0.296,0.481-0.429,0.777-0.296    c1.467,0.658,2.874,1.837,2.707,2.989c-0.074,0.518-0.479,1.177-1.982,1.38c-2.139,0.289-3.625,0.573-4.66,0.829    c0.716,0.067,1.258,0.337,1.789,0.605l0.521,0.251c0.095,0.046,0.172,0.116,0.229,0.198l-1.256,0.464v0.148l-0.023-0.011    c-0.93-0.469-1.626-0.815-3.436-0.042c0.302,0.355,0.517,0.742,0.606,1.14c0.07,0.312,0.053,0.605-0.035,0.875    c0.992,0.534,1.49,1.183,1.473,1.933c-0.019,0.73-0.525,1.447-1.555,2.181v-0.577l-0.645-0.408    c0.896-0.645,1.019-1.062,1.022-1.224c0.007-0.295-0.379-0.647-1.058-0.973c-0.001,0-0.001,0.001-0.002,0.001    c-0.072,0.327-0.308,0.608-0.648,0.72c-0.033,0.011-1.143,0.372-2.816,0.91l-1.033,0.264l-0.471,0.125    c-1.453,0.373-3.229,0.631-4.648,0.698C367.071,155.266,367.237,156.223,367.237,156.223z"/>
	<g>
		<path style="&st11;" d="M299.127,188.295v2.076l-3.16,1.119l-3.902-1.832l0.106-2.156l2.875-1.061L299.127,188.295z"/>
		<path style="&st2;" d="M292.36,187.744l3.822,1.752l-0.041,1.863"/>
		<path style="&st2;" d="M296.019,189.455l2.944-1.066"/>
	</g>
	<g>
		<path style="&st11;" d="M320.309,138.285v2.001l-3.512,1.163l-2.424-1.313l0.012-2.102l3.382-1.248L320.309,138.285z"/>
		<path style="&st2;" d="M314.385,138.033l2.46,1.323l-0.048,2.094"/>
		<path style="&st2;" d="M316.873,139.378l3.436-1.093"/>
	</g>
	<g>
		<path style="&st11;" d="M325.797,136.455v2.002l-3.512,1.162l-2.423-1.312l0.011-2.101l3.382-1.249L325.797,136.455z"/>
		<path style="&st2;" d="M319.873,136.203l2.461,1.324l-0.049,2.093"/>
		<path style="&st2;" d="M322.361,137.548l3.436-1.093"/>
	</g>
	<g>
		<path style="&st5;" d="M136.25,168.174v1.805l-3.245,0.887l-2.157-1.143l0.011-1.906l3.142-0.879L136.25,168.174z"/>
		<path style="&st2;" d="M130.859,167.814l2.193,1.154l-0.048,1.896"/>
		<path style="&st2;" d="M133.081,168.99l3.169-0.816"/>
	</g>
	<path style="&st11;" d="M318.883,139.427c-0.294-0.14-0.645-0.016-0.785,0.277c-0.14,0.293-0.016,0.644,0.277,0.784    c0.518,0.247,0.804,0.676,0.783,1.176c-0.021,0.562-0.418,1.06-1.035,1.298c-1.03,0.397-1.834,0.205-3.594-0.216l-2.945-0.646    c-3.322-0.632-6.1,0.375-8.49,3.079c-0.654,0.741-0.942,1.736-0.772,2.662c0.149,0.811,0.636,1.486,1.333,1.851    c0.879,0.459,1.84,0.438,2.637-0.059c0.216-0.134,0.406-0.301,0.57-0.484c0.477,0.549,0.787,0.887,1.55,1.738    c0.546,0.608,1.253,2.079,1.253,2.088c-0.074,0.093-0.588,0.267-0.928,0.382l-0.678,0.247l0.064,0.038v1.148    c0.07,0,0.143-0.01,0.212-0.035l0.777-0.283c0.776-0.263,1.509-0.51,1.692-1.208c0.133-0.508-0.117-1.018-0.446-1.461    c0.177,0.136,0.356,0.275,0.541,0.418c1.931,1.485,1.898,2.623,1.861,3.94l-0.011,0.571c0,1.365-2.65,3.041-4.102,3.953    l0.232,0.139v0.965c0.121,0.01,0.248-0.016,0.359-0.086c2.47-1.553,4.686-3.1,4.686-4.971l0.011-0.537    c0.041-1.433,0.087-3.056-2.319-4.907c-1.9-1.462-4.055-3.119-4.055-4.07c0-0.075-0.015-0.146-0.041-0.212    c-0.002-0.048-0.004-0.097-0.002-0.142c0.013-0.22,0.081-0.322,0.14-0.382c0.259-0.181,0.595-0.357,1.054-0.548    c0.299-0.125,0.441-0.469,0.317-0.769c-0.125-0.3-0.47-0.442-0.769-0.317c-0.52,0.216-0.924,0.433-1.247,0.655    c-0.925,0.599-0.991,1.666-0.787,2.479c-0.084,0.22-0.269,0.473-0.558,0.653c-0.313,0.194-0.82,0.354-1.47,0.015    c-0.381-0.199-0.638-0.562-0.723-1.022c-0.105-0.573,0.081-1.197,0.498-1.669c2.093-2.367,4.509-3.251,7.388-2.704l2.893,0.634    c1.882,0.451,2.919,0.699,4.29,0.17c1.063-0.41,1.748-1.31,1.788-2.35C320.372,140.732,319.829,139.879,318.883,139.427z"/>
	<path style="&st11;" d="M325.57,140.62c0.641,0.346,1.494,0.564,2.556,0.539c2.239-0.056,3.91-1.457,4.358-3.656    c0.477-2.326,1.072-3.436,3.178-3.45c1.14-0.007,1.885,0.42,1.992,1.145c0.075,0.512-0.195,1.143-0.801,1.642l1.17,0.517    c0.646-0.719,0.904-1.582,0.794-2.331c-0.155-1.048-1.067-2.163-3.163-2.148c-3.165,0.022-3.87,2.181-4.322,4.39    c-0.338,1.659-1.548,2.674-3.235,2.715c-1.682,0.042-2.531-0.646-2.714-1.142c-0.157-0.429-0.422-0.767-0.851-0.962    c-0.296-0.135-0.645-0.004-0.778,0.292c-0.135,0.295-0.004,0.645,0.291,0.778C324.438,139.366,324.752,140.074,325.57,140.62z"/>
	<path style="&st2;" d="M167.138,190.467v2.066"/>
	<g>
		<path style="&st7;" d="M212.813,191.311v2.205l-4.668,1.104l-2.141-1.223v-2.494l4.333-1.037L212.813,191.311z"/>
		<path style="&st2;" d="M206.005,190.998l2.393,1.27l-0.048,2.199"/>
		<path style="&st2;" d="M208.304,192.27l4.415-1.045"/>
	</g>
	<g>
		<path style="&st7;" d="M229.498,150.379l0.111,2.203l-4.607,1.336l-1.723-0.939l-0.125-2.491l4.276-1.252L229.498,150.379z"/>
		<path style="&st2;" d="M223.158,150.584l1.978,0.973l0.063,2.198"/>
		<path style="&st2;" d="M225.042,151.563l4.357-1.264"/>
	</g>
	<g>
		<path style="&st11;" d="M379.199,107.542l-0.001,2.77l-4.606,1.223l-1.724-0.938l-0.014-3.058l4.275-1.138L379.199,107.542z"/>
		<path style="&st2;" d="M372.859,107.633l1.979,0.973l-0.049,2.765"/>
		<path style="&st2;" d="M374.743,108.611l4.357-1.15"/>
	</g>
	<g>
		<path style="&st5;" d="M149.038,173.615l-2.856-2.281c-0.319-0.195-0.489-0.42-0.472-0.6c0.017-0.17,0.21-0.342,0.504-0.451     c1.236-0.455,7.438-2.436,7.5-2.455c0.421-0.135,0.653-0.584,0.519-1.006c-0.134-0.42-0.584-0.652-1.005-0.518     c-0.256,0.082-6.298,2.01-7.567,2.477c-0.081,0.031-0.157,0.066-0.233,0.102c-2.408-1.605-7.1-2.281-10.56-1.469l1.381,0.76     v0.219c2.018-0.256,4.379-0.051,6.269,0.502c-1.227,0.076-2.511,0.271-3.503,0.602c-1.347,0.449-1.731,1.125-1.815,1.613     c-0.029,0.168-0.034,0.416,0.063,0.699l1.161-0.334c-0.031-0.059-0.049-0.115-0.042-0.16c0.023-0.135,0.263-0.43,1.013-0.68     c1.225-0.408,3.24-0.633,4.852-0.568c-0.065,0.164-0.111,0.334-0.128,0.512c-0.08,0.809,0.371,1.594,1.203,2.104l1.517,1.084     C147.738,173.516,149.038,173.615,149.038,173.615z"/>
	</g>
	<g>
		<path style="&st5;" d="M142.004,172.326v1.807l-2.987,0.836l-2.157-1.143l0.011-1.904l2.884-0.83L142.004,172.326z"/>
		<path style="&st2;" d="M136.872,171.918l2.193,1.154l-0.047,1.896"/>
		<path style="&st2;" d="M139.093,173.094l2.911-0.768"/>
	</g>
	<g>
		<path style="&st7;" d="M119.633,184.945v3.029l-4.668,1.104l-2.208-1.277v-3.316l4.333-1.037L119.633,184.945z"/>
		<path style="&st2;" d="M112.758,184.578l2.46,1.324l-0.048,3.021"/>
		<path style="&st2;" d="M115.124,185.902l4.415-1.043"/>
	</g>
	<path style="&st7;" d="M124.86,187.934c-3.28,1.957-7.093,3.672-10.349,4.361c-1.98,0.418-3.388-0.045-3.672-1.209    c-0.311-1.27,0.747-3.029,3-3.658c0.417-0.115,0.661-0.549,0.544-0.965c-0.116-0.418-0.548-0.662-0.966-0.545    c-3.198,0.893-4.597,3.518-4.102,5.541c0.38,1.553,2.054,3.104,5.521,2.371c3.157-0.668,6.817-2.262,10.075-4.127    c0.838-0.496,2.428-1.115,3.366-1.703c1.822-1.254,3.433-2.566,4.45-3.695c0.3-0.334,0.63-0.686,0.991-1.049    c1.646-1.609,4.287-4.256,6.653-5.395c3.111-1.498,6.839-2.234,11.104-1.453c0.086,0.016,0.171,0.014,0.253,0.002l0.523-1.23    c-0.114-0.158-0.287-0.275-0.495-0.314c-6.849-1.252-12.433,1.352-16.35,4.336c-1.668,1.465-3.066,3.27-4.7,5.033    c-0.539,0.506-1.452,1.129-2.144,1.658L124.86,187.934z"/>
	<path style="&st7;" d="M174.738,198.6c0,1.861,0.128,5.609,0.134,5.768c0,0.012,0.004,0.023,0.005,0.035l1.982-0.479    c-0.033-1.012-0.121-3.834-0.121-5.324c0-3.771-2.464-4.334-3.933-4.334c-2.977,0-4.301,4.15-4.465,6.941    c-0.033,0.551,0.388,1.025,0.939,1.057c0.551,0.033,1.024-0.389,1.057-0.939c0.122-2.068,1.071-5.059,2.469-5.059    C173.965,196.266,174.738,196.662,174.738,198.6z"/>
	<path style="&st11;" d="M336.446,158.988c0.452-1.04,0.866-2.228,1.243-3.311l0.4-1.14c2.148-5.943,2.56-15.573,2.313-20.247    c-0.188-3.586,0.752-5.811,2.794-6.613c1.721-0.676,3.508-0.613,6.169,0.219l0.312,0.098c3.1,0.97,5.777,1.808,8.5,1.671    c2.678-0.134,4.515-1.488,5.039-3.716c0.417-1.774,1.452-9.02,1.585-10.478c0.112-1.244,1.056-2.287,1.928-2.675    c0.959-0.426,2.25-0.84,3.616-1.279l3.269-1.102c0.419-0.141,0.623-0.587,0.481-1.006c-0.141-0.419-0.615-0.636-1.034-0.495    l-3.204,1.079c-1.409,0.452-2.74,0.879-3.777,1.34c-1.54,0.684-2.721,2.326-2.872,3.992c-0.127,1.396-1.154,8.578-1.549,10.255    c-0.354,1.505-1.619,2.387-3.562,2.484c-2.438,0.122-4.988-0.676-7.942-1.601l-0.312-0.098c-2.119-0.662-4.635-1.201-7.231-0.181    c-1.894,0.744-4.091,2.768-3.807,8.187c0.257,4.885-0.262,14.202-2.22,19.62l-0.408,1.159c-0.384,1.103-0.807,2.316-1.257,3.328    L336.446,158.988z"/>
	<path style="&st11;" d="M320.329,164.35l-4.536-2.945c-1-0.65-1.534-1.832-1.502-3.33c0.039-1.857,1.027-4.299,2.838-5.369    c0.476-0.281,1.089-0.124,1.37,0.352c0.28,0.476,0.123,1.089-0.353,1.37c-0.992,0.586-1.825,2.242-1.855,3.69    c-0.01,0.451,0.054,1.262,0.592,1.609l3.517,2.285L320.329,164.35z"/>
	<path style="&st11;" d="M329.836,170.521l-0.137-0.088c-0.116,0.115-0.267,0.197-0.439,0.223    c-1.397,0.215-4.885,0.164-6.961-0.203c-1.34-0.236-2.842-0.889-4.431-1.578c-2.642-1.148-5.637-2.449-8.668-2.211    c-1.772,0.139-3.398,0.496-4.828,0.689c-11.731,1.59-17.612,5.082-17.979,10.676c-0.015,0.229-0.129,0.426-0.296,0.559    c0.077,0.699,0.289,1.391,0.598,2.07c0.176,0.342,0.543,1.029,0.543,1.029c1.224,2.025,3.245,3.945,5.301,5.678l-0.368,0.137    l-0.052,1.045c-0.006-0.004-0.012-0.008-0.019-0.012c-1.763-1.471-3.522-3.082-4.862-4.814c-0.4-0.654-1.234-1.721-1.5-2.355    c0.066,0.834-0.164,3.67-0.432,4.152c-0.185,0.336-0.468,0.609-0.85,0.799c-2.012,1.004-6.229-0.559-8.376-2.023    c-0.268-0.182-0.338-0.549-0.154-0.816c0.183-0.268,0.548-0.338,0.816-0.154c2.12,1.445,5.802,2.635,7.189,1.941    c0.29-0.145,0.427-0.361,0.443-0.707c0.1-2.1,0.356-5.148,0.467-6.424c-0.01-0.051-0.017-0.102-0.017-0.154    c0-0.018,0.001-0.035,0.002-0.053c0.629-9.59,14.707-11.5,19.334-12.127c1.522-0.207,3.285-0.455,5.175-0.74    c3.4-0.514,6.355,1.127,9.169,2.348c1.5,0.652,2.917,1.268,4.071,1.473c1.43,0.252,3.639,0.346,5.181,0.293l-0.704-0.516    l2.646-0.666l0.172,0.076L329.836,170.521z"/>
	<path style="&st11;" d="M339.655,174.619l-2.376,0.742c2.782,1.889,4.677,4.162,5.224,6.287c0.335,1.301-0.202,3.086-1.653,3.695    c-1.478,0.623-3.807,1.125-5.664,1.225c-1.295,0.066-1.984-0.393-2.05-1.369c-0.045-0.68,0.098-2.098,0.176-2.754l-2.065,0.484    c-0.072,0.732-0.149,1.746-0.105,2.402c0.139,2.09,1.768,3.357,4.15,3.232c2.095-0.109,4.641-0.664,6.335-1.377    c2.466-1.039,3.367-3.885,2.813-6.037C343.855,178.879,342.18,176.605,339.655,174.619z"/>
	<g>
		<path style="&st11;" d="M364.369,159.752v2.025l-4.547,1.105l-1.643-1.033v-2.182l4.358-1.068L364.369,159.752z"/>
		<path style="&st2;" d="M358.18,159.854l1.729,1.059l0.028,1.887"/>
		<path style="&st2;" d="M359.856,160.887l4.405-1.074"/>
	</g>
	<path style="&st16;" d="M311.138,134.199c-0.058-0.085-0.979-1.105-1.061-1.172l-0.138-0.121l-0.146-0.121    c-0.95-0.57-2.442-1.336-3.642-1.952l-1.535-0.802c-0.465-0.258-1.166-0.473-1.886-0.509l-0.017-0.711l-1.448-0.739    c0.016-0.005,0.029-0.013,0.045-0.017c1.55-0.387,3.168,0.069,4.083,0.577l1.488,0.777c0.115,0.059,0.234,0.12,0.354,0.182    c-0.963-1.432-1.322-2.985-0.938-4.207c0.477-1.507,2.418-2.239,2.637-2.318c0.313-0.111,0.654,0.051,0.767,0.362    c0.112,0.312-0.05,0.655-0.361,0.768c-0.442,0.16-1.645,0.75-1.897,1.549c-0.221,0.7-0.039,1.646,0.445,2.582    c0.395-0.94,1.316-1.721,2.648-2.194c0.313-0.111,0.655,0.052,0.766,0.364c0.111,0.312-0.052,0.655-0.363,0.766    c-1.211,0.431-1.961,1.13-2.059,1.919c-0.077,0.618,0.269,1.247,0.924,1.684c0.071,0.048,0.129,0.109,0.173,0.178    c0.228,0.127,0.444,0.252,0.639,0.368l0.394,0.304l0.09,0.079c0.39,0.323,1.305,1.136,2.438,2.87l-1.485,0.681L311.138,134.199z"/>
	<g>
		<path style="&st16;" d="M302.714,128.812l0.053,2.343l-3.541,0.958l-2.04-1.011l-0.058-2.559l3.293-0.901L302.714,128.812z"/>
		<path style="&st2;" d="M297.135,128.795l2.229,1.042l0.013,2.157"/>
		<path style="&st10;" d="M299.219,129.805l3.354-0.908"/>
	</g>
	<g>
		<path style="&st11;" d="M299.173,129.769l0.053,2.344l-3.542,0.957l-2.039-1.011l-0.058-2.559l3.292-0.901L299.173,129.769z"/>
		<path style="&st2;" d="M293.593,129.753l2.229,1.042l0.013,2.157"/>
		<path style="&st10;" d="M295.677,130.762l3.354-0.908"/>
	</g>
	<path style="&st5;" d="M143.738,186.166c-0.073,0.049-0.112,0.266,1.322-0.459c0.914-0.463,1.776-0.898,2.549-1.352    c2.153-1.262,3.149-4.275,2.368-7.164l-1.739,0.025l0.194,0.391c0.587,2.172-0.115,4.479-1.632,5.369    c-0.729,0.428-1.571,0.852-2.461,1.303c-1.408,0.711-1.481,0.551-1.488,0.555L143.738,186.166z"/>
	<path style="&st5;" d="M140.55,186.334l0.888,1.332l1.15-0.75l-0.888-1.332L140.55,186.334z"/>
	<path style="&st5;" d="M139.438,189.016l-0.888-1.33l0.85-0.602l0.888,1.332L139.438,189.016z"/>
	<path style="&st5;" d="M137.808,190.275l-0.888-1.332l0.65-0.5l0.888,1.332L137.808,190.275z"/>
	<path style="&st16;" d="M291.688,154.466c2.602-1.232,6.758-3.605,9.684-5.867c-0.066-0.633-0.1-1.5,0.033-2.066l-0.822,0.634    c-2.842,2.195-7.327,4.846-9.854,6.043L291.688,154.466z"/>
	<path style="&st16;" d="M288.129,154.41l0.959,1.256l1.3-0.6l-0.959-1.256L288.129,154.41z"/>
	<path style="&st16;" d="M286.688,156.716l-0.959-1.256l1.1-0.45l0.96,1.256L286.688,156.716z"/>
	<path style="&st16;" d="M284.638,157.516l-0.959-1.256l1-0.4l0.959,1.256L284.638,157.516z"/>
	<path style="&st2;" d="M319.855,152.556v1.71"/>
	<path style="&st11;" d="M303.225,134.893c-0.057-0.013-0.114-0.023-0.175-0.026c-3.071-0.139-6.859,0.433-9.816,0.947    c-1.517,0.264-2.062-0.074-2.125-0.179c-0.016-0.027,0.006-0.167,0.152-0.355c0.926-1.189,2.387-2.317,3.553-2.741    c0.519-0.189,0.786-0.763,0.598-1.282s-0.763-0.787-1.281-0.598c-1.742,0.633-3.489,2.161-4.448,3.393    c-0.646,0.831-0.756,1.833-0.287,2.613c0.375,0.625,1.417,1.6,4.182,1.119c2.674-0.465,6.033-0.972,8.813-0.929    c1.149,0.077,1.416,0.144,2.35,0.544l0.932-1.776C304.604,135.199,304.205,135,303.225,134.893z"/>
	<g>
		<path style="&st11;" d="M304.975,136.952v2.001l-3.512,1.164l-2.423-1.313l0.011-2.102l3.383-1.248L304.975,136.952z"/>
		<path style="&st2;" d="M299.051,136.699l2.461,1.323l-0.049,2.095"/>
		<path style="&st2;" d="M301.539,138.044l3.436-1.093"/>
	</g>
	<g>
		<path style="&st16;" d="M327.138,129.664v2.002l-2.886,0.82l-2.423-1.312l0.011-2.102l2.756-0.907L327.138,129.664z"/>
		<path style="&st2;" d="M321.84,129.069l2.46,1.324l-0.048,2.093"/>
		<path style="&st2;" d="M324.328,130.415l2.81-0.751"/>
	</g>
	<path style="&st16;" d="M312.438,133.268c-0.365-1.042-0.298-1.901,0.18-2.296c0.282-0.233,0.673-0.253,1.021-0.053l1.499,0.914    l0.003-0.56l0.898-0.296l-1.8-1.097c-0.781-0.452-1.718-0.387-2.386,0.167c-0.881,0.729-1.086,2.082-0.548,3.618"/>
	<path style="&st16;" d="M310.786,131.736c-1.216-1.001-2.355-1.261-3.694-0.843c-0.955,0.299-1.594,0.868-1.798,1.602    c-0.172,0.621-0.006,1.295,0.466,1.928l1.175-0.434c-0.022-0.043-0.048-0.084-0.081-0.122c-0.342-0.384-0.484-0.757-0.403-1.052    c0.09-0.323,0.454-0.606,1-0.777c0.79-0.247,1.53-0.235,2.573,0.624"/>
	<g>
		<path style="&st16;" d="M310.464,135.122v2.002l-3.513,1.163l-2.422-1.313l0.01-2.101l3.383-1.249L310.464,135.122z"/>
		<path style="&st2;" d="M304.539,134.869l2.461,1.324l-0.049,2.094"/>
		<path style="&st2;" d="M307.028,136.214l3.436-1.093"/>
	</g>
	<g>
		<path style="&st16;" d="M320.438,131.864v2.002l-2.886,0.821l-2.423-1.313l0.011-2.101l2.756-0.907L320.438,131.864z"/>
		<path style="&st2;" d="M315.14,131.269l2.46,1.324l-0.048,2.093"/>
		<path style="&st2;" d="M317.628,132.615l2.81-0.751"/>
	</g>
	<path style="&st11;" d="M340.511,149.304l12.841-3.745c0.088-0.026,0.167-0.066,0.242-0.112c0.08,0.02,0.165,0.025,0.252,0.009    c1.314-0.239,1.984-0.012,2.855,0.361c0.789,0.338,8.649,3.401,9.999,3.639c0.164,0.029,0.322,0.048,0.479,0.063    c0.054,0.03,0.111,0.055,0.175,0.067l0.387,0.078c2.02,0.407,3.928,0.792,5.271,0.297l1.662-0.627l2.454-0.9    c0.631-0.21,1.849-0.034,2.545,0.263v-0.191l1.144-0.422c-0.046-0.103-0.121-0.194-0.223-0.259    c-0.847-0.538-2.75-0.895-3.846-0.529l-2.502,0.917l-1.648,0.623c-0.68,0.25-1.712,0.17-2.844-0.014    c0.069-0.077,0.134-0.158,0.186-0.247c0.178-0.303,0.494-1.126-0.404-2.223c-0.209-0.256-0.588-0.294-0.844-0.084    c-0.257,0.21-0.295,0.588-0.085,0.844c0.292,0.357,0.403,0.677,0.298,0.857c-0.141,0.24-0.787,0.519-1.995,0.306    c-1.145-0.202-8.684-3.11-9.735-3.561c-0.895-0.384-1.769-0.68-3.182-0.491c-0.19-0.469-0.704-0.729-1.201-0.584l-12.166,3.548    L340.511,149.304z"/>
	<path style="&st11;" d="M336.564,150.456l-34.413,10.037c-0.264,0.078-0.533,0.041-0.757-0.08    c-1.407,0.438-3.297,1.324-4.455,2.367l-2.717,2.369c-3.201,2.777-8.209,7.125-10.432,9.201c0.025,0.127,0.012,0.262-0.05,0.385    c-0.92,1.84-1.045,4.211-0.334,6.342c0.332,0.996,2.114,2.988,3.828,3.969c1.091,0.623,2.427,1.148,3.604,1.613    c0.624,0.244,1.215,0.479,1.71,0.703l-0.379,0.141l-0.049,0.984c-0.478-0.221-1.08-0.459-1.722-0.713    c-1.216-0.479-2.594-1.02-3.76-1.686c-2.06-1.178-3.957-3.387-4.372-4.633c-0.499-1.498-0.631-3.105-0.411-4.615    c-0.296,0.766-0.381,1.557-0.471,2.416l-0.121,1.027c-0.217,1.516-1.151,3.436-2.52,4.178c-0.754,0.408-1.571,0.428-2.362,0.059    c-0.3-0.141-0.431-0.498-0.29-0.797c0.14-0.301,0.497-0.432,0.798-0.291c0.445,0.209,0.865,0.199,1.283-0.027    c0.972-0.525,1.73-2.086,1.902-3.289l0.116-0.984c0.16-1.527,0.326-3.107,1.771-4.672c1.206-1.307,7.633-6.885,11.473-10.217    l2.7-2.355c1.255-1.129,3.242-2.082,4.764-2.574c0.078-0.344,0.33-0.635,0.69-0.74l13.73-4.004l-0.407-0.33    c-6.832-5.523-14.021-11.47-15.539-13.701c-1.338-1.967-1.622-3.784-0.762-4.86c0.544-0.682,1.454-0.841,2.366-0.544    c0.409,0.133,0.691,0.6,0.691,0.6l-1.2,0.5c-0.404-0.159-0.705-0.077-0.92,0.193c-0.379,0.474-0.393,1.658,0.816,3.437    c1.622,2.386,11.561,10.418,15.301,13.442l1.054,0.855l20.216-5.896L336.564,150.456z"/>
	<g>
		<path style="&st11;" d="M325.233,155.625l-0.25,5.076l-2.594,0.654l-2.872-1.549l0.251-5.321l2.308-0.596L325.233,155.625z"/>
		<path style="&st2;" d="M319.769,154.774l3.086,1.589l-0.29,4.861"/>
		<path style="&st2;" d="M322.691,156.322l2.379-0.604"/>
	</g>
	<path style="&st7;" d="M215.805,207.732c4.777,2.777,13.292,7,16.733,7c3.328,0,7.384-2.043,7.864-7.801    c0.336-4.035,1.81-13.438,2.636-18.465l0.374-2.289l-1.691,0.426l-0.262,1.604c-0.83,5.053-2.31,14.494-2.652,18.592    c-0.389,4.67-3.494,6.334-6.269,6.334c-2.593,0-9.408-3.133-14.504-5.99L215.805,207.732z"/>
	<path style="&st7;" d="M209.029,203.492c-9.477-5.965-26.733-16.883-29.195-18.49c-1.905-1.242-2.854-2.631-3.692-3.855    c-0.583-0.852-1.086-1.588-1.837-2.189c-1.657-1.324-5.618-4.002-6.802-4.797l-1.25,0.4c-5.778,1.883-16.62,5.039-22.635,6.158    c-4.09,0.762-5.766,2.459-6.4,3.404c-0.521,0.773-0.715,1.576-0.563,2.314c0.515,2.492,0.95,6.107,0.95,7.895    c0,1.449,0.988,2.646,2.813,4.35l3.095,3.006c4.085,4,10.924,10.697,13.512,12.676c4.757,3.639,7.167,8.145,6.292,11.758    c-0.414,1.709-1.426,3.01-2.927,3.764c-2.513,1.26-6.019,0.324-8.03-0.531c-0.407-0.174-0.596-0.645-0.422-1.051    s0.643-0.596,1.049-0.422c2.234,0.951,5.02,1.408,6.685,0.572c1.083-0.543,1.785-1.453,2.089-2.709    c0.725-2.988-1.462-6.863-5.708-10.109c-2.666-2.039-9.548-8.777-13.66-12.805l-3.067-2.979c-2.103-1.963-3.321-3.496-3.321-5.52    c0-1.697-0.42-5.166-0.917-7.57c-0.238-1.154,0.046-2.408,0.801-3.531c1.337-1.99,3.978-3.441,7.436-4.084    c5.944-1.105,16.696-4.236,22.432-6.107l1.452-0.465c0.098-0.055,0.205-0.09,0.315-0.1l9.097-2.908    c1.353-0.424,2.435-1.619,2.693-2.973c0.118-0.621,0.147-1.797-0.979-2.705c-2.352-1.9-6.157-1.613-8.935-1.039    c-2.104,0.436-4.761,1.18-6.003,1.537v-0.055l-1.635-0.889c0.097-0.178,0.263-0.32,0.473-0.385c0.16-0.047,3.94-1.176,6.841-1.775    c3.116-0.645,7.426-0.932,10.265,1.361c1.296,1.047,1.859,2.594,1.544,4.248c-0.371,1.947-1.857,3.596-3.787,4.201l-7.655,2.445    c1.694,1.15,4.488,3.072,5.86,4.17c0.938,0.748,1.558,1.656,2.159,2.535c0.79,1.156,1.606,2.35,3.246,3.418    c2.573,1.68,21.328,13.545,30.431,19.268L209.029,203.492z"/>
	<g>
		<g>
			<path style="&st18;" d="M192.338,102.866c-0.751,4.578-0.8,13.2-0.2,16.4c0.6,3.2,2.4,5.4,5,7.2c2.6,1.8,5.534,3.2,7,4      c1.467,0.8,3.803,0.814,5.7,0.4c5.5-1.2,29.2-7.3,34.434-9.333c1.73-0.673,2.157-1.729,2.133-3.6      c-0.066-5.267-1.066-14.667-2.133-19.867c-1.067-5.2-3.6-10.267-6.134-12.133c-2.533-1.867-5.066-2-7.733-1.333      c-2.667,0.667-21.629,5.362-26.933,6.934C196.271,93.666,193.178,97.743,192.338,102.866z"/>
			<path style="&st18;" d="M197.138,126.466c-2.866,0.933-6.2,2-7.933,2.533c-0.4,0.067-0.6,0.267-0.6,0.267"/>
			<path style="&st18;" d="M196.938,169c1.6-4.934,4.4-18.234,4.4-24.334c0-4.3-0.667-6.333-2.4-7.8s-8.533-6.533-9.867-7.333      c-1.333-0.8-2.8-1.2-4.4-1.067s-6.8,1.333-8.4,2.133c-1.6,0.8-2.934,1.733-3.867,3.6c-1.702,3.404-7.367,17.273-8.933,20.667      c-2.4,5.201-9.428,16.103-11.733,19.734c-3.133,4.934-5.133,11.4-5.067,17.467c0.056,5.066,1.201,16.133,1.601,18.066      c0.328,1.588,1.2,2.199,1.866,2.334c0.667,0.133,1.408-0.117,2.467-0.602c0.983-0.449,2.533-0.549,3.833-0.049      c0.925,0.355,2.3,1.25,3.7,2.449c1.4,1.201,3.43,3.211,4.467,3.801c0.866,0.492,3.285,1.406,4.533,1.666      c0.534,2,1,5.533,1,6.934s-0.267,3.732-0.533,4.6c-0.066,0.467,0.267,0.934,0.733,0.801c0.182-0.053,0.498-0.104,0.733-0.133      c0.267-0.033,0.607,0.313,0.566,0.799c-0.133,1.6-0.833,3.801-1.7,4.934c-0.3,0.5-0.25,1.35,0.3,1.15      c0.55-0.201,59-15.85,60.3-16.15c1.3-0.301,2-1,2.7-1.699c0.7-0.701,1.4-2.301,1.5-3c0.1-0.701,1.1-1.602,1.6-1.701      c0,0,2.675-0.791,3.05-0.949c0.75-0.316,1.542-1.119,1.75-1.85c1.1-3.852,1.2-8.934,0.8-11.135"/>
			<path style="&st18;" d="M196.138,169.398c4.133-0.932,59.733-16.133,62-16.799s3.601-1.066,4.667-1.467"/>
			<path style="&st18;" d="M171.134,193.115c1.642-6.621,3.057-12.293,3.404-13.582c0.933-3.467,3.733-6.801,7.6-7.201      c0.617-0.063,1.289-0.158,1.998-0.275"/>
			<path style="&st18;" d="M164.938,218.199c0,0,0.912-3.701,2.175-8.822"/>
			<path style="&st18;" d="M186.388,176.217c-2.785,10.039-8.901,33.881-10.55,42.949"/>
			<path style="&st18;" d="M176.338,176.266c2.7,1.1,7.4,1.5,9.7,0.1c2.3-1.398,4.125-3.506,6.1-4.1      c2-0.6,53.563-15.111,56.733-15.934c1.801-0.467,3.277-0.486,5-0.199c1.2,0.199,3.931-0.234,4.517-0.967      c0.8-1,1.409-1.908,2.351-2.567c1-0.7,2.066-1.467,2.066-1.467"/>
			<path style="&st18;" d="M258.188,155.466c-2.949,6.851-10.25,39.001-10.649,40.8c-0.4,1.801-1.391,2.873-2,3.4      c-1.5,1.301-3.2,2.5-5.4,3.301"/>
			<path style="&st18;" d="M169.138,219.732c3.8,0.6,4.7,0.1,6.7-0.566c3.867-0.533,58.633-14.9,62.1-16.1c0,0,0.9,0.199,2.2-0.1"/>
			<path style="&st18;" d="M238.735,199.119c-0.332,1.584-0.603,2.926-0.797,3.947"/>
			<path style="&st18;" d="M249.338,156.266c-1.357,3.709-3.491,11.918-5.57,20.576"/>
			<path style="&st18;" d="M183.538,188.066c12.2-1.201,51.733-12.201,61.933-18.4"/>
			<path style="&st18;" d="M181.805,194.332c12.2-1.199,51.733-12.199,61.933-18.398"/>
			<path style="&st18;" d="M246.138,199.133c1.333,2.934,1.6,7.332,1.2,11.066s-4.333,16.199-4.467,16.6      c-0.133,0.4-0.333,0.801-0.733,1.135c-0.4,0.332-0.667,0.533-1,0.799c-0.333,0.268-1.267,0.467-1.933,0.066      s-6.4-3.332-6.4-3.332"/>
			<path style="&st18;" d="M242.604,201.934c1,2.467,1.2,6.732,0.6,10.732c-0.486,3.242-2.467,13.666-3,15.4"/>
			<path style="&st18;" d="M231.471,222.332c0.982,0.613,1.342,2.922,1.186,4.064c-0.014,0.1-0.031,0.189-0.052,0.27      c-0.267,1,1.8,8.133,1.8,8.133s0.667,0.4,1.467,0.867c0.8,0.467,0.667,1.732,0.2,2.334c-0.467,0.6-1.267,0.533-2.067,0.666      l-4.066,0.934c-0.6,0.4-1.534,0.666-2.2,0.199s-18.133-11.4-18.133-11.4"/>
			<path style="&st18;" d="M211.404,227.799c0,0,15.2,8.934,15.867,9.268c0.667,0.332,1.333,1.266,1.4,1.867      c0.066,0.332,0.517,0.383,0.816,0.082"/>
			<path style="&st18;" d="M234.404,234.799l0.667,2.467"/>
			<path style="&st18;" d="M226.688,228.717l1.716,7.816"/>
			<path style="&st18;" d="M231.938,226.865l-4.2,0.734"/>
			<path style="&st18;" d="M209.471,228.6c0,0-0.533,2.199-0.8,3.066s0,1.268,0.6,1.666c0.6,0.4,3.466,2.066,4.133,2.467      c0.667,0.4,1.067,1.133,1.267,2c0.2,0.867,1.333,5.734,1.533,6.6c0.2,0.867,0.533,1.4,1.4,1.934s6.267,3.133,7,3.467      s1.867,0.533,2.934,0.334c1.066-0.199,10.533-2.734,11.466-3.066c0.934-0.334,1.467-1.533,0.467-2.4s-2.867-2.268-3.533-2.801      s-1.733-1.865-2.267-3"/>
			<path style="&st18;" d="M218.538,234.066c0.333,0.6,0.466,1.332,0.6,2.199c0.134,0.867,0.8,4.533,1,5.4      c0.2,0.867,0.867,2.666,1.733,3.533c0.867,0.867,3.667,3.066,4.267,3.334c0.6,0.266,1.6,0.332,2.6,0.133s8.6-2.199,9.333-2.4      c0.733-0.199,1.2-0.4,1.267-0.867"/>
			<path style="&st18;" d="M226.288,223.816c0.5,0.65,0.777,2.695,0.628,3.818"/>
			<path style="&st18;" d="M246.138,112.333c1.067-1.066,2.934-2,4.667-2.4s4-0.8,5.467-0.8s3.3,0.833,4.366,1.634      c1.067,0.8,5.233,4.366,6.434,5.966s1.874,4.801,1.733,7.467c-0.267,5.067-3.367,20.967-4.934,25.467      c-0.375,1.076-0.533,1.2-1.066,1.466"/>
			<path style="&st18;" d="M246.338,116.166c0,0,7.9,6.533,8.967,7.733c1.066,1.2,1.8,2.934,1.733,5.066      c-0.134,4.267-3.3,18.967-5.434,25.367"/>
			<path style="&st18;" d="M174.004,132.066c1.2-0.934,2.667-1.2,4.4,0s7.001,5.413,8.267,6.4c1.667,1.3,2.565,3.899,2.533,6.934      c-0.067,6.267-2.267,18.466-5.267,26.366c0,0-0.36,0.438-0.75,0.438"/>
			<path style="&st18;" d="M104.671,178.199c0.933-5.467,3.2-9.199,5.2-9.732s7.472-1.447,11.867-2.533      c12.934-3.201,34.267-8.535,41.867-11.601"/>
			<path style="&st18;" d="M108.004,169.533c1.6-0.934,3.959-0.887,6,0.799c6.133,5.066,24.934,22.268,33.067,28.934"/>
			<path style="&st18;" d="M147.471,203.666c-3.6-4.268-10.4-9.732-16.8-14.4c-6.4-4.666-11.333-8.533-15.066-10.4      c-3.733-1.865-8.934-1.766-11.867-0.299s-4.667,3.766-5.067,5.633c-0.4,1.867-0.456,3.35,0.267,5.6      c1.2,3.734,3.6,6.268,7.066,8.668c3.467,2.398,33.6,21.865,35.467,23.066c1.867,1.199,4,0.934,5.6-0.533      c1.6-1.467,4.133-3.867,5.867-5.068c1.733-1.199,3.6-2.666,5.333-2.932"/>
			<path style="&st18;" d="M106.538,177.666c2.133,0,4.8,0.666,6.933,2s15.875,11.301,20.4,15.334      c0.161,0.143,0.322,0.287,0.482,0.434"/>
			<path style="&st18;" d="M200.588,128.566c1.05,0.65,4.102,1.518,5.75,1.6c1,0.05,1.572-0.698,1.5-1.9      c-0.623-10.376-1.397-17.948-2.7-23.1c-1.208-4.779-2.95-7.85-4.833-9.197c-1.267-0.853-3.085-1.247-4.672,0"/>
			<path style="&st18;" d="M99.205,190.865c-1.867,1.334-3.6,3.467-3.467,6.533c0.133,3.068,2.533,19.068,3.467,22.535      c0.933,3.465,3.156,6.463,6,8.398c7.833,5.334,35.833,21.734,42.8,24.934c3.741,1.719,6.267,1.734,7.333,1.201s2.6-1.9,4-2.5      c1.4-0.602,3.2-1.102,4-1.301c0.533-0.133,0.869-0.199,1.133-1.133c1-3.533,3.097-13.773,3.467-17.768c0.5-5.4,0-9.799-1.1-12.6      "/>
			<path style="&st18;" d="M153.638,216.365c1.8,0.102,3.8,1,5.3,3.4c1.529,2.447,2.1,5.9,1.5,10.5      c-0.494,3.789-2.7,17.201-4.1,22.6"/>
			<path style="&st18;" d="M151.538,254.666c0,0,4.4,2.801,5.3,3.4s1.7,0.699,2.4,0.199l4.7-0.699c0.9,0.199,1.6-0.4,1.6-1.201      c0-0.799-0.2-1.6-0.8-2l-1.2-1.1"/>
			<path style="&st18;" d="M163.438,252.666l0.6,2.9"/>
			<path style="&st18;" d="M154.638,254.766c0,0,2.3,1.301,2.9,1.701c0.6,0.398,0.8,0.799,0.8,1.299"/>
			<path style="&st18;" d="M157.938,252.766l0.6,2.701"/>
			<path style="&st18;" d="M169.738,238.467c0,0-1.8,2.5-2.2,3.1c-0.4,0.6-0.7,2.4-0.5,3.4c0.2,1,0.8,4.199,1.1,5.199      c0.3,1,0,1.4-0.667,1.5l-9.133,2"/>
			<path style="&st18;" d="M138.738,248.266c0,0-0.2,1.867-0.2,2.467s0.2,1.533,0.933,1.867c0,0,3.095,1.619,3.467,1.867      c0.4,0.266,0.8,0.666,1,1.332c0.2,0.668,1.467,7,1.533,7.467c0.067,0.467,0.4,1.135,0.933,1.467      c0.534,0.334,6.8,3.268,7.534,3.533c0.733,0.268,1.533,0.467,2.533,0.201c1-0.268,8.667-2.4,9.333-2.602      c0.667-0.199,0.933-1.266-0.067-2.133c0,0-1.796-1.24-2.333-1.666c-0.566-0.451-1.467-1.334-1.8-1.934s-1-1.867-1-1.867"/>
			<path style="&st18;" d="M147.891,253.322c0,0,1.547,7.344,1.847,8.344c0.3,1,0.9,2.4,1.8,3.199c0.9,0.801,2.4,1.867,2.733,2.068      c0.333,0.199,1.266,0.266,1.733,0.199s8.467-2,8.934-2.133c0.466-0.135,0.533-0.268,0.6-0.668"/>
			<path style="&st18;" d="M104.927,228.215c-0.955,0-1.808,0.715-1.979,2.25c-0.133,1.195-0.444,3.514-0.478,3.754      c-0.034,0.238-0.103,0.408-0.307,0.477"/>
			<path style="&st18;" d="M106.805,229.398c0,0-0.6,0.035-0.733,0.035s-0.4,0.1-0.4,0.299c0,0.201,0,0.9,0,1.1      c0,0.201-0.234,0.367-0.467,0.367l-0.5,0.033l-0.833,1.666c0,0-0.133,1.201-0.133,1.635s-0.6,1.666-1.6,1.699      s-4.5,0.033-4.933,0.033s-0.6-0.266-0.533-0.666c0.066-0.4,0.522-0.994,1.167-1.4c0.633-0.4,1.434-0.732,2.4-0.967      c0.731-0.176,1.833-0.334,2.367-0.367"/>
			<path style="&st18;" d="M102.904,236.033c0.567-0.033,2.8-0.734,3.5-1.066"/>
			<path style="&st18;" d="M104.404,234.066c0,0,1.541,0.734,2.2,0.9c0.667,0.166,1.733,0.166,2.633-0.301      c0.848-0.439,1.5-1.1,1.5-1.867c0-0.5,0-0.832,0-0.832"/>
			<path style="&st18;" d="M110.771,232.898c0.566,0.135,1.066,0.068,1.366-0.033"/>
			<path style="&st18;" d="M104.805,205.467c0.2-0.668,1.8-1.068,2.8-0.4c0.789,0.525,9.418,5.789,13.91,8.539"/>
			<path style="&st18;" d="M110.988,208.967c-0.654,0.064-1.3,0.299-1.65,0.449s-0.75,0.75-0.8,1.35c-0.05,0.6,0.05,1.701,0.5,2.4      c0.45,0.699,1.461,1.531,2.3,2.1c1.033,0.701,3.5,2.1,4.6,2.65c0.64,0.32,1.883,0.666,2.433,0.717      c0.55,0.051,1.167-0.117,1.367-0.617c0.2-0.5,0.341-1.703,0.4-2.25c0.1-0.934-0.333-1.934-1.25-2.6      c-0.729-0.529-5.25-3.4-5.95-3.75C112.238,209.066,111.488,208.916,110.988,208.967z"/>
			<path style="&st18;" d="M121.271,215.299c-0.367,0.268-0.634,0.801-0.767,1.701c-0.133,0.898-0.286,2.734-0.233,3.5      c0.066,0.967,0.467,1.766,1.2,2.033c0.042,0.016,0.084,0.029,0.127,0.043"/>
			<path style="&st18;" d="M109.224,213.561c0.258,1.162,0.549,2.236,0.848,2.973c0.564,1.387,1.687,2.908,3.066,4      c1.296,1.025,5.523,3.408,8.146,4.736"/>
			<path style="&st18;" d="M109.004,206.066c-0.6-0.133-0.798,0.857-0.733,1.666c0.044,0.555,0.162,1.477,0.332,2.539"/>
			<path style="&st18;" d="M129.471,223.398c0.767,0.268,3.007,1.566,3.4,1.889c0.394,0.322,0.573,0.607,0.573,1.252      s0,1.828,0,2.221c0,0.395-0.394,0.68-0.967,0.395c-0.573-0.287-2.483-1.346-3.106-1.756c-0.667-0.438-0.867-0.898-0.904-1.432      c-0.047-0.658,0.038-1.834,0.072-2.184C128.577,223.391,129.194,223.303,129.471,223.398z"/>
			<path style="&st18;" d="M99.838,205.666c0.65,0.4,2.907,1.965,3.3,2.287c0.394,0.322,0.573,0.609,0.573,1.254s0,1.826,0,2.221      c0,0.393-0.394,0.68-0.967,0.393c-0.573-0.285-2.356-1.504-2.956-2.055c-0.589-0.539-0.763-0.904-0.8-1.438      c-0.047-0.658-0.049-1.971-0.015-2.322C99.011,205.613,99.588,205.512,99.838,205.666z"/>
		</g>
		<path style="&st18;" d="M203.538,140.466c14.2-2,39.6-9,50.8-13"/>
	</g>
	<g>
		<g>
			<g>
				<path style="&st18;" d="M344.738,61.74c-0.751,4.578-0.801,13.2-0.2,16.4c0.6,3.2,2.399,5.4,5,7.2c2.6,1.8,5.533,3.2,7,4       c1.466,0.8,3.803,0.814,5.7,0.4c5.5-1.2,29.199-7.3,34.434-9.333c1.73-0.672,2.156-1.729,2.133-3.6       c-0.066-5.267-1.066-14.667-2.133-19.866c-1.067-5.2-3.601-10.267-6.134-12.134c-2.534-1.866-5.067-2-7.733-1.333       c-2.667,0.667-21.63,5.362-26.934,6.933C348.672,52.54,345.578,56.617,344.738,61.74z"/>
				<path style="&st18;" d="M349.538,85.34c-2.866,0.933-6.2,2-7.934,2.533c-0.4,0.067-0.601,0.267-0.601,0.267"/>
				<path style="&st18;" d="M300.043,143.102c-0.652,2.585-1,5.248-0.972,7.838c0.056,5.066,1.2,16.134,1.601,18.066       c0.328,1.59,1.199,2.199,1.866,2.334c0.666,0.133,1.407-0.115,2.466-0.6c0.984-0.451,2.534-0.551,3.834-0.051       c0.925,0.355,2.3,1.25,3.7,2.449c1.399,1.201,3.429,3.211,4.466,3.801c0.867,0.492,3.286,1.406,4.534,1.666       c0.533,2,1,5.533,1,6.934s-0.267,3.732-0.534,4.6c-0.066,0.467,0.268,0.934,0.734,0.801c0.182-0.053,0.497-0.104,0.733-0.133       c0.267-0.033,0.606,0.313,0.566,0.799c-0.134,1.6-0.834,3.801-1.7,4.934c-0.3,0.5-0.25,1.35,0.3,1.15s59-15.85,60.3-16.15       c1.301-0.299,2-1,2.7-1.699c0.7-0.701,1.4-2.301,1.5-3c0.101-0.701,1.101-1.6,1.601-1.701c0,0,2.675-0.791,3.05-0.949       c0.75-0.316,1.541-1.119,1.75-1.85c1.1-3.85,1.2-8.934,0.8-11.133"/>
				<path style="&st18;" d="M349.338,127.873c1.6-4.933,4.4-18.233,4.4-24.333c0-4.3-0.667-6.333-2.4-7.8s-8.533-6.533-9.866-7.333       c-1.334-0.8-2.8-1.2-4.4-1.066c-1.6,0.133-6.8,1.333-8.399,2.133c-1.601,0.8-2.934,1.733-3.867,3.6       c-1.702,3.404-7.367,17.273-8.934,20.667c-0.766,1.659-2.002,3.897-3.406,6.295"/>
				<path style="&st18;" d="M328.529,134.994c1.393-1.999,3.471-3.524,6.009-3.787c3.866-0.4,9.866-2,14-2.934       c4.133-0.933,59.733-16.133,62-16.8c2.267-0.667,3.601-1.067,4.667-1.467"/>
				<path style="&st18;" d="M317.338,177.072c0,0,1.146-4.654,2.649-10.744"/>
				<path style="&st18;" d="M338.788,135.09c-2.785,10.041-8.901,33.881-10.55,42.949"/>
				<path style="&st18;" d="M328.738,135.14c2.699,1.1,7.399,1.5,9.699,0.1c2.301-1.4,4.126-3.507,6.101-4.1       c2-0.6,53.563-15.111,56.733-15.933c1.8-0.467,3.277-0.487,5-0.2c1.2,0.2,3.931-0.234,4.517-0.967       c0.8-1,1.408-1.907,2.35-2.566c1-0.7,2.067-1.467,2.067-1.467"/>
				<path style="&st18;" d="M410.588,114.34c-2.95,6.85-10.25,39-10.65,40.8c-0.399,1.8-1.391,2.872-2,3.399       c-1.5,1.301-3.199,2.5-5.399,3.301"/>
				<path style="&st18;" d="M321.538,178.605c3.8,0.6,4.7,0.1,6.7-0.566c3.866-0.533,58.633-14.898,62.1-16.1       c0,0,0.9,0.201,2.2-0.1"/>
				<path style="&st18;" d="M401.738,115.14c-3,8.2-9.801,38.4-11.4,46.8"/>
				<path style="&st18;" d="M335.938,146.94c12.2-1.2,51.734-12.2,61.934-18.4"/>
				<path style="&st18;" d="M334.204,153.207c4.968-0.489,14.47-2.603,24.677-5.355"/>
				<path style="&st18;" d="M398.538,158.006c1.333,2.934,1.6,7.334,1.2,11.066c-0.4,3.734-4.334,16.199-4.467,16.6       c-0.134,0.4-0.334,0.801-0.733,1.135c-0.4,0.332-0.667,0.533-1,0.799c-0.334,0.268-1.267,0.467-1.934,0.066       s-6.4-3.332-6.4-3.332"/>
				<path style="&st18;" d="M395.004,160.807c1,2.467,1.2,6.732,0.601,10.732c-0.486,3.242-2.467,13.666-3,15.4"/>
				<path style="&st18;" d="M383.871,181.205c0.981,0.613,1.342,2.922,1.186,4.066c-0.014,0.098-0.031,0.188-0.053,0.268       c-0.266,1,1.801,8.133,1.801,8.133s0.667,0.4,1.467,0.867s0.666,1.732,0.2,2.334c-0.468,0.6-1.268,0.533-2.067,0.666       l-4.066,0.934c-0.6,0.4-1.533,0.666-2.2,0.199c-0.666-0.467-18.134-11.4-18.134-11.4"/>
				<path style="&st18;" d="M363.805,186.672c0,0,15.2,8.934,15.867,9.268c0.666,0.332,1.333,1.266,1.399,1.867       c0.066,0.332,0.517,0.383,0.816,0.082"/>
				<path style="&st18;" d="M386.805,193.672l0.667,2.467"/>
				<path style="&st18;" d="M379.088,187.59l1.717,7.816"/>
				<path style="&st18;" d="M384.338,185.74l-4.2,0.732"/>
				<path style="&st18;" d="M361.871,187.473c0,0-0.533,2.199-0.8,3.066s0,1.268,0.601,1.666c0.6,0.4,3.466,2.066,4.133,2.467       s1.066,1.135,1.267,2c0.2,0.867,1.333,5.734,1.533,6.6c0.2,0.867,0.533,1.402,1.399,1.934c0.867,0.535,6.268,3.133,7,3.467       c0.734,0.334,1.867,0.533,2.934,0.334s10.533-2.734,11.467-3.066c0.934-0.334,1.467-1.533,0.467-2.4s-2.867-2.268-3.533-2.799       c-0.666-0.535-1.733-1.867-2.267-3"/>
				<path style="&st18;" d="M370.938,192.939c0.334,0.6,0.467,1.332,0.601,2.199s0.8,4.533,1,5.4s0.866,2.666,1.733,3.533       c0.866,0.867,3.666,3.066,4.267,3.334c0.6,0.266,1.6,0.334,2.6,0.133c1-0.199,8.601-2.199,9.334-2.4       c0.732-0.199,1.2-0.4,1.267-0.867"/>
				<path style="&st18;" d="M378.688,182.689c0.5,0.65,0.778,2.695,0.629,3.818"/>
				<path style="&st18;" d="M398.538,71.207c1.066-1.067,2.933-2,4.666-2.4c1.733-0.4,4.001-0.8,5.468-0.8       c1.466,0,3.299,0.833,4.366,1.633c1.066,0.8,5.233,4.367,6.433,5.967c1.2,1.6,1.874,4.8,1.734,7.467       c-0.268,5.066-3.367,20.966-4.934,25.466c-0.375,1.076-0.533,1.2-1.066,1.467"/>
				<path style="&st18;" d="M398.738,75.04c0,0,7.899,6.534,8.966,7.733c1.067,1.2,1.8,2.935,1.733,5.067       c-0.133,4.267-3.3,18.966-5.434,25.367"/>
				<path style="&st18;" d="M326.404,90.94c1.2-0.934,2.667-1.2,4.4,0c1.733,1.2,7,5.412,8.267,6.4       c1.667,1.3,2.565,3.899,2.533,6.933c-0.066,6.267-2.267,18.467-5.267,26.367c0,0-0.359,0.437-0.75,0.437"/>
				<path style="&st18;" d="M257.565,156.74c0.272,0.201,0.552,0.4,0.839,0.6c2.686,1.859,21.377,13.961,30.529,19.879       c0.338,0.18,1.004,0.047,1.537-0.086c0.534-0.133,1.134-1,1.667-1.734"/>
				<path style="&st18;" d="M291.894,154.965c-2.786-2.314-5.848-4.656-8.822-6.825c-6.4-4.667-11.333-8.533-15.067-10.4       c-0.278-0.14-0.565-0.268-0.859-0.386"/>
				<path style="&st18;" d="M299.871,162.539c-0.771-0.914-1.689-1.883-2.719-2.887"/>
				<path style="&st18;" d="M297.906,166.689c2.405,3.164,4.78,6.939,6.498,9.709"/>
				<path style="&st18;" d="M266.76,139.13c3.74,2.56,15.411,11.089,19.512,14.743c0.814,0.726,1.617,1.478,2.407,2.25"/>
				<path style="&st18;" d="M352.988,87.44c1.05,0.65,4.102,1.518,5.75,1.6c1,0.05,1.571-0.698,1.5-1.9       c-0.623-10.376-1.397-17.947-2.7-23.1c-1.209-4.779-2.95-7.85-4.833-9.197c-1.268-0.853-3.086-1.247-4.673,0"/>
			</g>
			<path style="&st18;" d="M291.671,171.6c-1.733-2.066-4.333-9.268-4.267-13.601c-0.066-0.466,0.4-1.2,1.066-1.667      c0.667-0.467,2.267-1.066,2.733-1.133c0.467-0.066,1.134-0.133,1.867-0.066c0.733,0.066,1.801,0.195,2.399,0.333      c0.867,0.2,1.334,1,1.467,2.134c0.134,1.133,1.134,10.467,1.134,11.199c0,0.734-0.4,1.467-0.934,1.867"/>
			<path style="&st18;" d="M299.805,193.6l-1.8-6.201l-3.4-10.266l-0.134-0.734l-1.732-0.199l-0.934-1.533l-0.334-2.867      l2.867-1.133l3,0.133l0.333,2.467l-0.133,2.268l4.133,10.133c0,0,3.534,10.934,3.667,11.533s-0.733,1-1.066,0.6l-0.533-0.533      l-0.4,0.4l-0.667,0.133l0.067,1.066h-1l-1.268-2.932"/>
			<path style="&st18;" d="M302.271,195.574c0.375-0.096,0.529-0.76,0.345-1.48c-0.185-0.723-0.638-1.23-1.013-1.137l-1.979,0.777      c-0.296,0.076-0.417,0.598-0.271,1.168c0.145,0.57,0.502,0.971,0.798,0.895L302.271,195.574z"/>
			<path style="&st18;" d="M294.604,176.467l1.934-0.734l1-0.199"/>
			<path style="&st18;" d="M297.671,175.732l5.733,2.666"/>
			<path style="&st18;" d="M267.738,131.666c6.267-1.467,35.333-8.8,38.8-10.133c3.467-1.333,4.934-1.533,5.866-1.533"/>
			<path style="&st18;" d="M310.938,171.934c-1.933,0.199-4.124,1.273-5.133,2.332c-1.334,1.4-2.733,4.4-2.667,6.734      c0.067,2.332,4.867,23.467,5,24.133c0.134,0.666,0.467,1.266,1.067,1.666c0.6,0.4,2.866,1.6,3.666,1.867      s2.267,0.268,2.667,0.199c0.399-0.066,0.533-0.266,0.733-0.666c0.199-0.4,0.934-1.934,0.934-1.934l0.732-0.6      c0,0,1.961-9.406,2.467-12.334c1.2-6.932,0.667-12-1.533-15.533"/>
			<path style="&st18;" d="M307.538,173.865c2.3-0.199,4.597,1.582,6.3,3.602c2.7,3.199,3.7,8.1,3.4,12.199      c-0.243,3.314-2.4,18.1-2.4,18.1"/>
			<path style="&st18;" d="M254.638,167.166c0.3,2.1,3.2,10.801,3.3,11.5c0.101,0.699,0.5,1.1,1.301,1.6c0.8,0.5,5.5,3.5,5.5,3.5      s39.266,22.967,39.866,23.301c0.6,0.332,0.866,0.732,1,1.133s0.6,0.934,1,1.199c0.399,0.268,7,4.334,7.333,4.535      c0.334,0.199,0.8,0.533,0.867,1c0.066,0.465,0.066,0.799,0.399,1"/>
			<path style="&st18;" d="M261.671,181.865c-0.666,0-1,0.334-1,0.934s0,1.801,0,2.201c0,0.398,0.2,0.799,0.467,1.066      c0.267,0.266,1.2,0.799,1.2,0.799l0.05-1.75l0.75-0.148l2.55,1.35l1,2l0.051,1l28,16.549"/>
			<path style="&st18;" d="M261.271,186.332c-0.801,0-1.4,0.533-1.934,1.268c-0.533,0.732-2.8,3.533-3.467,4.4      c-0.666,0.865-1.467,1.398-2.199,1.6"/>
			<path style="&st18;" d="M255.871,192c-1.6,0.066-3.666,0.467-4.666,0.934c-1,0.465-1.867,1-1.934,1.398      c-0.066,0.4-0.2,0.867,0.666,0.867c0.867,0,3.667-0.066,4.4-0.066s1.467-0.268,1.934-0.734c0.467-0.465,4.267-4.865,4.467-5.133      c0.199-0.266,0.399-0.467,0.732-0.4l0.534,0.068l0.533-0.068l0.066-1.133l0.366-0.117l3.167,1.951      c0.25,0.199,0.601,0.25,0.8,0.25h0.7"/>
			<path style="&st18;" d="M268.088,190.115c0,0-1.05,1.5-1.25,1.65s-0.4,0.25-0.75,0.301c-0.35,0.049-1.65,0.049-1.65,0.049"/>
			<path style="&st18;" d="M265.838,189.566c0,0-1.9,2.699-2.2,3.1s-0.8,0.65-1.35,0.801c-0.763,0.207-2.101,0.449-3.15,0.6      s-2.6,0.75-3.35,0.799"/>
			<path style="&st18;" d="M315.071,217.133c0.267,1.666,1,2.934,2.066,3.801c0.59,0.479,2.267,1.799,2.267,1.799      c1.134,0.934,0.867,2.4,0.066,2.666c-0.8,0.268-10.199,3-11.399,3.135c-1.2,0.133-2,0.133-2.8-0.268      c-0.801-0.4-5.533-2.934-6.134-3.199c-0.6-0.268-0.866-0.668-0.933-1.066c-0.066-0.4-0.067-0.867,0-2.135      c0.066-1.266,0.933-6.865,1.066-8.066c0.133-1.199-0.467-2.4-1.066-2.799c-0.601-0.4-2.801-1.734-3.134-1.934      c-0.334-0.201-0.533-0.668-0.533-1.066c0-0.4,0.2-2.135,0.267-2.533c0.066-0.4,0.733-0.668,1.333-0.4      c0,0,17.001,10.467,17.867,11.066s1.866,0.867,2.399,0.732c0.533-0.133,1.533-0.666,2.066-0.932      c0.534-0.268,1.601-0.467,2.4-0.467s1.4-0.066,1.4-0.533s-0.134-0.801-0.134-1.334s-0.066-0.734-0.533-1      c-0.467-0.268-1.134-0.867-1.134-0.867"/>
			<path style="&st18;" d="M317.205,206.6l1.333,0.6l2.333,5.666l0.134,1.602"/>
			<path style="&st18;" d="M315.146,209.133l0.312,4.148"/>
			<path style="&st18;" d="M301.438,209.365c0,0-0.6,10.4-0.6,11.9s0.8,2.9,1.8,3.6c1,0.701,2.8,1.701,3.2,1.9      c0.4,0.201,1.3,0.301,2.1,0.201c0.801-0.102,10.101-2.602,10.601-2.801s0.7-0.4,0.6-0.801"/>
		</g>
		<path style="&st18;" d="M355.938,99.34c14.2-2,39.601-9,50.801-13"/>
	</g>
	<g>
		<g>
			<path style="&st0;" d="M192.338,102.866c-0.751,4.578-0.8,13.2-0.2,16.4c0.6,3.2,2.4,5.4,5,7.2c2.6,1.8,5.534,3.2,7,4      c1.467,0.8,3.803,0.814,5.7,0.4c5.5-1.2,29.2-7.3,34.434-9.333c1.73-0.673,2.157-1.729,2.133-3.6      c-0.066-5.267-1.066-14.667-2.133-19.867c-1.067-5.2-3.6-10.267-6.134-12.133c-2.533-1.867-5.066-2-7.733-1.333      c-2.667,0.667-21.629,5.362-26.933,6.934C196.271,93.666,193.178,97.743,192.338,102.866z"/>
			<path style="&st0;" d="M197.138,126.466c-2.866,0.933-6.2,2-7.933,2.533c-0.4,0.067-0.6,0.267-0.6,0.267"/>
			<path style="&st0;" d="M196.938,169c1.6-4.934,4.4-18.234,4.4-24.334c0-4.3-0.667-6.333-2.4-7.8s-8.533-6.533-9.867-7.333      c-1.333-0.8-2.8-1.2-4.4-1.067s-6.8,1.333-8.4,2.133c-1.6,0.8-2.934,1.733-3.867,3.6c-1.702,3.404-7.367,17.273-8.933,20.667      c-2.4,5.201-9.428,16.103-11.733,19.734c-3.133,4.934-5.133,11.4-5.067,17.467c0.056,5.066,1.201,16.133,1.601,18.066      c0.328,1.588,1.2,2.199,1.866,2.334c0.667,0.133,1.408-0.117,2.467-0.602c0.983-0.449,2.533-0.549,3.833-0.049      c0.925,0.355,2.3,1.25,3.7,2.449c1.4,1.201,3.43,3.211,4.467,3.801c0.866,0.492,3.285,1.406,4.533,1.666      c0.534,2,1,5.533,1,6.934s-0.267,3.732-0.533,4.6c-0.066,0.467,0.267,0.934,0.733,0.801c0.182-0.053,0.498-0.104,0.733-0.133      c0.267-0.033,0.607,0.313,0.566,0.799c-0.133,1.6-0.833,3.801-1.7,4.934c-0.3,0.5-0.25,1.35,0.3,1.15      c0.55-0.201,59-15.85,60.3-16.15c1.3-0.301,2-1,2.7-1.699c0.7-0.701,1.4-2.301,1.5-3c0.1-0.701,1.1-1.602,1.6-1.701      c0,0,2.675-0.791,3.05-0.949c0.75-0.316,1.542-1.119,1.75-1.85c1.1-3.852,1.2-8.934,0.8-11.135"/>
			<path style="&st0;" d="M196.671,169.271c7.016-1.74,59.27-16.026,61.466-16.672c2.267-0.667,3.601-1.066,4.667-1.467"/>
			<path style="&st0;" d="M171.134,193.115c1.642-6.621,3.057-12.293,3.404-13.582c0.933-3.467,3.733-6.801,7.6-7.201      c0.617-0.063,1.289-0.158,1.998-0.275"/>
			<path style="&st0;" d="M164.938,218.199c0,0,0.912-3.701,2.175-8.824"/>
			<path style="&st0;" d="M186.388,176.217c-2.785,10.039-8.901,33.881-10.55,42.949"/>
			<path style="&st0;" d="M176.338,176.266c2.7,1.1,7.4,1.5,9.7,0.1c2.3-1.398,4.125-3.506,6.1-4.1      c2-0.6,53.563-15.111,56.733-15.934c1.801-0.467,3.277-0.486,5-0.199c1.2,0.199,3.931-0.234,4.517-0.967      c0.8-1,1.409-1.908,2.351-2.567c1-0.7,2.066-1.467,2.066-1.467"/>
			<path style="&st0;" d="M258.188,155.466c-2.949,6.851-10.25,39.001-10.649,40.8c-0.4,1.801-1.391,2.873-2,3.4      c-1.5,1.301-3.2,2.5-5.4,3.301"/>
			<path style="&st0;" d="M169.138,219.732c3.8,0.6,4.7,0.1,6.7-0.566c3.867-0.533,58.633-14.9,62.1-16.1c0,0,0.9,0.199,2.2-0.1"/>
			<path style="&st0;" d="M238.676,199.4c-0.305,1.463-0.556,2.707-0.738,3.666"/>
			<path style="&st0;" d="M249.338,156.266c-1.336,3.652-3.427,11.672-5.476,20.184"/>
			<path style="&st0;" d="M183.538,188.066c12.2-1.201,51.733-12.201,61.933-18.4"/>
			<path style="&st0;" d="M181.805,194.332c12.2-1.199,51.733-12.199,61.933-18.398"/>
			<path style="&st0;" d="M246.138,199.133c1.333,2.934,1.6,7.332,1.2,11.066s-4.333,16.199-4.467,16.6      c-0.133,0.4-0.333,0.801-0.733,1.135c-0.4,0.332-0.667,0.533-1,0.799c-0.333,0.268-1.267,0.467-1.933,0.066      s-6.4-3.332-6.4-3.332"/>
			<path style="&st0;" d="M242.604,201.934c1,2.467,1.2,6.732,0.6,10.732c-0.486,3.242-2.467,13.666-3,15.4"/>
			<path style="&st0;" d="M231.471,222.332c0.982,0.613,1.342,2.922,1.186,4.064c-0.014,0.1-0.031,0.189-0.052,0.27      c-0.267,1,1.8,8.133,1.8,8.133s0.667,0.4,1.467,0.867c0.8,0.467,0.667,1.732,0.2,2.334c-0.467,0.6-1.267,0.533-2.067,0.666      l-4.066,0.934c-0.6,0.4-1.534,0.666-2.2,0.199s-18.133-11.4-18.133-11.4"/>
			<path style="&st0;" d="M211.404,227.799c0,0,15.2,8.934,15.867,9.268c0.667,0.332,1.333,1.266,1.4,1.867      c0.066,0.332,0.517,0.383,0.816,0.082"/>
			<path style="&st0;" d="M234.404,234.799l0.667,2.467"/>
			<path style="&st0;" d="M226.688,228.717l1.716,7.816"/>
			<path style="&st0;" d="M231.938,226.865l-4.2,0.734"/>
			<path style="&st0;" d="M209.471,228.6c0,0-0.533,2.199-0.8,3.066s0,1.268,0.6,1.666c0.6,0.4,3.466,2.066,4.133,2.467      c0.667,0.4,1.067,1.133,1.267,2c0.2,0.867,1.333,5.734,1.533,6.6c0.2,0.867,0.533,1.4,1.4,1.934s6.267,3.133,7,3.467      s1.867,0.533,2.934,0.334c1.066-0.199,10.533-2.734,11.466-3.066c0.934-0.334,1.467-1.533,0.467-2.4s-2.867-2.268-3.533-2.801      s-1.733-1.865-2.267-3"/>
			<path style="&st0;" d="M218.538,234.066c0.333,0.6,0.466,1.332,0.6,2.199c0.134,0.867,0.8,4.533,1,5.4      c0.2,0.867,0.867,2.666,1.733,3.533c0.867,0.867,3.667,3.066,4.267,3.334c0.6,0.266,1.6,0.332,2.6,0.133s8.6-2.199,9.333-2.4      c0.733-0.199,1.2-0.4,1.267-0.867"/>
			<path style="&st0;" d="M226.288,223.816c0.5,0.65,0.777,2.695,0.628,3.818"/>
			<path style="&st0;" d="M246.138,112.333c1.067-1.066,2.934-2,4.667-2.4s4-0.8,5.467-0.8s3.3,0.833,4.366,1.634      c1.067,0.8,5.233,4.366,6.434,5.966s1.874,4.801,1.733,7.467c-0.267,5.067-3.367,20.967-4.934,25.467      c-0.375,1.076-0.533,1.2-1.066,1.466"/>
			<path style="&st0;" d="M246.338,116.166c0,0,7.9,6.533,8.967,7.733c1.066,1.2,1.8,2.934,1.733,5.066      c-0.134,4.267-3.3,18.967-5.434,25.367"/>
			<path style="&st0;" d="M174.004,132.066c1.2-0.934,2.667-1.2,4.4,0s7.001,5.413,8.267,6.4c1.667,1.3,2.565,3.899,2.533,6.934      c-0.067,6.267-2.267,18.466-5.267,26.366c0,0-0.36,0.438-0.75,0.438"/>
			<path style="&st0;" d="M104.671,178.199c0.933-5.467,3.2-9.199,5.2-9.732s7.472-1.447,11.867-2.533      c12.934-3.201,34.267-8.535,41.867-11.601"/>
			<path style="&st0;" d="M108.004,169.533c1.6-0.934,3.959-0.887,6,0.799c6.133,5.066,24.934,22.268,33.067,28.934"/>
			<path style="&st0;" d="M147.471,203.666c-3.6-4.268-10.4-9.732-16.8-14.4c-6.4-4.666-11.333-8.533-15.066-10.4      c-3.733-1.865-8.934-1.766-11.867-0.299s-4.667,3.766-5.067,5.633c-0.4,1.867-0.456,3.35,0.267,5.6      c1.2,3.734,3.6,6.268,7.066,8.668c3.467,2.398,33.6,21.865,35.467,23.066c1.867,1.199,4,0.934,5.6-0.533      c1.6-1.467,4.133-3.867,5.867-5.068c1.733-1.199,3.6-2.666,5.333-2.932"/>
			<path style="&st0;" d="M106.538,177.666c2.133,0,4.8,0.666,6.933,2s15.875,11.301,20.4,15.334      c0.161,0.143,0.322,0.287,0.482,0.434"/>
			<path style="&st0;" d="M200.588,128.566c1.05,0.65,4.102,1.518,5.75,1.6c1,0.05,1.572-0.698,1.5-1.9      c-0.623-10.376-1.397-17.948-2.7-23.1c-1.208-4.779-2.95-7.85-4.833-9.197c-1.267-0.853-3.085-1.247-4.672,0"/>
			<path style="&st0;" d="M99.205,190.865c-1.867,1.334-3.6,3.467-3.467,6.533c0.133,3.068,2.533,19.068,3.467,22.535      c0.933,3.465,3.156,6.463,6,8.398c7.833,5.334,35.833,21.734,42.8,24.934c3.741,1.719,6.267,1.734,7.333,1.201s2.6-1.9,4-2.5      c1.4-0.602,3.2-1.102,4-1.301c0.533-0.133,0.869-0.199,1.133-1.133c1-3.533,3.097-13.773,3.467-17.768c0.5-5.4,0-9.799-1.1-12.6      "/>
			<path style="&st0;" d="M153.638,216.365c1.8,0.102,3.8,1,5.3,3.4c1.529,2.447,2.1,5.9,1.5,10.5      c-0.494,3.789-2.7,17.201-4.1,22.6"/>
			<path style="&st0;" d="M151.538,254.666c0,0,4.4,2.801,5.3,3.4s1.7,0.699,2.4,0.199l4.7-0.699c0.9,0.199,1.6-0.4,1.6-1.201      c0-0.799-0.2-1.6-0.8-2l-1.2-1.1"/>
			<path style="&st0;" d="M163.438,252.666l0.6,2.9"/>
			<path style="&st0;" d="M154.638,254.766c0,0,2.3,1.301,2.9,1.701c0.6,0.398,0.8,0.799,0.8,1.299"/>
			<path style="&st0;" d="M157.938,252.766l0.6,2.701"/>
			<path style="&st0;" d="M169.738,238.467c0,0-1.8,2.5-2.2,3.1c-0.4,0.6-0.7,2.4-0.5,3.4c0.2,1,0.8,4.199,1.1,5.199      c0.3,1,0,1.4-0.667,1.5l-9.133,2"/>
			<path style="&st0;" d="M138.738,248.266c0,0-0.2,1.867-0.2,2.467s0.2,1.533,0.933,1.867c0,0,3.095,1.619,3.467,1.867      c0.4,0.266,0.8,0.666,1,1.332c0.2,0.668,1.467,7,1.533,7.467c0.067,0.467,0.4,1.135,0.933,1.467      c0.534,0.334,6.8,3.268,7.534,3.533c0.733,0.268,1.533,0.467,2.533,0.201c1-0.268,8.667-2.4,9.333-2.602      c0.667-0.199,0.933-1.266-0.067-2.133c0,0-1.796-1.24-2.333-1.666c-0.566-0.451-1.467-1.334-1.8-1.934s-1-1.867-1-1.867"/>
			<path style="&st0;" d="M147.891,253.322c0,0,1.547,7.344,1.847,8.344c0.3,1,0.9,2.4,1.8,3.199c0.9,0.801,2.4,1.867,2.733,2.068      c0.333,0.199,1.266,0.266,1.733,0.199s8.467-2,8.934-2.133c0.466-0.135,0.533-0.268,0.6-0.668"/>
			<path style="&st0;" d="M104.927,228.215c-0.955,0-1.808,0.715-1.979,2.25c-0.133,1.195-0.444,3.514-0.478,3.754      c-0.034,0.238-0.103,0.408-0.307,0.477"/>
			<path style="&st0;" d="M106.805,229.398c0,0-0.6,0.035-0.733,0.035s-0.4,0.1-0.4,0.299c0,0.201,0,0.9,0,1.1      c0,0.201-0.234,0.367-0.467,0.367l-0.5,0.033l-0.833,1.666c0,0-0.133,1.201-0.133,1.635s-0.6,1.666-1.6,1.699      s-4.5,0.033-4.933,0.033s-0.6-0.266-0.533-0.666c0.066-0.4,0.522-0.994,1.167-1.4c0.633-0.4,1.434-0.732,2.4-0.967      c0.731-0.176,1.833-0.334,2.367-0.367"/>
			<path style="&st0;" d="M102.904,236.033c0.567-0.033,2.8-0.734,3.5-1.066"/>
			<path style="&st0;" d="M104.404,234.066c0,0,1.541,0.734,2.2,0.9c0.667,0.166,1.733,0.166,2.633-0.301      c0.848-0.439,1.5-1.1,1.5-1.867c0-0.5,0-0.832,0-0.832"/>
			<path style="&st0;" d="M110.771,232.898c0.566,0.135,1.066,0.068,1.366-0.033"/>
			<path style="&st0;" d="M104.805,205.467c0.2-0.668,1.8-1.068,2.8-0.4c0.789,0.525,9.418,5.789,13.91,8.539"/>
			<path style="&st0;" d="M110.988,208.967c-0.654,0.064-1.3,0.299-1.65,0.449s-0.75,0.75-0.8,1.35c-0.05,0.6,0.05,1.701,0.5,2.4      c0.45,0.699,1.461,1.531,2.3,2.1c1.033,0.701,3.5,2.1,4.6,2.65c0.64,0.32,1.883,0.666,2.433,0.717      c0.55,0.051,1.167-0.117,1.367-0.617c0.2-0.5,0.341-1.703,0.4-2.25c0.1-0.934-0.333-1.934-1.25-2.6      c-0.729-0.529-5.25-3.4-5.95-3.75C112.238,209.066,111.488,208.916,110.988,208.967z"/>
			<path style="&st0;" d="M121.271,215.299c-0.367,0.268-0.634,0.801-0.767,1.701c-0.133,0.898-0.286,2.734-0.233,3.5      c0.066,0.967,0.467,1.766,1.2,2.033"/>
			<path style="&st0;" d="M109.224,213.561c0.258,1.162,0.549,2.236,0.848,2.973c0.564,1.387,1.687,2.908,3.066,4      c1.296,1.025,5.523,3.408,8.146,4.736"/>
			<path style="&st0;" d="M109.004,206.066c-0.6-0.133-0.798,0.857-0.733,1.666c0.044,0.555,0.162,1.477,0.332,2.539"/>
			<path style="&st0;" d="M129.471,223.398c0.767,0.268,3.007,1.566,3.4,1.889c0.394,0.322,0.573,0.607,0.573,1.252      s0,1.828,0,2.221c0,0.395-0.394,0.68-0.967,0.395c-0.573-0.287-2.483-1.346-3.106-1.756c-0.667-0.438-0.867-0.898-0.904-1.432      c-0.047-0.658,0.038-1.834,0.072-2.184C128.577,223.391,129.194,223.303,129.471,223.398z"/>
			<path style="&st0;" d="M99.838,205.666c0.65,0.4,2.907,1.965,3.3,2.287c0.394,0.322,0.573,0.609,0.573,1.254s0,1.826,0,2.221      c0,0.393-0.394,0.68-0.967,0.393c-0.573-0.285-2.356-1.504-2.956-2.055c-0.589-0.539-0.763-0.904-0.8-1.438      c-0.047-0.658-0.049-1.971-0.015-2.322C99.011,205.613,99.588,205.512,99.838,205.666z"/>
		</g>
		<path style="&st0;" d="M203.538,140.466c14.2-2,39.6-9,50.8-13"/>
	</g>
	<g>
		<g>
			<g>
				<path style="&st0;" d="M344.738,61.74c-0.751,4.578-0.801,13.2-0.2,16.4c0.6,3.2,2.399,5.4,5,7.2c2.6,1.8,5.533,3.2,7,4       c1.466,0.8,3.803,0.814,5.7,0.4c5.5-1.2,29.199-7.3,34.434-9.333c1.73-0.672,2.156-1.729,2.133-3.6       c-0.066-5.267-1.066-14.667-2.133-19.866c-1.067-5.2-3.601-10.267-6.134-12.134c-2.534-1.866-5.067-2-7.733-1.333       c-2.667,0.667-21.63,5.362-26.934,6.933C348.672,52.54,345.578,56.617,344.738,61.74z"/>
				<path style="&st0;" d="M349.538,85.34c-2.866,0.933-6.2,2-7.934,2.533c-0.4,0.067-0.601,0.267-0.601,0.267"/>
				<path style="&st0;" d="M300.043,143.102c-0.652,2.585-1,5.248-0.972,7.838c0.056,5.066,1.2,16.134,1.601,18.066       c0.328,1.59,1.199,2.199,1.866,2.334c0.666,0.133,1.407-0.115,2.466-0.6c0.984-0.451,2.534-0.551,3.834-0.051       c0.925,0.355,2.3,1.25,3.7,2.449c1.399,1.201,3.429,3.211,4.466,3.801c0.867,0.492,3.286,1.406,4.534,1.666       c0.533,2,1,5.533,1,6.934s-0.267,3.732-0.534,4.6c-0.066,0.467,0.268,0.934,0.734,0.801c0.182-0.053,0.497-0.104,0.733-0.133       c0.267-0.033,0.606,0.313,0.566,0.799c-0.134,1.6-0.834,3.801-1.7,4.934c-0.3,0.5-0.25,1.35,0.3,1.15s59-15.85,60.3-16.15       c1.301-0.299,2-1,2.7-1.699c0.7-0.701,1.4-2.301,1.5-3c0.101-0.701,1.101-1.6,1.601-1.701c0,0,2.675-0.791,3.05-0.949       c0.75-0.316,1.541-1.119,1.75-1.85c1.1-3.85,1.2-8.934,0.8-11.133"/>
				<path style="&st0;" d="M349.338,127.873c1.6-4.933,4.4-18.233,4.4-24.333c0-4.3-0.667-6.333-2.4-7.8s-8.533-6.533-9.866-7.333       c-1.334-0.8-2.8-1.2-4.4-1.066c-1.6,0.133-6.8,1.333-8.399,2.133c-1.601,0.8-2.934,1.733-3.867,3.6       c-1.702,3.404-7.367,17.273-8.934,20.667c-0.766,1.659-2.002,3.897-3.406,6.295"/>
				<path style="&st0;" d="M328.529,134.994c1.393-1.999,3.471-3.524,6.009-3.787c3.866-0.4,9.866-2,14-2.934       c4.133-0.933,59.733-16.133,62-16.8c2.267-0.667,3.601-1.067,4.667-1.467"/>
				<path style="&st0;" d="M317.338,177.072c0,0,1.146-4.654,2.649-10.744"/>
				<path style="&st0;" d="M338.788,135.09c-2.785,10.041-8.901,33.881-10.55,42.949"/>
				<path style="&st0;" d="M328.738,135.14c2.699,1.1,7.399,1.5,9.699,0.1c2.301-1.4,4.126-3.507,6.101-4.1       c2-0.6,53.563-15.111,56.733-15.933c1.8-0.467,3.277-0.487,5-0.2c1.2,0.2,3.931-0.234,4.517-0.967       c0.8-1,1.408-1.907,2.35-2.566c1-0.7,2.067-1.467,2.067-1.467"/>
				<path style="&st0;" d="M410.588,114.34c-2.95,6.85-10.25,39-10.65,40.8c-0.399,1.8-1.391,2.872-2,3.399       c-1.5,1.301-3.199,2.5-5.399,3.301"/>
				<path style="&st0;" d="M321.538,178.605c3.8,0.6,4.7,0.1,6.7-0.566c3.866-0.533,58.633-14.898,62.1-16.1c0,0,0.9,0.201,2.2-0.1       "/>
				<path style="&st0;" d="M401.738,115.14c-3,8.2-9.801,38.4-11.4,46.8"/>
				<path style="&st0;" d="M335.938,146.94c12.2-1.2,51.734-12.2,61.934-18.4"/>
				<path style="&st0;" d="M334.204,153.207c4.968-0.489,14.47-2.603,24.677-5.355"/>
				<path style="&st0;" d="M398.538,158.006c1.333,2.934,1.6,7.334,1.2,11.066c-0.4,3.734-4.334,16.199-4.467,16.6       c-0.134,0.4-0.334,0.801-0.733,1.135c-0.4,0.332-0.667,0.533-1,0.799c-0.334,0.268-1.267,0.467-1.934,0.066       s-6.4-3.332-6.4-3.332"/>
				<path style="&st0;" d="M395.004,160.807c1,2.467,1.2,6.732,0.601,10.732c-0.486,3.242-2.467,13.666-3,15.4"/>
				<path style="&st0;" d="M383.871,181.205c0.981,0.613,1.342,2.922,1.186,4.066c-0.014,0.098-0.031,0.188-0.053,0.268       c-0.266,1,1.801,8.133,1.801,8.133s0.667,0.4,1.467,0.867s0.666,1.732,0.2,2.334c-0.468,0.6-1.268,0.533-2.067,0.666       l-4.066,0.934c-0.6,0.4-1.533,0.666-2.2,0.199c-0.666-0.467-18.134-11.4-18.134-11.4"/>
				<path style="&st0;" d="M363.805,186.672c0,0,15.2,8.934,15.867,9.268c0.666,0.332,1.333,1.266,1.399,1.867       c0.066,0.332,0.517,0.383,0.816,0.082"/>
				<path style="&st0;" d="M386.805,193.672l0.667,2.467"/>
				<path style="&st0;" d="M379.088,187.59l1.717,7.816"/>
				<path style="&st0;" d="M384.338,185.74l-4.2,0.732"/>
				<path style="&st0;" d="M361.871,187.473c0,0-0.533,2.199-0.8,3.066s0,1.268,0.601,1.666c0.6,0.4,3.466,2.066,4.133,2.467       s1.066,1.135,1.267,2c0.2,0.867,1.333,5.734,1.533,6.6c0.2,0.867,0.533,1.402,1.399,1.934c0.867,0.535,6.268,3.133,7,3.467       c0.734,0.334,1.867,0.533,2.934,0.334s10.533-2.734,11.467-3.066c0.934-0.334,1.467-1.533,0.467-2.4s-2.867-2.268-3.533-2.799       c-0.666-0.535-1.733-1.867-2.267-3"/>
				<path style="&st0;" d="M370.938,192.939c0.334,0.6,0.467,1.332,0.601,2.199s0.8,4.533,1,5.4s0.866,2.666,1.733,3.533       c0.866,0.867,3.666,3.066,4.267,3.334c0.6,0.266,1.6,0.334,2.6,0.133c1-0.199,8.601-2.199,9.334-2.4       c0.732-0.199,1.2-0.4,1.267-0.867"/>
				<path style="&st0;" d="M378.688,182.689c0.5,0.65,0.778,2.695,0.629,3.818"/>
				<path style="&st0;" d="M398.538,71.207c1.066-1.067,2.933-2,4.666-2.4c1.733-0.4,4.001-0.8,5.468-0.8       c1.466,0,3.299,0.833,4.366,1.633c1.066,0.8,5.233,4.367,6.433,5.967c1.2,1.6,1.874,4.8,1.734,7.467       c-0.268,5.066-3.367,20.966-4.934,25.466c-0.375,1.076-0.533,1.2-1.066,1.467"/>
				<path style="&st0;" d="M398.738,75.04c0,0,7.899,6.534,8.966,7.733c1.067,1.2,1.8,2.935,1.733,5.067       c-0.133,4.267-3.3,18.966-5.434,25.367"/>
				<path style="&st0;" d="M326.404,90.94c1.2-0.934,2.667-1.2,4.4,0c1.733,1.2,7,5.412,8.267,6.4       c1.667,1.3,2.565,3.899,2.533,6.933c-0.066,6.267-2.267,18.467-5.267,26.367c0,0-0.359,0.437-0.75,0.437"/>
				<path style="&st0;" d="M257.565,156.74c0.272,0.201,0.552,0.4,0.839,0.6c2.686,1.859,21.377,13.961,30.529,19.879       c0.338,0.18,1.004,0.047,1.537-0.086c0.534-0.133,1.134-1,1.667-1.734"/>
				<path style="&st0;" d="M291.894,154.965c-2.786-2.314-5.848-4.656-8.822-6.825c-6.4-4.667-11.333-8.533-15.067-10.4       c-0.278-0.14-0.565-0.268-0.859-0.386"/>
				<path style="&st0;" d="M299.871,162.539c-0.771-0.914-1.689-1.883-2.719-2.887"/>
				<path style="&st0;" d="M297.906,166.689c2.405,3.164,4.78,6.939,6.498,9.709"/>
				<path style="&st0;" d="M266.76,139.13c3.74,2.56,15.411,11.089,19.512,14.743c0.814,0.726,1.617,1.478,2.407,2.25"/>
				<path style="&st0;" d="M352.988,87.44c1.05,0.65,4.102,1.518,5.75,1.6c1,0.05,1.571-0.698,1.5-1.9       c-0.623-10.376-1.397-17.947-2.7-23.1c-1.209-4.779-2.95-7.85-4.833-9.197c-1.268-0.853-3.086-1.247-4.673,0"/>
			</g>
			<path style="&st0;" d="M291.671,171.6c-1.733-2.066-4.333-9.268-4.267-13.601c-0.066-0.466,0.4-1.2,1.066-1.667      c0.667-0.467,2.267-1.066,2.733-1.133c0.467-0.066,1.134-0.133,1.867-0.066c0.733,0.066,1.801,0.195,2.399,0.333      c0.867,0.2,1.334,1,1.467,2.134c0.134,1.133,1.134,10.467,1.134,11.199c0,0.734-0.4,1.467-0.934,1.867"/>
			<path style="&st0;" d="M299.805,193.6l-1.8-6.201l-3.4-10.266l-0.134-0.734l-1.732-0.199l-0.934-1.533l-0.334-2.867l2.867-1.133      l3,0.133l0.333,2.467l-0.133,2.268l4.133,10.133c0,0,3.534,10.934,3.667,11.533s-0.733,1-1.066,0.6l-0.533-0.533l-0.4,0.4      l-0.667,0.133l0.067,1.066h-1l-1.268-2.932"/>
			<path style="&st0;" d="M302.271,195.574c0.375-0.096,0.529-0.76,0.345-1.48c-0.185-0.723-0.638-1.23-1.013-1.137l-1.979,0.777      c-0.296,0.076-0.417,0.598-0.271,1.168c0.145,0.57,0.502,0.971,0.798,0.895L302.271,195.574z"/>
			<path style="&st0;" d="M294.604,176.467l1.934-0.734l1-0.199"/>
			<path style="&st0;" d="M297.671,175.732l5.733,2.666"/>
			<path style="&st0;" d="M267.738,131.666c6.267-1.467,35.333-8.8,38.8-10.133c3.467-1.333,4.934-1.533,5.866-1.533"/>
			<path style="&st0;" d="M310.938,171.934c-1.933,0.199-4.124,1.273-5.133,2.332c-1.334,1.4-2.733,4.4-2.667,6.734      c0.067,2.332,4.867,23.467,5,24.133c0.134,0.666,0.467,1.266,1.067,1.666c0.6,0.4,2.866,1.6,3.666,1.867      s2.267,0.268,2.667,0.199c0.399-0.066,0.533-0.266,0.733-0.666c0.199-0.4,0.934-1.934,0.934-1.934l0.732-0.6      c0,0,1.961-9.406,2.467-12.334c1.2-6.932,0.667-12-1.533-15.533"/>
			<path style="&st0;" d="M307.538,173.865c2.3-0.199,4.597,1.582,6.3,3.602c2.7,3.199,3.7,8.1,3.4,12.199      c-0.243,3.314-2.4,18.1-2.4,18.1"/>
			<path style="&st0;" d="M254.638,167.166c0.3,2.1,3.2,10.801,3.3,11.5c0.101,0.699,0.5,1.1,1.301,1.6c0.8,0.5,5.5,3.5,5.5,3.5      s39.266,22.967,39.866,23.301c0.6,0.332,0.866,0.732,1,1.133s0.6,0.934,1,1.199c0.399,0.268,7,4.334,7.333,4.535      c0.334,0.199,0.8,0.533,0.867,1c0.066,0.465,0.066,0.799,0.399,1"/>
			<path style="&st0;" d="M261.671,181.865c-0.666,0-1,0.334-1,0.934s0,1.801,0,2.201c0,0.398,0.2,0.799,0.467,1.066      c0.267,0.266,1.2,0.799,1.2,0.799l0.05-1.75l0.75-0.148l2.55,1.35l1,2l0.051,1l28,16.549"/>
			<path style="&st0;" d="M261.271,186.332c-0.801,0-1.4,0.533-1.934,1.268c-0.533,0.732-2.8,3.533-3.467,4.4      c-0.666,0.865-1.467,1.398-2.199,1.6"/>
			<path style="&st0;" d="M255.871,192c-1.6,0.066-3.666,0.467-4.666,0.934c-1,0.465-1.867,1-1.934,1.398      c-0.066,0.4-0.2,0.867,0.666,0.867c0.867,0,3.667-0.066,4.4-0.066s1.467-0.268,1.934-0.734c0.467-0.465,4.267-4.865,4.467-5.133      c0.199-0.266,0.399-0.467,0.732-0.4l0.534,0.068l0.533-0.068l0.066-1.133l0.366-0.117l3.167,1.951      c0.25,0.199,0.601,0.25,0.8,0.25h0.7"/>
			<path style="&st0;" d="M268.088,190.115c0,0-1.05,1.5-1.25,1.65s-0.4,0.25-0.75,0.301c-0.35,0.049-1.65,0.049-1.65,0.049"/>
			<path style="&st0;" d="M265.838,189.566c0,0-1.9,2.699-2.2,3.1s-0.8,0.65-1.35,0.801c-0.763,0.207-2.101,0.449-3.15,0.6      s-2.6,0.75-3.35,0.799"/>
			<path style="&st0;" d="M315.071,217.133c0.267,1.666,1,2.934,2.066,3.801c0.59,0.479,2.267,1.799,2.267,1.799      c1.134,0.934,0.867,2.4,0.066,2.666c-0.8,0.268-10.199,3-11.399,3.135c-1.2,0.133-2,0.133-2.8-0.268      c-0.801-0.4-5.533-2.934-6.134-3.199c-0.6-0.268-0.866-0.668-0.933-1.066c-0.066-0.4-0.067-0.867,0-2.135      c0.066-1.266,0.933-6.865,1.066-8.066c0.133-1.199-0.467-2.4-1.066-2.799c-0.601-0.4-2.801-1.734-3.134-1.934      c-0.334-0.201-0.533-0.668-0.533-1.066c0-0.4,0.2-2.135,0.267-2.533c0.066-0.4,0.733-0.668,1.333-0.4      c0,0,17.001,10.467,17.867,11.066s1.866,0.867,2.399,0.732c0.533-0.133,1.533-0.666,2.066-0.932      c0.534-0.268,1.601-0.467,2.4-0.467s1.4-0.066,1.4-0.533s-0.134-0.801-0.134-1.334s-0.066-0.734-0.533-1      c-0.467-0.268-1.134-0.867-1.134-0.867"/>
			<path style="&st0;" d="M317.205,206.6l1.333,0.6l2.333,5.666l0.134,1.602"/>
			<path style="&st0;" d="M315.146,209.133l0.312,4.148"/>
			<path style="&st0;" d="M301.438,209.365c0,0-0.6,10.4-0.6,11.9s0.8,2.9,1.8,3.6c1,0.701,2.8,1.701,3.2,1.9      c0.4,0.201,1.3,0.301,2.1,0.201c0.801-0.102,10.101-2.602,10.601-2.801s0.7-0.4,0.6-0.801"/>
		</g>
		<path style="&st0;" d="M355.938,99.34c14.2-2,39.601-9,50.801-13"/>
	</g>
</g>
<g id="Code">
	<path style="&st1;" d="M277.37,16.882v27.958l19.5,84.898"/>
	<path style="&st8;" d="M277.37,9.796v35.045l19.5,84.898"/>
	<path style="&st1;" d="M316.037,16.882v27.958l-1.5,79.564"/>
	<path style="&st8;" d="M316.037,9.796v35.045l-1.5,79.564"/>
	<path style="&st1;" d="M14.882,76.319h33.381l108.107,87.586"/>
	<path style="&st8;" d="M14.882,76.319h33.381l108.107,87.586"/>
	<path style="&st1;" d="M14.882,209.738h33.381l80.561,28"/>
	<path style="&st8;" d="M14.882,209.738h33.381l80.561,28"/>
	<text transform="matrix(1 0 0 1 391.8701 11.0283)"><tspan x="0" y="0" style="&st12; &st14;">Floor No.2 Wire</tspan></text>
	<path style="&st1;" d="M423.87,13.778v31.063"/>
	<path style="&st1;" d="M423.87,13.778v31.063l-104.666,83.231"/>
	<path style="&st8;" d="M423.87,13.778v31.063l-104.666,83.231"/>
	<text transform="matrix(1 0 0 1 115.6855 11.5938)"><tspan x="0" y="0" style="&st12; &st14;">Front Seat LH Wire</tspan></text>
	<path style="&st1;" d="M153.537,14.468v31.063"/>
	<path style="&st1;" d="M153.537,14.468v31.063l13.667,127.875"/>
	<path style="&st8;" d="M153.537,14.468v31.063l13.667,127.875"/>
	<path style="&st1;" d="M383.458,290.376l0.021-23.979l-44.109-78.992"/>
	<text transform="matrix(1 0 0 1 360.8564 298.917)"><tspan x="0" y="0" style="&st12; &st14;">Front Seat</tspan><tspan x="0" y="10" style="&st12; &st14;">RH Wire</tspan></text>
	<path style="&st8;" d="M383.458,290.376l0.021-23.979l-44.109-78.992"/>
	<path style="&st1;" d="M48.978,129.905H68.37l80.45,38.45"/>
	<path style="&st8;" d="M48.978,129.905H68.37l80.45,38.45"/>
	<text transform="matrix(1 0 0 1 2.3818 132.9712)"><tspan x="0" y="0" style="&st12; &st14;">Floor Wire</tspan></text>
	<path style="&st1;" d="M48.978,170.405H68.37l35.643,48.23"/>
	<path style="&st8;" d="M48.978,170.405H68.37l35.643,48.23"/>
	<text transform="matrix(1 0 0 1 2.3818 168.5889)"><tspan x="0" y="0" style="&st12; &st14;">Seat No.2</tspan><tspan x="0" y="10" style="&st12; &st14;">Wire</tspan></text>
	<a ewd:code="PW1" ewd:figtype="w2w" style="cursor:pointer;">
		<path style="&st17;" d="M289.418,16.919V2.746h-24.096v14.173H289.418z"/>
		<text transform="matrix(1 0 0 1 266.5352 13.333)"><tspan x="0" y="0" style="&st6; &st14;">PW1</tspan></text>
	</a>
	<a ewd:code="PW2" ewd:figtype="w2w" style="cursor:pointer;">
		<path style="&st17;" d="M328.085,16.919V2.746h-24.096v14.173H328.085z"/>
		<text transform="matrix(1 0 0 1 305.2021 13.333)"><tspan x="0" y="0" style="&st6; &st14;">PW2</tspan></text>
	</a>
	<a ewd:code="OX1" ewd:figtype="w2w" style="cursor:pointer;">
		<path style="&st17;" d="M26.929,83.405V69.232H2.835v14.173H26.929z"/>
		<text transform="matrix(1 0 0 1 4.877 79.8198)"><tspan x="0" y="0" style="&st6; &st14;">OX1</tspan></text>
	</a>
	<a ewd:code="Xz1" ewd:figtype="w2w" style="cursor:pointer;">
		<path style="&st17;" d="M26.929,216.825v-14.174H2.835v14.174H26.929z"/>
		<text transform="matrix(1 0 0 1 6.2661 213.2393)"><tspan x="0" y="0" style="&st6; &st14;">Xz1</tspan></text>
	</a>
</g>
</svg>