﻿<?xml version="1.0" encoding="utf-8"?>
<!DOCTYPE svg PUBLIC "-//W3C//DTD SVG 1.0//EN" "http://www.w3.org/TR/2001/REC-SVG-20010904/DTD/svg10.dtd"[
	<!ENTITY ns_flows "http://ns.adobe.com/Flows/1.0/">
	<!ENTITY ns_svg "http://www.w3.org/2000/svg">
	<!ENTITY ns_xlink "http://www.w3.org/1999/xlink">
	<!ENTITY st0 "font-size:7px;font-family:'MS-PGothic';adobe-font-script:japanese;">
	<!ENTITY st1 "font-size:6px;font-family:'ArialMT';">
	<!-- White fill  -->
	<!ENTITY st2 "fill:#FFFFFF;stroke:#000000; stroke-width:1.41;stroke-linecap:round;stroke-linejoin:round;">
	<!-- Yellow fill  -->
	<!ENTITY st3 "fill:#FFFFCC;stroke:#FFFFCC; stroke-width:0.1;stroke-linecap:round;stroke-linejoin:round;">
	<!-- Gray fill  -->
	<!ENTITY st4 "fill:#CCCCCC;stroke:#CCCCCC; stroke-width:0.1;stroke-linecap:round;stroke-linejoin:round;">
	<!-- Light-blue fill -->
	<!ENTITY st5 "fill:#CCECF4;stroke:#000000; stroke-width:1.133;stroke-linecap:round;stroke-linejoin:round;">
	<!ENTITY st6 "fill:none;stroke-linecap:butt; stroke-linejoin:round;">
	<!ENTITY st7 "fill:none;stroke:#000000;stroke-linecap:round;stroke-linejoin:round;">
	<!ENTITY st8 "enable-background:new    ;">
	<!-- Black fill -->
	<!ENTITY st9 "fill:#000000;stroke:#000000; stroke-linecap:round;stroke-linejoin:round;">
	<!-- SRS note   -->
	<!ENTITY st10 "font-size:9px;font-family:'ArialMT';">
	<!ENTITY st11 "font-size:9px;font-family:'Svg Symbol';">
	<!ENTITY st12 "font-size:6px;font-family:'Svg Symbol';">
	<!ENTITY st13 "fill:none;stroke:#ff0000;stroke-linecap:round;stroke-linejoin:round;">
	<!-- Yellow fill  -->
	<!ENTITY st14 "fill:#FFFF00;stroke:#FFFF00; stroke-width:0.1;stroke-linecap:round;stroke-linejoin:round;">
	<!ENTITY st15 "font-size:6px;font-family:'MS-PGothic';adobe-font-script:japanese;">
	<!ENTITY st16 "1.00 0.00 0.00 1.00">
	<!ENTITY st17 "0.00 -1.00 1.00 0.00">
	<!ENTITY st18 "font-size:6px;font-family:'Arial';">
	<!ENTITY st19 "font-size:9px;font-family:'Arial';">
	<!ENTITY st20 "font-size:6px;font-family:'MS-PGothic','MS PGothic';adobe-font-script:japanese;">
	<!ENTITY st21 "font-size:7px;font-family:'MS-PGothic','MS PGothic';adobe-font-script:japanese;">
	<!ATTLIST svg
		xmlns:ewd CDATA #FIXED "http://shcl.co.jp/ewd"
		xmlns:a CDATA #FIXED "http://ns.adobe.com/AdobeSVGViewerExtensions/3.0/"
		ewd:ver CDATA #IMPLIED
	>
	<!ATTLIST a
		ewd:lineID CDATA #IMPLIED
		ewd:groupID CDATA #IMPLIED
		ewd:figtype CDATA #IMPLIED
		ewd:code CDATA #IMPLIED
		ewd:figID CDATA #IMPLIED
		ewd:pinNo CDATA #IMPLIED
		ewd:comment CDATA #IMPLIED >
	<!ATTLIST g
		ewd:lineID CDATA #IMPLIED
		ewd:groupID CDATA #IMPLIED
		ewd:figtype CDATA #IMPLIED
		ewd:code CDATA #IMPLIED
		ewd:figID CDATA #IMPLIED
		ewd:pinNo CDATA #IMPLIED
		ewd:comment CDATA #IMPLIED >
	<!ATTLIST text
		ewd:textID CDATA #IMPLIED >
	<!ATTLIST title
		ewd:textID CDATA #IMPLIED >
]>
<!-- Generator: Shintec Hozumi YS   -->
<svg onload="call_execInitLoadProc_svg('system')" style="overflow:visible;  enable-background:new 0 0 5667.136 710.000" viewBox="0 0 5667.136 710.000" height="710.000" width="5667.136" xml:space="preserve" ewd:ver="L2.1.2.9" xmlns="&ns_svg;" xmlns:a="http://ns.adobe.com/AdobeSVGViewerExtensions/3.0/" xmlns:ewd="http://shcl.co.jp/ewd" xmlns:xlink="&ns_xlink;">
<path d=" M 4793.20,  537.20  L 4793.20,  452.21 " style="stroke:#000000;stroke-width: 0.85 ;&st7;stroke-dasharray:3, 1.5;" /><path d=" M 4793.20,  443.71  L 4793.20,  358.73 " style="stroke:#000000;stroke-width: 0.85 ;&st7;stroke-dasharray:3, 1.5;" /><path d=" M 4793.20,  350.23  L 4793.20,  265.24 " style="stroke:#000000;stroke-width: 0.85 ;&st7;stroke-dasharray:3, 1.5;" /><path d=" M 4954.67,  537.20  L 4954.67,  452.21 " style="stroke:#000000;stroke-width: 0.85 ;&st7;stroke-dasharray:3, 1.5;" /><path d=" M 4954.67,  443.71  L 4954.67,  358.73 " style="stroke:#000000;stroke-width: 0.85 ;&st7;stroke-dasharray:3, 1.5;" /><path d=" M 4954.67,  350.23  L 4954.67,  265.24 " style="stroke:#000000;stroke-width: 0.85 ;&st7;stroke-dasharray:3, 1.5;" /><path d=" M 4742.21,  452.21  L 4750.71,  452.21 " style="stroke-width: 1.42 ;&st7; " /><path d=" M 4742.21,  358.73  L 4750.71,  358.73 " style="stroke-width: 1.42 ;&st7; " /><path d=" M 4997.17,  452.21  L 5005.66,  452.21 " style="stroke-width: 1.42 ;&st7; " /><path d=" M 4997.17,  358.73  L 5005.66,  358.73 " style="stroke-width: 1.42 ;&st7; " /><path d=" M 4946.17,  452.21  L 4954.67,  452.21 " style="stroke-width: 1.42 ;&st7; " /><path d=" M 4946.17,  358.73  L 4954.67,  358.73 " style="stroke-width: 1.42 ;&st7; " /><path d=" M 4835.69,  452.21  L 4844.19,  452.21 " style="stroke-width: 1.42 ;&st7; " /><path d=" M 4835.69,  358.73  L 4844.19,  358.73 " style="stroke-width: 1.42 ;&st7; " /><path d=" M 4886.68,  452.21  L 4895.18,  452.21 " style="stroke-width: 1.42 ;&st7; " /><path d=" M 4886.68,  358.73  L 4895.18,  358.73 " style="stroke-width: 1.42 ;&st7; " /><path d=" M 4784.70,  452.21  L 4793.20,  452.21 " style="stroke-width: 1.42 ;&st7; " /><path d=" M 4784.70,  358.73  L 4793.20,  358.73 " style="stroke-width: 1.42 ;&st7; " /><path d=" M 4504.25,  188.75  L 4504.25,  214.25 " style="stroke-width: 1.42 ;&st7; " /><path d=" M 4504.25,   61.28  L 4504.25,   86.77 " style="stroke-width: 1.42 ;&st7; " /><path d=" M 4793.20,  324.73  L 4912.18,  324.73  L 4912.18,  290.74  L 4793.20,  290.74 " style="stroke-width: 0.85 ;&st7;stroke-dasharray:3, 1.5;" /><path d=" M 4793.20,  418.22  L 4912.18,  418.22  L 4912.18,  384.22  L 4793.20,  384.22 " style="stroke-width: 0.85 ;&st7;stroke-dasharray:3, 1.5;" /><path d=" M 4792.00,  291.74  L 4791.73,  291.27  L 4791.64,  290.74  L 4791.73,  290.20  L 4792.00,  289.73  L 4792.42,  289.39  L 4792.93,  289.20  L 4793.47,  289.20  L 4793.98,  289.39  L 4794.39,  289.73  L 4794.66,  290.20  L 4794.76,  290.74  L 4794.66,  291.27  L 4794.39,  291.74  L 4793.98,  292.09  L 4793.47,  292.27  L 4792.93,  292.27  L 4792.42,  292.09  L 4792.00,  291.74  L 4792.40,  291.03  L 4792.40,  290.45  L 4792.77,  290.00  L 4793.34,  289.90  L 4793.85,  290.19  L 4794.05,  290.74  L 4793.85,  291.28  L 4793.34,  291.57  L 4792.77,  291.47  L 4793.20,  290.74 " style="stroke-width: 0.85 ;&st7; " /><path d=" M 4792.00,  325.73  L 4791.73,  325.26  L 4791.64,  324.73  L 4791.73,  324.20  L 4792.00,  323.73  L 4792.42,  323.38  L 4792.93,  323.20  L 4793.47,  323.20  L 4793.98,  323.38  L 4794.39,  323.73  L 4794.66,  324.20  L 4794.76,  324.73  L 4794.66,  325.26  L 4794.39,  325.73  L 4793.98,  326.08  L 4793.47,  326.27  L 4792.93,  326.27  L 4792.42,  326.08  L 4792.00,  325.73  L 4792.40,  325.02  L 4792.40,  324.44  L 4792.77,  323.99  L 4793.34,  323.90  L 4793.85,  324.18  L 4794.05,  324.73  L 4793.85,  325.28  L 4793.34,  325.57  L 4792.77,  325.47  L 4793.20,  324.73 " style="stroke-width: 0.85 ;&st7; " /><path d=" M 4792.00,  478.71  L 4791.73,  478.24  L 4791.64,  477.71  L 4791.73,  477.17  L 4792.00,  476.70  L 4792.42,  476.36  L 4792.93,  476.17  L 4793.47,  476.17  L 4793.98,  476.36  L 4794.39,  476.70  L 4794.66,  477.17  L 4794.76,  477.71  L 4794.66,  478.24  L 4794.39,  478.71  L 4793.98,  479.05  L 4793.47,  479.24  L 4792.93,  479.24  L 4792.42,  479.05  L 4792.00,  478.71  L 4792.40,  478.00  L 4792.40,  477.41  L 4792.77,  476.97  L 4793.34,  476.87  L 4793.85,  477.16  L 4794.05,  477.71  L 4793.85,  478.25  L 4793.34,  478.54  L 4792.77,  478.44  L 4793.20,  477.71 " style="stroke-width: 0.85 ;&st7; " /><path d=" M 4792.00,  512.70  L 4791.73,  512.23  L 4791.64,  511.70  L 4791.73,  511.17  L 4792.00,  510.70  L 4792.42,  510.35  L 4792.93,  510.16  L 4793.47,  510.16  L 4793.98,  510.35  L 4794.39,  510.70  L 4794.66,  511.17  L 4794.76,  511.70  L 4794.66,  512.23  L 4794.39,  512.70  L 4793.98,  513.05  L 4793.47,  513.24  L 4792.93,  513.24  L 4792.42,  513.05  L 4792.00,  512.70  L 4792.40,  511.99  L 4792.40,  511.41  L 4792.77,  510.96  L 4793.34,  510.86  L 4793.85,  511.15  L 4794.05,  511.70  L 4793.85,  512.25  L 4793.34,  512.54  L 4792.77,  512.44  L 4793.20,  511.70 " style="stroke-width: 0.85 ;&st7; " /><path d=" M 4793.20,  511.70  L 4912.18,  511.70  L 4912.18,  477.71  L 4793.20,  477.71 " style="stroke-width: 0.85 ;&st7;stroke-dasharray:3, 1.5;" /><path d=" M 4792.00,  385.22  L 4791.73,  384.75  L 4791.64,  384.22  L 4791.73,  383.69  L 4792.00,  383.22  L 4792.42,  382.87  L 4792.93,  382.69  L 4793.47,  382.69  L 4793.98,  382.87  L 4794.39,  383.22  L 4794.66,  383.69  L 4794.76,  384.22  L 4794.66,  384.75  L 4794.39,  385.22  L 4793.98,  385.57  L 4793.47,  385.76  L 4792.93,  385.76  L 4792.42,  385.57  L 4792.00,  385.22  L 4792.40,  384.51  L 4792.40,  383.93  L 4792.77,  383.48  L 4793.34,  383.39  L 4793.85,  383.67  L 4794.05,  384.22  L 4793.85,  384.77  L 4793.34,  385.06  L 4792.77,  384.96  L 4793.20,  384.22 " style="stroke-width: 0.85 ;&st7; " /><path d=" M 4792.00,  419.22  L 4791.73,  418.75  L 4791.64,  418.22  L 4791.73,  417.68  L 4792.00,  417.21  L 4792.42,  416.87  L 4792.93,  416.68  L 4793.47,  416.68  L 4793.98,  416.87  L 4794.39,  417.21  L 4794.66,  417.68  L 4794.76,  418.22  L 4794.66,  418.75  L 4794.39,  419.22  L 4793.98,  419.56  L 4793.47,  419.75  L 4792.93,  419.75  L 4792.42,  419.56  L 4792.00,  419.22  L 4792.40,  418.51  L 4792.40,  417.92  L 4792.77,  417.48  L 4793.34,  417.38  L 4793.85,  417.67  L 4794.05,  418.22  L 4793.85,  418.76  L 4793.34,  419.05  L 4792.77,  418.95  L 4793.20,  418.22 " style="stroke-width: 0.85 ;&st7; " /><path d=" M 4797.45,  364.39  L 4793.20,  360.14  L 4788.95,  364.39 " style="stroke-width: 1.42 ;&st7; " /><path d=" M 4788.95,  367.79  L 4793.20,  363.54  L 4797.45,  367.79 " style="stroke-width: 1.42 ;&st7; " /><path d=" M 4784.70,  358.73  L 4801.70,  358.73  L 4801.70,  350.23  L 4784.70,  350.23  L 4784.70,  358.73 " style="stroke-width: 1.42 ;&st7; " /><path d=" M 4784.70,  452.21  L 4801.70,  452.21  L 4801.70,  443.71  L 4784.70,  443.71  L 4784.70,  452.21 " style="stroke-width: 1.42 ;&st7; " /><path d=" M 4788.95,  461.27  L 4793.20,  457.03  L 4797.45,  461.27 " style="stroke-width: 1.42 ;&st7; " /><path d=" M 4797.45,  457.88  L 4793.20,  453.63  L 4788.95,  457.88 " style="stroke-width: 1.42 ;&st7; " /><path d=" M 4899.43,  364.39  L 4895.18,  360.14  L 4890.93,  364.39 " style="stroke-width: 1.42 ;&st7; " /><path d=" M 4890.93,  367.79  L 4895.18,  363.54  L 4899.43,  367.79 " style="stroke-width: 1.42 ;&st7; " /><path d=" M 4886.68,  358.73  L 4903.68,  358.73  L 4903.68,  350.23  L 4886.68,  350.23  L 4886.68,  358.73 " style="stroke-width: 1.42 ;&st7; " /><path d=" M 4886.68,  452.21  L 4903.68,  452.21  L 4903.68,  443.71  L 4886.68,  443.71  L 4886.68,  452.21 " style="stroke-width: 1.42 ;&st7; " /><path d=" M 4890.93,  461.27  L 4895.18,  457.03  L 4899.43,  461.27 " style="stroke-width: 1.42 ;&st7; " /><path d=" M 4899.43,  457.88  L 4895.18,  453.63  L 4890.93,  457.88 " style="stroke-width: 1.42 ;&st7; " /><path d=" M 4848.44,  364.39  L 4844.19,  360.14  L 4839.94,  364.39 " style="stroke-width: 1.42 ;&st7; " /><path d=" M 4839.94,  367.79  L 4844.19,  363.54  L 4848.44,  367.79 " style="stroke-width: 1.42 ;&st7; " /><path d=" M 4835.69,  358.73  L 4852.69,  358.73  L 4852.69,  350.23  L 4835.69,  350.23  L 4835.69,  358.73 " style="stroke-width: 1.42 ;&st7; " /><path d=" M 4848.44,  457.88  L 4844.19,  453.63  L 4839.94,  457.88 " style="stroke-width: 1.42 ;&st7; " /><path d=" M 4839.94,  461.27  L 4844.19,  457.03  L 4848.44,  461.27 " style="stroke-width: 1.42 ;&st7; " /><path d=" M 4835.69,  452.21  L 4852.69,  452.21  L 4852.69,  443.71  L 4835.69,  443.71  L 4835.69,  452.21 " style="stroke-width: 1.42 ;&st7; " /><path d=" M 4954.67,  324.73  L 5073.65,  324.73  L 5073.65,  290.74  L 4954.67,  290.74 " style="stroke-width: 0.85 ;&st7;stroke-dasharray:3, 1.5;" /><path d=" M 4954.67,  418.22  L 5073.65,  418.22  L 5073.65,  384.22  L 4954.67,  384.22 " style="stroke-width: 0.85 ;&st7;stroke-dasharray:3, 1.5;" /><path d=" M 4953.48,  291.74  L 4953.21,  291.27  L 4953.11,  290.74  L 4953.21,  290.20  L 4953.48,  289.73  L 4953.89,  289.39  L 4954.40,  289.20  L 4954.94,  289.20  L 4955.45,  289.39  L 4955.86,  289.73  L 4956.13,  290.20  L 4956.23,  290.74  L 4956.13,  291.27  L 4955.86,  291.74  L 4955.45,  292.09  L 4954.94,  292.27  L 4954.40,  292.27  L 4953.89,  292.09  L 4953.48,  291.74  L 4953.87,  291.03  L 4953.87,  290.45  L 4954.25,  290.00  L 4954.82,  289.90  L 4955.32,  290.19  L 4955.52,  290.74  L 4955.32,  291.28  L 4954.82,  291.57  L 4954.25,  291.47  L 4954.67,  290.74 " style="stroke-width: 0.85 ;&st7; " /><path d=" M 4953.48,  325.73  L 4953.21,  325.26  L 4953.11,  324.73  L 4953.21,  324.20  L 4953.48,  323.73  L 4953.89,  323.38  L 4954.40,  323.20  L 4954.94,  323.20  L 4955.45,  323.38  L 4955.86,  323.73  L 4956.13,  324.20  L 4956.23,  324.73  L 4956.13,  325.26  L 4955.86,  325.73  L 4955.45,  326.08  L 4954.94,  326.27  L 4954.40,  326.27  L 4953.89,  326.08  L 4953.48,  325.73  L 4953.87,  325.02  L 4953.87,  324.44  L 4954.25,  323.99  L 4954.82,  323.90  L 4955.32,  324.18  L 4955.52,  324.73  L 4955.32,  325.28  L 4954.82,  325.57  L 4954.25,  325.47  L 4954.67,  324.73 " style="stroke-width: 0.85 ;&st7; " /><path d=" M 4953.48,  478.71  L 4953.21,  478.24  L 4953.11,  477.71  L 4953.21,  477.17  L 4953.48,  476.70  L 4953.89,  476.36  L 4954.40,  476.17  L 4954.94,  476.17  L 4955.45,  476.36  L 4955.86,  476.70  L 4956.13,  477.17  L 4956.23,  477.71  L 4956.13,  478.24  L 4955.86,  478.71  L 4955.45,  479.05  L 4954.94,  479.24  L 4954.40,  479.24  L 4953.89,  479.05  L 4953.48,  478.71  L 4953.87,  478.00  L 4953.87,  477.41  L 4954.25,  476.97  L 4954.82,  476.87  L 4955.32,  477.16  L 4955.52,  477.71  L 4955.32,  478.25  L 4954.82,  478.54  L 4954.25,  478.44  L 4954.67,  477.71 " style="stroke-width: 0.85 ;&st7; " /><path d=" M 4953.48,  512.70  L 4953.21,  512.23  L 4953.11,  511.70  L 4953.21,  511.17  L 4953.48,  510.70  L 4953.89,  510.35  L 4954.40,  510.16  L 4954.94,  510.16  L 4955.45,  510.35  L 4955.86,  510.70  L 4956.13,  511.17  L 4956.23,  511.70  L 4956.13,  512.23  L 4955.86,  512.70  L 4955.45,  513.05  L 4954.94,  513.24  L 4954.40,  513.24  L 4953.89,  513.05  L 4953.48,  512.70  L 4953.87,  511.99  L 4953.87,  511.41  L 4954.25,  510.96  L 4954.82,  510.86  L 4955.32,  511.15  L 4955.52,  511.70  L 4955.32,  512.25  L 4954.82,  512.54  L 4954.25,  512.44  L 4954.67,  511.70 " style="stroke-width: 0.85 ;&st7; " /><path d=" M 4954.67,  511.70  L 5073.65,  511.70  L 5073.65,  477.71  L 4954.67,  477.71 " style="stroke-width: 0.85 ;&st7;stroke-dasharray:3, 1.5;" /><path d=" M 4953.48,  385.22  L 4953.21,  384.75  L 4953.11,  384.22  L 4953.21,  383.69  L 4953.48,  383.22  L 4953.89,  382.87  L 4954.40,  382.69  L 4954.94,  382.69  L 4955.45,  382.87  L 4955.86,  383.22  L 4956.13,  383.69  L 4956.23,  384.22  L 4956.13,  384.75  L 4955.86,  385.22  L 4955.45,  385.57  L 4954.94,  385.76  L 4954.40,  385.76  L 4953.89,  385.57  L 4953.48,  385.22  L 4953.87,  384.51  L 4953.87,  383.93  L 4954.25,  383.48  L 4954.82,  383.39  L 4955.32,  383.67  L 4955.52,  384.22  L 4955.32,  384.77  L 4954.82,  385.06  L 4954.25,  384.96  L 4954.67,  384.22 " style="stroke-width: 0.85 ;&st7; " /><path d=" M 4953.48,  419.22  L 4953.21,  418.75  L 4953.11,  418.22  L 4953.21,  417.68  L 4953.48,  417.21  L 4953.89,  416.87  L 4954.40,  416.68  L 4954.94,  416.68  L 4955.45,  416.87  L 4955.86,  417.21  L 4956.13,  417.68  L 4956.23,  418.22  L 4956.13,  418.75  L 4955.86,  419.22  L 4955.45,  419.56  L 4954.94,  419.75  L 4954.40,  419.75  L 4953.89,  419.56  L 4953.48,  419.22  L 4953.87,  418.51  L 4953.87,  417.92  L 4954.25,  417.48  L 4954.82,  417.38  L 4955.32,  417.67  L 4955.52,  418.22  L 4955.32,  418.76  L 4954.82,  419.05  L 4954.25,  418.95  L 4954.67,  418.22 " style="stroke-width: 0.85 ;&st7; " /><path d=" M 4958.92,  364.39  L 4954.67,  360.14  L 4950.42,  364.39 " style="stroke-width: 1.42 ;&st7; " /><path d=" M 4950.42,  367.79  L 4954.67,  363.54  L 4958.92,  367.79 " style="stroke-width: 1.42 ;&st7; " /><path d=" M 4946.17,  358.73  L 4963.17,  358.73  L 4963.17,  350.23  L 4946.17,  350.23  L 4946.17,  358.73 " style="stroke-width: 1.42 ;&st7; " /><path d=" M 4946.17,  452.21  L 4963.17,  452.21  L 4963.17,  443.71  L 4946.17,  443.71  L 4946.17,  452.21 " style="stroke-width: 1.42 ;&st7; " /><path d=" M 4950.42,  461.27  L 4954.67,  457.03  L 4958.92,  461.27 " style="stroke-width: 1.42 ;&st7; " /><path d=" M 4958.92,  457.88  L 4954.67,  453.63  L 4950.42,  457.88 " style="stroke-width: 1.42 ;&st7; " /><path d=" M 4997.16,  358.73  L 5014.16,  358.73  L 5014.16,  350.23  L 4997.16,  350.23  L 4997.16,  358.73 " style="stroke-width: 1.42 ;&st7; " /><path d=" M 4997.16,  452.21  L 5014.16,  452.21  L 5014.16,  443.71  L 4997.16,  443.71  L 4997.16,  452.21 " style="stroke-width: 1.42 ;&st7; " /><path d=" M 4742.21,  358.73  L 4759.20,  358.73  L 4759.20,  350.23  L 4742.21,  350.23  L 4742.21,  358.73 " style="stroke-width: 1.42 ;&st7; " /><path d=" M 4746.45,  367.79  L 4750.70,  363.54  L 4754.95,  367.79 " style="stroke-width: 1.42 ;&st7; " /><path d=" M 4754.95,  364.39  L 4750.70,  360.14  L 4746.45,  364.39 " style="stroke-width: 1.42 ;&st7; " /><path d=" M 4754.95,  457.88  L 4750.70,  453.63  L 4746.45,  457.88 " style="stroke-width: 1.42 ;&st7; " /><path d=" M 4746.45,  461.27  L 4750.70,  457.03  L 4754.95,  461.27 " style="stroke-width: 1.42 ;&st7; " /><path d=" M 4742.21,  452.21  L 4759.20,  452.21  L 4759.20,  443.71  L 4742.21,  443.71  L 4742.21,  452.21 " style="stroke-width: 1.42 ;&st7; " /><path d=" M 4733.71,  265.24  L 4733.71,  214.25  L 5073.65,  214.25  L 5073.65,  265.24  L 4733.71,  265.24 " style="stroke-width: 1.42 ;&st7; " /><text style="&st18;" transform="matrix(&st16;  4826.2  449.93 )">16</text><text style="&st18;" transform="matrix(&st16;  4829.38  356.45 )">5</text><text style="&st18;" transform="matrix(&st16;  4835.54  261.54 )">VAL+</text><text style="&st18;" transform="matrix(&st16;  4837.4  273.43 )">2</text><text style="&st18;" transform="matrix(&st16;  4833.45  533.51 )">20</text><text style="&st18;" transform="matrix(&st16;  4840.2  544.83 )">L+</text><text style="&st18;" transform="matrix(&st16;  4877.19  449.93 )">15</text><text style="&st18;" transform="matrix(&st16;  4880.37  356.45 )">4</text><text style="&st18;" transform="matrix(&st16;  4886.03  261.54 )">VAR+</text><text style="&st18;" transform="matrix(&st16;  4889.17  273.43 )">1</text><text style="&st18;" transform="matrix(&st16;  4884.44  533.51 )">22</text><text style="&st18;" transform="matrix(&st16;  4890.7  544.83 )">R+</text><text style="&st18;" transform="matrix(&st16;  4775.21  449.93 )">14</text><text style="&st18;" transform="matrix(&st16;  4778.38  356.45 )">3</text><text style="&st18;" transform="matrix(&st16;  4786.52  261.54 )">VA-</text><text style="&st18;" transform="matrix(&st16;  4786.41  273.43 )">3</text><text style="&st18;" transform="matrix(&st16;  4783.23  533.51 )">19</text><text style="&st18;" transform="matrix(&st16;  4783.66  544.83 )">SGN3</text><text style="&st18;" transform="matrix(&st17;  4840.49  403.97 )">G</text><text style="&st18;" transform="matrix(&st17;  4891.49  403.69 )">R</text><text ewd:textID="2" style="&st18;" transform="matrix(&st17;  4789.51  417.22 )">(Shielded)</text><text style="&st18;" transform="matrix(&st17;  4840.49  497.46 )">G</text><text style="&st18;" transform="matrix(&st17;  4891.49  497.17 )">R</text><text ewd:textID="2" style="&st18;" transform="matrix(&st17;  4789.51  510.7 )">(Shielded)</text><text style="&st18;" transform="matrix(&st17;  4840.49  310.49 )">G</text><text style="&st18;" transform="matrix(&st17;  4891.49  310.21 )">R</text><text ewd:textID="2" style="&st18;" transform="matrix(&st17;  4789.51  323.73 )">(Shielded)</text><text style="&st18;" transform="matrix(&st17;  4851.83  313.53 )">(*1)</text><text style="&st18;" transform="matrix(&st17;  4902.82  313.53 )">(*1)</text><text style="&st18;" transform="matrix(&st17;  4902.82  407.01 )">(*1)</text><text style="&st18;" transform="matrix(&st17;  4851.83  407.01 )">(*1)</text><text style="&st18;" transform="matrix(&st17;  4851.83  500.5 )">(*1)</text><text style="&st18;" transform="matrix(&st17;  4902.82  500.5 )">(*1)</text><text style="&st18;" transform="matrix(&st17;  4800.84  407.01 )">(*1)</text><text style="&st18;" transform="matrix(&st17;  4800.84  313.53 )">(*1)</text><text style="&st18;" transform="matrix(&st17;  4800.84  500.5 )">(*1)</text><text ewd:textID="52" style="&st18;" transform="matrix(&st16;  4807.67  210.55 )">Video Adapter Terminal</text><text style="&st18;" transform="matrix(&st16;  4807.67  203.45 )">S5</text><text style="&st18;" transform="matrix(&st16;  4591.72  533.51 )">1</text><text style="&st18;" transform="matrix(&st16;  4556.95  533.51 )">2</text><text style="&st18;" transform="matrix(&st16;  4593.39  544.83 )">+B</text><text style="&st18;" transform="matrix(&st17;  4594.04  496.68 )">L</text><text style="&st18;" transform="matrix(&st16;  4556.46  544.83 )">ACC</text><text style="&st18;" transform="matrix(&st17;  4560.04  499.93 )">GR</text><text style="&st18;" transform="matrix(&st16;  4732.71  449.93 )">13</text><text style="&st18;" transform="matrix(&st16;  4735.89  356.45 )">7</text><text style="&st18;" transform="matrix(&st16;  4742.58  544.83 )">ADPI</text><text style="&st18;" transform="matrix(&st16;  4740.74  533.51 )">18</text><text style="&st18;" transform="matrix(&st16;  4740.82  261.54 )">ADPG</text><text style="&st18;" transform="matrix(&st17;  4747.01  499.36 )">SB</text><text style="&st18;" transform="matrix(&st17;  4747.01  312.4 )">SB</text><text style="&st18;" transform="matrix(&st17;  4747.01  405.88 )">SB</text><text style="&st18;" transform="matrix(&st16;  4987.67  449.93 )">18</text><text style="&st18;" transform="matrix(&st16;  4987.67  356.45 )">14</text><text style="&st18;" transform="matrix(&st16;  4998.99  261.54 )">VV-</text><text style="&st18;" transform="matrix(&st16;  4998.87  273.43 )">6</text><text style="&st18;" transform="matrix(&st16;  4994.92  533.51 )">25</text><text style="&st18;" transform="matrix(&st16;  4936.68  449.93 )">17</text><text style="&st18;" transform="matrix(&st16;  4936.68  356.45 )">16</text><text style="&st18;" transform="matrix(&st16;  4949.59  261.54 )">SG</text><text style="&st18;" transform="matrix(&st16;  4947.88  273.43 )">7</text><text style="&st18;" transform="matrix(&st16;  4943.93  533.51 )">23</text><text style="&st18;" transform="matrix(&st16;  4945.14  544.83 )">SGN5</text><text ewd:textID="2" style="&st18;" transform="matrix(&st17;  4950.98  417.22 )">(Shielded)</text><text ewd:textID="2" style="&st18;" transform="matrix(&st17;  4950.98  510.7 )">(Shielded)</text><text ewd:textID="2" style="&st18;" transform="matrix(&st17;  4950.98  323.73 )">(Shielded)</text><text style="&st18;" transform="matrix(&st17;  4758.34  500.5 )">(*1)</text><text style="&st18;" transform="matrix(&st17;  4758.34  407.01 )">(*1)</text><text style="&st18;" transform="matrix(&st17;  4758.34  313.53 )">(*1)</text><text style="&st18;" transform="matrix(&st17;  4962.31  407.01 )">(*1)</text><text style="&st18;" transform="matrix(&st17;  4962.31  313.53 )">(*1)</text><text style="&st18;" transform="matrix(&st17;  4962.31  500.5 )">(*1)</text><text style="&st18;" transform="matrix(&st17;  4571.37  500.5 )">(*1)</text><text style="&st18;" transform="matrix(&st17;  4605.37  500.5 )">(*1)</text><text style="&st18;" transform="matrix(&st16;  4743.92  273.43 )">8</text><text style="&st18;" transform="matrix(&st16;  4824.67  595.8 )">U13</text><text ewd:textID="50" style="&st18;" transform="matrix(&st16;  4824.67  602.9 )">Television Display Assembly</text></svg>