﻿<?xml version="1.0" encoding="utf-8"?>
<!DOCTYPE svg PUBLIC "-//W3C//DTD SVG 1.0//EN" "http://www.w3.org/TR/2001/REC-SVG-20010904/DTD/svg10.dtd"[
	<!ENTITY ns_flows "http://ns.adobe.com/Flows/1.0/">
	<!ENTITY ns_svg "http://www.w3.org/2000/svg">
	<!ENTITY ns_xlink "http://www.w3.org/1999/xlink">
	<!ENTITY st0 "font-size:7px;font-family:'MS-PGothic';adobe-font-script:japanese;">
	<!ENTITY st1 "font-size:6px;font-family:'ArialMT';">
	<!-- White fill  -->
	<!ENTITY st2 "fill:#FFFFFF;stroke:#000000; stroke-width:1.41;stroke-linecap:round;stroke-linejoin:round;">
	<!-- Yellow fill  -->
	<!ENTITY st3 "fill:#FFFFCC;stroke:#FFFFCC; stroke-width:0.1;stroke-linecap:round;stroke-linejoin:round;">
	<!-- Gray fill  -->
	<!ENTITY st4 "fill:#CCCCCC;stroke:#CCCCCC; stroke-width:0.1;stroke-linecap:round;stroke-linejoin:round;">
	<!-- Light-blue fill -->
	<!ENTITY st5 "fill:#CCECF4;stroke:#000000; stroke-width:1.133;stroke-linecap:round;stroke-linejoin:round;">
	<!ENTITY st6 "fill:none;stroke-linecap:butt; stroke-linejoin:round;">
	<!ENTITY st7 "fill:none;stroke:#000000;stroke-linecap:round;stroke-linejoin:round;">
	<!ENTITY st8 "enable-background:new    ;">
	<!-- Black fill -->
	<!ENTITY st9 "fill:#000000;stroke:#000000; stroke-linecap:round;stroke-linejoin:round;">
	<!-- SRS note   -->
	<!ENTITY st10 "font-size:9px;font-family:'ArialMT';">
	<!ENTITY st11 "font-size:9px;font-family:'Svg Symbol';">
	<!ENTITY st12 "font-size:6px;font-family:'Svg Symbol';">
	<!ENTITY st13 "fill:none;stroke:#ff0000;stroke-linecap:round;stroke-linejoin:round;">
	<!-- Yellow fill  -->
	<!ENTITY st14 "fill:#FFFF00;stroke:#FFFF00; stroke-width:0.1;stroke-linecap:round;stroke-linejoin:round;">
	<!ENTITY st15 "font-size:6px;font-family:'MS-PGothic';adobe-font-script:japanese;">
	<!ENTITY st16 "1.00 0.00 0.00 1.00">
	<!ENTITY st17 "0.00 -1.00 1.00 0.00">
	<!ENTITY st18 "font-size:6px;font-family:'Arial';">
	<!ENTITY st19 "font-size:9px;font-family:'Arial';">
	<!ENTITY st20 "font-size:6px;font-family:'MS-PGothic','MS PGothic';adobe-font-script:japanese;">
	<!ENTITY st21 "font-size:7px;font-family:'MS-PGothic','MS PGothic';adobe-font-script:japanese;">
	<!ATTLIST svg
		xmlns:ewd CDATA #FIXED "http://shcl.co.jp/ewd"
		xmlns:a CDATA #FIXED "http://ns.adobe.com/AdobeSVGViewerExtensions/3.0/"
		ewd:ver CDATA #IMPLIED
	>
	<!ATTLIST a
		ewd:lineID CDATA #IMPLIED
		ewd:groupID CDATA #IMPLIED
		ewd:figtype CDATA #IMPLIED
		ewd:code CDATA #IMPLIED
		ewd:figID CDATA #IMPLIED
		ewd:pinNo CDATA #IMPLIED
		ewd:comment CDATA #IMPLIED >
	<!ATTLIST g
		ewd:lineID CDATA #IMPLIED
		ewd:groupID CDATA #IMPLIED
		ewd:figtype CDATA #IMPLIED
		ewd:code CDATA #IMPLIED
		ewd:figID CDATA #IMPLIED
		ewd:pinNo CDATA #IMPLIED
		ewd:comment CDATA #IMPLIED >
	<!ATTLIST text
		ewd:textID CDATA #IMPLIED >
	<!ATTLIST title
		ewd:textID CDATA #IMPLIED >
]>
<!-- Generator: Shintec Hozumi YS   -->
<svg onload="call_execInitLoadProc_svg('system')" style="overflow:visible;  enable-background:new 0 0 2026.990 710.000" viewBox="0 0 2026.990 710.000" height="710.000" width="2026.990" xml:space="preserve" ewd:ver="L2.1.2.9" xmlns="&ns_svg;" xmlns:a="http://ns.adobe.com/AdobeSVGViewerExtensions/3.0/" xmlns:ewd="http://shcl.co.jp/ewd" xmlns:xlink="&ns_xlink;">
<path d=" M  654.39,   69.77  L  654.39,   78.27 " style="stroke-width: 0.85 ;&st7; " /><path d=" M  705.38,   69.77  L  705.38,   78.27 " style="stroke-width: 0.85 ;&st7; " /><path d=" M  611.90,   69.77  L  611.90,   78.27 " style="stroke-width: 0.85 ;&st7; " /><path d=" M  953.97,  103.77  L  949.72,  103.77 " style="stroke-width: 1.42 ;&st7; " /><path d=" M  953.97,  112.27  L  949.72,  112.27 " style="stroke-width: 1.42 ;&st7; " /><path d=" M  560.91,   69.77  L  560.91,   78.27 " style="stroke-width: 0.85 ;&st7; " /><path d=" M  563.03,  103.77  L  558.78,  103.77 " style="stroke-width: 1.42 ;&st7; " /><path d=" M  563.03,  112.27  L  558.78,  112.27 " style="stroke-width: 1.42 ;&st7; " /><path d=" M  885.98,  112.27  L  881.73,  112.27 " style="stroke-width: 1.42 ;&st7; " /><path d=" M  885.98,  103.77  L  881.73,  103.77 " style="stroke-width: 1.42 ;&st7; " /><path d=" M 1308.78,   35.78  L  739.38,   35.78  L  739.38,   69.77  L 1308.78,   69.77  L 1308.78,   35.78 " style="stroke-width: 1.42 ;&st7; " /><path d=" M  641.64,   35.78  L  641.64,   78.27  L  667.14,   78.27  L  667.14,   35.78  L  641.64,   35.78 " style="stroke-width: 1.42 ;&st7; " /><path d=" M  798.87,   69.77  L  798.87,  120.77  L  654.39,  120.77  L  654.39,   78.27 " style="stroke-width: 0.85 ;&st7; " /><path d=" M  756.37,   69.77  L  756.37,  103.77  L  705.38,  103.77  L  705.38,   78.27 " style="stroke-width: 0.85 ;&st7; " /><path d=" M  692.63,   35.78  L  692.63,   78.27  L  718.13,   78.27  L  718.13,   35.78  L  692.63,   35.78 " style="stroke-width: 1.42 ;&st7; " /><path d=" M  599.15,   35.78  L  599.15,   78.27  L  624.65,   78.27  L  624.65,   35.78  L  599.15,   35.78 " style="stroke-width: 1.42 ;&st7; " /><path d=" M  841.36,   69.77  L  841.36,  137.76  L  611.90,  137.76  L  611.90,   78.27 " style="stroke-width: 0.85 ;&st7; " /><path d=" M  943.34,  701.50  L  960.34,  701.50 " style="stroke-width: 0.85 ;&st7; " /><path d=" M  951.84,  697.25  L  951.84,  701.50 " style="stroke-width: 0.85 ;&st7; " /><path d=" M  951.84,   98.87  L  949.01,   96.04  L  949.01,  100.29  L  951.84,  103.12  L  954.67,  100.29  L  954.67,   96.04  L  951.84,   98.87 " style="stroke-width: 0.28 ;&st9;" /><path d=" M  951.84,   69.77  L  951.84,  103.77 " style="stroke-width: 0.85 ;&st7; " /><path d=" M  909.35,   86.77  L  951.84,   86.77 " style="stroke-width: 0.85 ;&st7; " /><path d=" M  950.65,   85.77  L  950.38,   86.24  L  950.28,   86.77  L  950.38,   87.30  L  950.65,   87.77  L  951.06,   88.12  L  951.57,   88.31  L  952.11,   88.31  L  952.62,   88.12  L  953.03,   87.77  L  953.31,   87.30  L  953.40,   86.77  L  953.31,   86.24  L  953.03,   85.77  L  952.62,   85.42  L  952.11,   85.24  L  951.57,   85.24  L  951.06,   85.42  L  950.65,   85.77  L  951.04,   86.48  L  951.04,   87.06  L  951.42,   87.51  L  951.99,   87.61  L  952.49,   87.32  L  952.69,   86.77  L  952.49,   86.22  L  951.99,   85.94  L  951.42,   86.03  L  951.84,   86.77 " style="stroke-width: 0.85 ;&st7; " /><path d=" M  947.59,  704.33  L  956.09,  704.33 " style="stroke-width: 0.85 ;&st7; " /><path d=" M  949.01,  707.17  L  954.67,  707.17 " style="stroke-width: 0.85 ;&st7; " /><path d=" M  950.42,  710.00  L  953.26,  710.00 " style="stroke-width: 0.85 ;&st7; " /><path d=" M  943.34,  392.72  L 1002.83,  392.72  L 1002.83,  409.72  L  943.34,  409.72  L  943.34,  392.72 " style="stroke-width: 1.42 ;&st7; " /><path d=" M  951.84,  392.72  L  951.84,  409.72 " style="stroke-width: 0.85 ;&st7; " /><path d=" M  909.35,   69.77  L  909.35,   86.77 " style="stroke-width: 0.85 ;&st7; " /><path d=" M  548.16,   35.78  L  548.16,   78.27  L  573.65,   78.27  L  573.65,   35.78  L  548.16,   35.78 " style="stroke-width: 1.42 ;&st7; " /><path d=" M  560.91,   98.87  L  558.07,   96.04  L  558.07,  100.29  L  560.91,  103.12  L  563.74,  100.29  L  563.74,   96.04  L  560.91,   98.87 " style="stroke-width: 0.28 ;&st9;" /><path d=" M  560.91,   78.27  L  560.91,  103.77 " style="stroke-width: 0.85 ;&st7; " /><path d=" M  883.85,   69.77  L  883.85,  103.77 " style="stroke-width: 0.85 ;&st7; " /><path d=" M  883.85,   98.87  L  881.02,   96.04  L  881.02,  100.29  L  883.85,  103.12  L  886.68,  100.29  L  886.68,   96.04  L  883.85,   98.87 " style="stroke-width: 0.28 ;&st9;" /><path d=" M  951.84,  401.22  L  994.33,  401.22 " style="stroke-width: 0.85 ;&st7; " /><path d=" M  950.65,  400.22  L  950.38,  400.69  L  950.28,  401.22  L  950.38,  401.75  L  950.65,  402.22  L  951.06,  402.57  L  951.57,  402.75  L  952.11,  402.75  L  952.62,  402.57  L  953.03,  402.22  L  953.31,  401.75  L  953.40,  401.22  L  953.31,  400.69  L  953.03,  400.22  L  952.62,  399.87  L  952.11,  399.68  L  951.57,  399.68  L  951.06,  399.87  L  950.65,  400.22  L  951.04,  400.93  L  951.04,  401.51  L  951.42,  401.95  L  951.99,  402.05  L  952.49,  401.77  L  952.69,  401.22  L  952.49,  400.67  L  951.99,  400.38  L  951.42,  400.48  L  951.84,  401.22 " style="stroke-width: 0.85 ;&st7; " /><path d=" M  994.33,  401.22  L  994.33,  409.72 " style="stroke-width: 0.85 ;&st7; " /><path d=" M  985.83,  701.50  L 1002.83,  701.50 " style="stroke-width: 0.85 ;&st7; " /><path d=" M  994.33,  697.25  L  994.33,  701.50 " style="stroke-width: 0.85 ;&st7; " /><path d=" M  990.08,  704.33  L  998.58,  704.33 " style="stroke-width: 0.85 ;&st7; " /><path d=" M  991.50,  707.17  L  997.17,  707.17 " style="stroke-width: 0.85 ;&st7; " /><path d=" M  992.92,  710.00  L  995.75,  710.00 " style="stroke-width: 0.85 ;&st7; " /><path d=" M  654.39,   47.11  C  651.65    48.72   650.74    52.25   652.35    54.99 " style="stroke-width: 1.42 ;&st7; " /><path d=" M  652.35,   54.99  C  652.87    55.87   653.51    56.51   654.39    57.03 " style="stroke-width: 1.42 ;&st7; " /><path d=" M  654.39,   66.94  C  657.13    65.33   658.04    61.80   656.43    59.06 " style="stroke-width: 1.42 ;&st7; " /><path d=" M  656.43,   59.06  C  655.91    58.18   655.27    57.55   654.39    57.03 " style="stroke-width: 1.42 ;&st7; " /><path d=" M  655.81,   45.69  C  655.81    44.91   655.17    44.28   654.39    44.28 " style="stroke-width: 0.85 ;&st7; " /><path d=" M  654.39,   44.28  C  653.61    44.28   652.97    44.91   652.97    45.69 " style="stroke-width: 0.85 ;&st7; " /><path d=" M  652.97,   45.69  C  652.97    46.48   653.61    47.11   654.39    47.11 " style="stroke-width: 0.85 ;&st7; " /><path d=" M  654.39,   47.11  C  655.17    47.11   655.81    46.48   655.81    45.69 " style="stroke-width: 0.85 ;&st7; " /><path d=" M  655.81,   68.36  C  655.81    67.57   655.17    66.94   654.39    66.94 " style="stroke-width: 0.85 ;&st7; " /><path d=" M  654.39,   66.94  C  653.61    66.94   652.97    67.57   652.97    68.36 " style="stroke-width: 0.85 ;&st7; " /><path d=" M  652.97,   68.36  C  652.97    69.14   653.61    69.77   654.39    69.77 " style="stroke-width: 0.85 ;&st7; " /><path d=" M  654.39,   69.77  C  655.17    69.77   655.81    69.14   655.81    68.36 " style="stroke-width: 0.85 ;&st7; " /><path d=" M  706.80,   68.36  C  706.80    67.57   706.16    66.94   705.38    66.94 " style="stroke-width: 0.85 ;&st7; " /><path d=" M  705.38,   66.94  C  704.60    66.94   703.97    67.57   703.97    68.36 " style="stroke-width: 0.85 ;&st7; " /><path d=" M  703.97,   68.36  C  703.97    69.14   704.60    69.77   705.38    69.77 " style="stroke-width: 0.85 ;&st7; " /><path d=" M  705.38,   69.77  C  706.16    69.77   706.80    69.14   706.80    68.36 " style="stroke-width: 0.85 ;&st7; " /><path d=" M  706.80,   45.69  C  706.80    44.91   706.16    44.28   705.38    44.28 " style="stroke-width: 0.85 ;&st7; " /><path d=" M  705.38,   44.28  C  704.60    44.28   703.97    44.91   703.97    45.69 " style="stroke-width: 0.85 ;&st7; " /><path d=" M  703.97,   45.69  C  703.97    46.48   704.60    47.11   705.38    47.11 " style="stroke-width: 0.85 ;&st7; " /><path d=" M  705.38,   47.11  C  706.16    47.11   706.80    46.48   706.80    45.69 " style="stroke-width: 0.85 ;&st7; " /><path d=" M  705.38,   66.94  C  708.12    65.33   709.03    61.80   707.42    59.06 " style="stroke-width: 1.42 ;&st7; " /><path d=" M  707.42,   59.06  C  706.90    58.18   706.26    57.55   705.38    57.03 " style="stroke-width: 1.42 ;&st7; " /><path d=" M  705.38,   47.11  C  702.64    48.72   701.73    52.25   703.35    54.99 " style="stroke-width: 1.42 ;&st7; " /><path d=" M  703.35,   54.99  C  703.86    55.87   704.50    56.51   705.38    57.03 " style="stroke-width: 1.42 ;&st7; " /><path d=" M  611.90,   47.11  C  609.16    48.72   608.25    52.25   609.86    54.99 " style="stroke-width: 1.42 ;&st7; " /><path d=" M  609.86,   54.99  C  610.38    55.87   611.02    56.51   611.90    57.03 " style="stroke-width: 1.42 ;&st7; " /><path d=" M  611.90,   66.94  C  614.64    65.33   615.55    61.80   613.93    59.06 " style="stroke-width: 1.42 ;&st7; " /><path d=" M  613.93,   59.06  C  613.41    58.18   612.78    57.55   611.90    57.03 " style="stroke-width: 1.42 ;&st7; " /><path d=" M  613.31,   45.69  C  613.31    44.91   612.68    44.28   611.90    44.28 " style="stroke-width: 0.85 ;&st7; " /><path d=" M  611.90,   44.28  C  611.12    44.28   610.48    44.91   610.48    45.69 " style="stroke-width: 0.85 ;&st7; " /><path d=" M  610.48,   45.69  C  610.48    46.48   611.12    47.11   611.90    47.11 " style="stroke-width: 0.85 ;&st7; " /><path d=" M  611.90,   47.11  C  612.68    47.11   613.31    46.48   613.31    45.69 " style="stroke-width: 0.85 ;&st7; " /><path d=" M  613.31,   68.36  C  613.31    67.57   612.68    66.94   611.90    66.94 " style="stroke-width: 0.85 ;&st7; " /><path d=" M  611.90,   66.94  C  611.12    66.94   610.48    67.57   610.48    68.36 " style="stroke-width: 0.85 ;&st7; " /><path d=" M  610.48,   68.36  C  610.48    69.14   611.12    69.77   611.90    69.77 " style="stroke-width: 0.85 ;&st7; " /><path d=" M  611.90,   69.77  C  612.68    69.77   613.31    69.14   613.31    68.36 " style="stroke-width: 0.85 ;&st7; " /><path d=" M  949.72,  103.77  C  947.37   103.77   945.47   105.67   945.47   108.02 " style="stroke-width: 1.42 ;&st7; " /><path d=" M  945.47,  108.02  C  945.47   110.36   947.37   112.27   949.72   112.27 " style="stroke-width: 1.42 ;&st7; " /><path d=" M  953.97,  112.27  C  956.31   112.27   958.21   110.36   958.21   108.02 " style="stroke-width: 1.42 ;&st7; " /><path d=" M  958.21,  108.02  C  958.21   105.67   956.31   103.77   953.97   103.77 " style="stroke-width: 1.42 ;&st7; " /><path d=" M  560.91,   47.11  C  558.17    48.72   557.26    52.25   558.87    54.99 " style="stroke-width: 1.42 ;&st7; " /><path d=" M  558.87,   54.99  C  559.39    55.87   560.02    56.51   560.91    57.03 " style="stroke-width: 1.42 ;&st7; " /><path d=" M  560.91,   66.94  C  563.64    65.33   564.56    61.80   562.94    59.06 " style="stroke-width: 1.42 ;&st7; " /><path d=" M  562.94,   59.06  C  562.42    58.18   561.79    57.55   560.91    57.03 " style="stroke-width: 1.42 ;&st7; " /><path d=" M  562.32,   45.69  C  562.32    44.91   561.69    44.28   560.91    44.28 " style="stroke-width: 0.85 ;&st7; " /><path d=" M  560.91,   44.28  C  560.12    44.28   559.49    44.91   559.49    45.69 " style="stroke-width: 0.85 ;&st7; " /><path d=" M  559.49,   45.69  C  559.49    46.48   560.12    47.11   560.91    47.11 " style="stroke-width: 0.85 ;&st7; " /><path d=" M  560.91,   47.11  C  561.69    47.11   562.32    46.48   562.32    45.69 " style="stroke-width: 0.85 ;&st7; " /><path d=" M  562.32,   68.36  C  562.32    67.57   561.69    66.94   560.91    66.94 " style="stroke-width: 0.85 ;&st7; " /><path d=" M  560.91,   66.94  C  560.12    66.94   559.49    67.57   559.49    68.36 " style="stroke-width: 0.85 ;&st7; " /><path d=" M  559.49,   68.36  C  559.49    69.14   560.12    69.77   560.91    69.77 " style="stroke-width: 0.85 ;&st7; " /><path d=" M  560.91,   69.77  C  561.69    69.77   562.32    69.14   562.32    68.36 " style="stroke-width: 0.85 ;&st7; " /><path d=" M  558.78,  103.77  C  556.43   103.77   554.53   105.67   554.53   108.02 " style="stroke-width: 1.42 ;&st7; " /><path d=" M  554.53,  108.02  C  554.53   110.36   556.43   112.27   558.78   112.27 " style="stroke-width: 1.42 ;&st7; " /><path d=" M  563.03,  112.27  C  565.38   112.27   567.28   110.36   567.28   108.02 " style="stroke-width: 1.42 ;&st7; " /><path d=" M  567.28,  108.02  C  567.28   105.67   565.38   103.77   563.03   103.77 " style="stroke-width: 1.42 ;&st7; " /><path d=" M  890.23,  108.02  C  890.23   105.67   888.32   103.77   885.98   103.77 " style="stroke-width: 1.42 ;&st7; " /><path d=" M  885.98,  112.27  C  888.32   112.27   890.23   110.36   890.23   108.02 " style="stroke-width: 1.42 ;&st7; " /><path d=" M  877.48,  108.02  C  877.48   110.36   879.38   112.27   881.73   112.27 " style="stroke-width: 1.42 ;&st7; " /><path d=" M  881.73,  103.77  C  879.38   103.77   877.48   105.67   877.48   108.02 " style="stroke-width: 1.42 ;&st7; " /><text ewd:textID="12" style="&st18;" transform="matrix(&st16;  855.83  32.08 )">Main Body ECU</text><text style="&st18;" transform="matrix(&st16;  855.83  24.98 )">H2(B),H4(D)</text><text ewd:textID="4" style="&st18;" transform="matrix(&st17;  676.19  78.68 )">7.5A <tspan dy="6" x="0">ECU-IG No.2</tspan></text><text style="&st18;" transform="matrix(&st16;  648.32  32.08 )">(IG)</text><text style="&st18;" transform="matrix(&st16;  747.61  66.08 )">ALTB</text><text style="&st18;" transform="matrix(&st16;  749.58  77.97 )">6</text><text style="&st18;" transform="matrix(&st16;  788.9  77.97 )">15</text><text style="&st18;" transform="matrix(&st16;  696.27  32.08 )">(BAT)</text><text style="&st18;" transform="matrix(&st17;  727.19  77.23 )">25A DR/LCK</text><text style="&st18;" transform="matrix(&st16;  795.12  66.08 )">IG</text><text style="&st18;" transform="matrix(&st17;  633.7  72.78 )">7.5A ACC</text><text style="&st18;" transform="matrix(&st16;  602.29  32.08 )">(ACC)</text><text style="&st18;" transform="matrix(&st16;  830.61  77.97 )">22</text><text style="&st18;" transform="matrix(&st16;  834.08  66.08 )">ACC</text><text style="&st18;" transform="matrix(&st16;  946.9  109.99 )">DD</text><text style="&st18;" transform="matrix(&st16;  935.2  109.99 )">62</text><text style="&st18;" transform="matrix(&st16;  942.55  66.08 )">GND1</text><text style="&st18;" transform="matrix(&st16;  899.67  66.08 )">GND2</text><text style="&st18;" transform="matrix(&st16;  945.05  77.97 )">5</text><text style="&st18;" transform="matrix(&st16;  902.56  77.97 )">4</text><text style="&st18;" transform="matrix(&st16;  945.05  417.91 )">5</text><text style="&st18;" transform="matrix(&st16;  945.05  389.03 )">4</text><text style="&st18;" transform="matrix(&st17;  948.15  527.9 )">W-B</text><text style="&st18;" transform="matrix(&st17;  948.15  374.92 )">W-B</text><text style="&st18;" transform="matrix(&st17;  948.15  145.46 )">W-B</text><text style="&st18;" transform="matrix(&st17;  582.71  78.71 )">7.5A ECU-B1</text><text style="&st18;" transform="matrix(&st16;  554.12  86.47 )">2</text><text style="&st18;" transform="matrix(&st16;  559.32  109.99 )">1</text><text style="&st18;" transform="matrix(&st17;  880.16  142.99 )">GR</text><text style="&st18;" transform="matrix(&st16;  873.11  77.97 )">26</text><text style="&st18;" transform="matrix(&st16;  551.79  32.08 )">(BAT)</text><text style="&st18;" transform="matrix(&st16;  874.24  66.08 )">BECU</text><text style="&st18;" transform="matrix(&st17;  557.21  134.49 )">GR</text><text style="&st18;" transform="matrix(&st16;  867.98  109.99 )">13</text><text style="&st18;" transform="matrix(&st16;  879.05  109.99 )">DB</text><text style="&st18;" transform="matrix(&st16;  984.37  417.91 )">10</text><text style="&st18;" transform="matrix(&st17;  990.64  527.9 )">W-B</text><text style="&st18;" transform="matrix(&st16;  541.58  660.98 )">B</text></svg>