﻿<?xml version="1.0" encoding="utf-8"?>
<!DOCTYPE svg PUBLIC "-//W3C//DTD SVG 1.0//EN" "http://www.w3.org/TR/2001/REC-SVG-20010904/DTD/svg10.dtd"[
	<!ENTITY ns_flows "http://ns.adobe.com/Flows/1.0/">
	<!ENTITY ns_svg "http://www.w3.org/2000/svg">
	<!ENTITY ns_xlink "http://www.w3.org/1999/xlink">
	<!ENTITY st0 "font-size:7px;font-family:'MS-PGothic';adobe-font-script:japanese;">
	<!ENTITY st1 "font-size:6px;font-family:'ArialMT';">
	<!-- White fill  -->
	<!ENTITY st2 "fill:#FFFFFF;stroke:#000000; stroke-width:1.41;stroke-linecap:round;stroke-linejoin:round;">
	<!-- Yellow fill  -->
	<!ENTITY st3 "fill:#FFFFCC;stroke:#FFFFCC; stroke-width:0.1;stroke-linecap:round;stroke-linejoin:round;">
	<!-- Gray fill  -->
	<!ENTITY st4 "fill:#CCCCCC;stroke:#CCCCCC; stroke-width:0.1;stroke-linecap:round;stroke-linejoin:round;">
	<!-- Light-blue fill -->
	<!ENTITY st5 "fill:#CCECF4;stroke:#000000; stroke-width:1.133;stroke-linecap:round;stroke-linejoin:round;">
	<!ENTITY st6 "fill:none;stroke-linecap:butt; stroke-linejoin:round;">
	<!ENTITY st7 "fill:none;stroke:#000000;stroke-linecap:round;stroke-linejoin:round;">
	<!ENTITY st8 "enable-background:new    ;">
	<!-- Black fill -->
	<!ENTITY st9 "fill:#000000;stroke:#000000; stroke-linecap:round;stroke-linejoin:round;">
	<!-- SRS note   -->
	<!ENTITY st10 "font-size:9px;font-family:'ArialMT';">
	<!ENTITY st11 "font-size:9px;font-family:'Svg Symbol';">
	<!ENTITY st12 "font-size:6px;font-family:'Svg Symbol';">
	<!ENTITY st13 "fill:none;stroke:#ff0000;stroke-linecap:round;stroke-linejoin:round;">
	<!-- Yellow fill  -->
	<!ENTITY st14 "fill:#FFFF00;stroke:#FFFF00; stroke-width:0.1;stroke-linecap:round;stroke-linejoin:round;">
	<!ENTITY st15 "font-size:6px;font-family:'MS-PGothic';adobe-font-script:japanese;">
	<!ENTITY st16 "1.00 0.00 0.00 1.00">
	<!ENTITY st17 "0.00 -1.00 1.00 0.00">
	<!ENTITY st18 "font-size:6px;font-family:'Arial';">
	<!ENTITY st19 "font-size:9px;font-family:'Arial';">
	<!ENTITY st20 "font-size:6px;font-family:'MS-PGothic','MS PGothic';adobe-font-script:japanese;">
	<!ENTITY st21 "font-size:7px;font-family:'MS-PGothic','MS PGothic';adobe-font-script:japanese;">
	<!ATTLIST svg
		xmlns:ewd CDATA #FIXED "http://shcl.co.jp/ewd"
		xmlns:a CDATA #FIXED "http://ns.adobe.com/AdobeSVGViewerExtensions/3.0/"
		ewd:ver CDATA #IMPLIED
	>
	<!ATTLIST a
		ewd:lineID CDATA #IMPLIED
		ewd:groupID CDATA #IMPLIED
		ewd:figtype CDATA #IMPLIED
		ewd:code CDATA #IMPLIED
		ewd:figID CDATA #IMPLIED
		ewd:pinNo CDATA #IMPLIED
		ewd:comment CDATA #IMPLIED >
	<!ATTLIST g
		ewd:lineID CDATA #IMPLIED
		ewd:groupID CDATA #IMPLIED
		ewd:figtype CDATA #IMPLIED
		ewd:code CDATA #IMPLIED
		ewd:figID CDATA #IMPLIED
		ewd:pinNo CDATA #IMPLIED
		ewd:comment CDATA #IMPLIED >
	<!ATTLIST text
		ewd:textID CDATA #IMPLIED >
	<!ATTLIST title
		ewd:textID CDATA #IMPLIED >
]>
<!-- Generator: Shintec Hozumi YS   -->
<svg onload="call_execInitLoadProc_svg('system')" style="overflow:visible;  enable-background:new 0 0 3085.693 710.000" viewBox="0 0 3085.693 710.000" height="710.000" width="3085.693" xml:space="preserve" ewd:ver="L2.1.2.9" xmlns="&ns_svg;" xmlns:a="http://ns.adobe.com/AdobeSVGViewerExtensions/3.0/" xmlns:ewd="http://shcl.co.jp/ewd" xmlns:xlink="&ns_xlink;">
<path d=" M 1062.32,  486.20  L 1062.32,  469.77 " style="stroke:#FF0000;stroke-width: 5.10 ;&st6;" /><path d=" M 1104.82,  469.77  L 1104.82,  486.20 " style="stroke:#000000;stroke-width: 5.10 ;&st6;" /><path d=" M 1436.26,  384.22  L 1444.76,  384.22 " style="stroke-width: 1.42 ;&st7; " /><path d=" M 1293.91,  103.77  L 1289.66,  103.77 " style="stroke-width: 1.42 ;&st7; " /><path d=" M 1293.91,   95.27  L 1289.66,   95.27 " style="stroke-width: 1.42 ;&st7; " /><path d=" M 1291.78,   69.77  L 1291.78,   95.27 " style="stroke-width: 0.85 ;&st7; " /><path d=" M 1181.30,  181.67  L 1186.97,  159.01 " style="stroke-width: 1.42 ;&st7; " /><path d=" M 1181.30,  188.75  L 1181.30,  184.50 " style="stroke-width: 0.85 ;&st7; " /><path d=" M 1181.30,  159.01  L 1181.30,  154.76 " style="stroke-width: 0.85 ;&st7; " /><path d=" M 1206.80,  159.01  L 1206.80,  154.76 " style="stroke-width: 0.85 ;&st7; " /><path d=" M 1206.80,  188.75  L 1206.80,  184.50 " style="stroke-width: 0.85 ;&st7; " /><path d=" M 1206.80,  181.67  L 1205.10,  157.56 " style="stroke-width: 1.42 ;&st7; " /><path d=" M 1155.81,  443.71  L 1164.31,  443.71 " style="stroke-width: 1.42 ;&st7; " /><path d=" M 1181.30,   69.77  L 1181.30,   78.27 " style="stroke-width: 0.85 ;&st7; " /><path d=" M 1183.43,  103.77  L 1179.18,  103.77 " style="stroke-width: 1.42 ;&st7; " /><path d=" M 1183.43,  112.27  L 1179.18,  112.27 " style="stroke-width: 1.42 ;&st7; " /><path d=" M 1495.75,  384.22  L 1487.25,  384.22 " style="stroke-width: 1.42 ;&st7; " /><path d=" M 1093.48,  537.20  L 1070.82,  531.53 " style="stroke-width: 1.42 ;&st7; " /><path d=" M 1093.48,  605.18  L 1070.82,  599.52 " style="stroke-width: 1.42 ;&st7; " /><path d=" M 1093.48,  571.19  L 1070.82,  565.52 " style="stroke-width: 1.42 ;&st7; " /><path d=" M 1093.48,  503.20  L 1070.82,  497.54 " style="stroke-width: 1.42 ;&st7; " /><path d=" M 1070.82,  375.72  L 1062.32,  375.72 " style="stroke-width: 1.42 ;&st7; " /><path d=" M 1298.87,  710.00  L 1301.70,  710.00 " style="stroke-width: 0.85 ;&st7; " /><path d=" M 1297.45,  707.17  L 1303.12,  707.17 " style="stroke-width: 0.85 ;&st7; " /><path d=" M 1296.03,  704.33  L 1304.53,  704.33 " style="stroke-width: 0.85 ;&st7; " /><path d=" M 1291.78,  701.50  L 1308.78,  701.50 " style="stroke-width: 0.85 ;&st7; " /><path d=" M 1300.28,  697.25  L 1300.28,  701.50 " style="stroke-width: 0.85 ;&st7; " /><path d=" M 1375.35,  710.00  L 1378.19,  710.00 " style="stroke-width: 0.85 ;&st7; " /><path d=" M 1373.94,  707.17  L 1379.60,  707.17 " style="stroke-width: 0.85 ;&st7; " /><path d=" M 1372.52,  704.33  L 1381.02,  704.33 " style="stroke-width: 0.85 ;&st7; " /><path d=" M 1368.27,  701.50  L 1385.27,  701.50 " style="stroke-width: 0.85 ;&st7; " /><path d=" M 1376.77,  697.25  L 1376.77,  701.50 " style="stroke-width: 0.85 ;&st7; " /><path d=" M 1168.55,  438.05  L 1164.30,  442.29  L 1160.06,  438.05 " style="stroke-width: 1.42 ;&st7; " /><path d=" M 1160.06,  434.65  L 1164.30,  438.90  L 1168.55,  434.65 " style="stroke-width: 1.42 ;&st7; " /><path d=" M 1449.01,  389.89  L 1444.76,  385.64  L 1440.51,  389.89 " style="stroke-width: 1.42 ;&st7; " /><path d=" M 1096.32,  350.23  L 1096.32,  375.72  L 1113.31,  375.72  L 1113.31,  350.23  L 1096.32,  350.23 " style="stroke-width: 1.42 ;&st7; " /><path d=" M 1096.32,  358.73  L 1113.31,  358.73 " style="stroke-width: 1.13 ;&st7;stroke-dasharray:3, 1.5;" /><path d=" M 1096.32,  367.22  L 1113.31,  367.22 " style="stroke-width: 1.13 ;&st7;stroke-dasharray:3, 1.5;" /><path d=" M 1104.81,  350.23  L 1104.81,  375.72 " style="stroke-width: 0.85 ;&st7; " /><path d=" M 1155.81,  494.70  L 1155.81,  520.20  L 1172.80,  520.20  L 1172.80,  494.70  L 1155.81,  494.70 " style="stroke-width: 1.42 ;&st7; " /><path d=" M 1155.81,  503.20  L 1172.80,  503.20 " style="stroke-width: 1.13 ;&st7;stroke-dasharray:3, 1.5;" /><path d=" M 1155.81,  511.70  L 1172.80,  511.70 " style="stroke-width: 1.13 ;&st7;stroke-dasharray:3, 1.5;" /><path d=" M 1164.30,  494.70  L 1164.30,  520.20 " style="stroke-width: 0.85 ;&st7; " /><path d=" M 1283.29,  180.26  L 1300.28,  180.26 " style="stroke-width: 1.13 ;&st7;stroke-dasharray:3, 1.5;" /><path d=" M 1283.29,  171.76  L 1300.28,  171.76 " style="stroke-width: 1.13 ;&st7;stroke-dasharray:3, 1.5;" /><path d=" M 1183.78,  171.76  L 1206.10,  171.76 " style="stroke-width: 0.85 ;&st7;stroke-dasharray:3, 1.5;" /><path d=" M 1283.29,  163.26  L 1283.29,  188.75  L 1300.28,  188.75  L 1300.28,  163.26  L 1283.29,  163.26 " style="stroke-width: 1.42 ;&st7; " /><path d=" M 1172.80,  154.76  L 1215.30,  154.76  L 1215.30,  188.75  L 1172.80,  188.75  L 1172.80,  154.76 " style="stroke-width: 1.42 ;&st7; " /><path d=" M 1291.78,  163.26  L 1291.78,  188.75 " style="stroke-width: 0.85 ;&st7; " /><path d=" M 1304.53,   78.27  L 1304.53,   35.78  L 1279.04,   35.78  L 1279.04,   78.27  L 1304.53,   78.27 " style="stroke-width: 1.42 ;&st7; " /><path d=" M 1291.78,   90.37  L 1288.95,   87.54  L 1288.95,   91.79  L 1291.78,   94.62  L 1294.62,   91.79  L 1294.62,   87.54  L 1291.78,   90.37 " style="stroke-width: 0.28 ;&st9;" /><path d=" M 1436.26,  384.22  L 1453.26,  384.22  L 1453.26,  375.72  L 1436.26,  375.72  L 1436.26,  384.22 " style="stroke-width: 1.42 ;&st7; " /><path d=" M 1440.51,  393.29  L 1444.76,  389.04  L 1449.01,  393.29 " style="stroke-width: 1.42 ;&st7; " /><path d=" M 1223.80,  697.25  L 1223.80,  701.50 " style="stroke-width: 0.85 ;&st7; " /><path d=" M 1215.30,  701.50  L 1232.29,  701.50 " style="stroke-width: 0.85 ;&st7; " /><path d=" M 1219.55,  704.33  L 1228.04,  704.33 " style="stroke-width: 0.85 ;&st7; " /><path d=" M 1220.96,  707.17  L 1226.63,  707.17 " style="stroke-width: 0.85 ;&st7; " /><path d=" M 1222.38,  710.00  L 1225.21,  710.00 " style="stroke-width: 0.85 ;&st7; " /><path d=" M 1168.55,   35.78  L 1168.55,   78.27  L 1194.05,   78.27  L 1194.05,   35.78  L 1168.55,   35.78 " style="stroke-width: 1.42 ;&st7; " /><path d=" M 1181.30,   98.87  L 1178.47,   96.04  L 1178.47,  100.29  L 1181.30,  103.12  L 1184.13,  100.29  L 1184.13,   96.04  L 1181.30,   98.87 " style="stroke-width: 0.28 ;&st9;" /><path d=" M 1181.30,   78.27  L 1181.30,  103.77 " style="stroke-width: 0.85 ;&st7; " /><path d=" M 1096.32,  154.76  L 1096.32,  180.26  L 1113.31,  180.26  L 1113.31,  154.76  L 1096.32,  154.76 " style="stroke-width: 1.42 ;&st7; " /><path d=" M 1096.32,  163.26  L 1113.31,  163.26 " style="stroke-width: 1.13 ;&st7;stroke-dasharray:3, 1.5;" /><path d=" M 1096.32,  171.76  L 1113.31,  171.76 " style="stroke-width: 1.13 ;&st7;stroke-dasharray:3, 1.5;" /><path d=" M 1104.81,  154.76  L 1104.81,  180.26 " style="stroke-width: 0.85 ;&st7; " /><path d=" M 1478.75,  460.71  L 1478.75,  477.71  L 1529.74,  477.71  L 1529.74,  460.71  L 1478.75,  460.71 " style="stroke-width: 1.42 ;&st7; " /><path d=" M 1491.50,  393.29  L 1487.25,  389.04  L 1483.00,  393.29 " style="stroke-width: 1.42 ;&st7; " /><path d=" M 1491.50,  389.89  L 1487.25,  385.64  L 1483.00,  389.89 " style="stroke-width: 1.42 ;&st7; " /><path d=" M 1487.25,  460.71  L 1487.25,  477.71 " style="stroke-width: 0.85 ;&st7; " /><path d=" M 1444.76,  460.71  L 1444.76,  477.71 " style="stroke-width: 0.85 ;&st7; " /><path d=" M 1436.26,  460.71  L 1436.26,  477.71  L 1453.26,  477.71  L 1453.26,  460.71  L 1436.26,  460.71 " style="stroke-width: 1.42 ;&st7; " /><path d=" M 1444.76,  571.19  L 1444.76,  588.19 " style="stroke-width: 0.85 ;&st7; " /><path d=" M 1436.26,  571.19  L 1436.26,  588.19  L 1453.26,  588.19  L 1453.26,  571.19  L 1436.26,  571.19 " style="stroke-width: 1.42 ;&st7; " /><path d=" M 1066.57,  384.79  L 1062.32,  380.54  L 1058.07,  384.79 " style="stroke-width: 1.42 ;&st7; " /><path d=" M 1066.57,  381.39  L 1062.32,  377.14  L 1058.07,  381.39 " style="stroke-width: 1.42 ;&st7; " /><path d=" M 1104.81,  537.20  L 1104.81,  528.70  L 1101.98,  527.28  L 1107.65,  524.45  L 1101.98,  521.61  L 1107.65,  518.78  L 1101.98,  515.95  L 1107.65,  513.12  L 1104.81,  511.70  L 1104.81,  486.20 " style="stroke-width: 0.85 ;&st7; " /><path d=" M 1062.32,  503.20  L 1070.82,  503.20 " style="stroke-width: 0.85 ;&st7; " /><path d=" M 1104.81,  503.20  L 1096.32,  503.20 " style="stroke-width: 0.85 ;&st7; " /><path d=" M 1103.62,  502.20  L 1103.35,  502.67  L 1103.26,  503.20  L 1103.35,  503.73  L 1103.62,  504.20  L 1104.04,  504.55  L 1104.54,  504.74  L 1105.09,  504.74  L 1105.59,  504.55  L 1106.01,  504.20  L 1106.28,  503.73  L 1106.37,  503.20  L 1106.28,  502.67  L 1106.01,  502.20  L 1105.59,  501.85  L 1105.09,  501.67  L 1104.54,  501.67  L 1104.04,  501.85  L 1103.62,  502.20  L 1104.02,  502.91  L 1104.02,  503.49  L 1104.39,  503.94  L 1104.96,  504.04  L 1105.47,  503.75  L 1105.66,  503.20  L 1105.47,  502.65  L 1104.96,  502.37  L 1104.39,  502.46  L 1104.81,  503.20 " style="stroke-width: 0.85 ;&st7; " /><path d=" M 1062.32,  460.71  L 1062.32,  435.21 " style="stroke-width: 0.85 ;&st7; " /><path d=" M 1130.31,  469.77  L 1130.31,  622.18  L 1045.32,  622.18  L 1045.32,  469.77  L 1130.31,  469.77 " style="stroke-width: 1.42 ;&st7; " /><path d=" M 1061.13,  502.20  L 1060.86,  502.67  L 1060.76,  503.20  L 1060.86,  503.73  L 1061.13,  504.20  L 1061.54,  504.55  L 1062.05,  504.74  L 1062.59,  504.74  L 1063.10,  504.55  L 1063.51,  504.20  L 1063.79,  503.73  L 1063.88,  503.20  L 1063.79,  502.67  L 1063.51,  502.20  L 1063.10,  501.85  L 1062.59,  501.67  L 1062.05,  501.67  L 1061.54,  501.85  L 1061.13,  502.20  L 1061.52,  502.91  L 1061.52,  503.49  L 1061.90,  503.94  L 1062.47,  504.04  L 1062.97,  503.75  L 1063.17,  503.20  L 1062.97,  502.65  L 1062.47,  502.37  L 1061.90,  502.46  L 1062.32,  503.20 " style="stroke-width: 0.85 ;&st7; " /><path d=" M 1061.13,  570.19  L 1060.86,  570.66  L 1060.76,  571.19  L 1060.86,  571.72  L 1061.13,  572.19  L 1061.54,  572.54  L 1062.05,  572.73  L 1062.59,  572.73  L 1063.10,  572.54  L 1063.51,  572.19  L 1063.79,  571.72  L 1063.88,  571.19  L 1063.79,  570.66  L 1063.51,  570.19  L 1063.10,  569.84  L 1062.59,  569.65  L 1062.05,  569.65  L 1061.54,  569.84  L 1061.13,  570.19  L 1061.52,  570.90  L 1061.52,  571.48  L 1061.90,  571.93  L 1062.47,  572.03  L 1062.97,  571.74  L 1063.17,  571.19  L 1062.97,  570.64  L 1062.47,  570.35  L 1061.90,  570.45  L 1062.32,  571.19 " style="stroke-width: 0.85 ;&st7; " /><path d=" M 1062.32,  605.18  L 1070.82,  605.18 " style="stroke-width: 0.85 ;&st7; " /><path d=" M 1096.32,  605.18  L 1104.81,  605.18 " style="stroke-width: 0.85 ;&st7; " /><path d=" M 1096.32,  571.19  L 1104.81,  571.19 " style="stroke-width: 0.85 ;&st7; " /><path d=" M 1062.32,  571.19  L 1070.82,  571.19 " style="stroke-width: 0.85 ;&st7; " /><path d=" M 1062.32,  537.20  L 1070.82,  537.20 " style="stroke-width: 0.85 ;&st7; " /><path d=" M 1104.81,  537.20  L 1096.32,  537.20 " style="stroke-width: 0.85 ;&st7; " /><path d=" M 1104.81,  571.19  L 1104.81,  579.69  L 1107.65,  581.10  L 1101.98,  583.94  L 1107.65,  586.77  L 1101.98,  589.60  L 1107.65,  592.44  L 1101.98,  595.27  L 1104.81,  596.69  L 1104.81,  605.18 " style="stroke-width: 0.85 ;&st7; " /><path d=" M 1104.81,  537.20  L 1104.81,  545.69  L 1107.65,  547.11  L 1101.98,  549.94  L 1107.65,  552.78  L 1101.98,  555.61  L 1107.65,  558.44  L 1101.98,  561.27  L 1104.81,  562.69  L 1104.81,  571.19 " style="stroke-width: 0.85 ;&st7; " /><path d=" M 1104.81,  435.21  L 1104.81,  460.71 " style="stroke-width: 0.85 ;&st7; " /><path d=" M 1130.31,  460.71  L 1045.32,  460.71  L 1045.32,  435.21  L 1130.31,  435.21  L 1130.31,  460.71 " style="stroke-width: 1.42 ;&st7; " /><path d=" M 1103.62,  536.19  L 1103.35,  536.66  L 1103.26,  537.20  L 1103.35,  537.73  L 1103.62,  538.20  L 1104.04,  538.54  L 1104.54,  538.73  L 1105.09,  538.73  L 1105.59,  538.54  L 1106.01,  538.20  L 1106.28,  537.73  L 1106.37,  537.20  L 1106.28,  536.66  L 1106.01,  536.19  L 1105.59,  535.85  L 1105.09,  535.66  L 1104.54,  535.66  L 1104.04,  535.85  L 1103.62,  536.19  L 1104.02,  536.90  L 1104.02,  537.49  L 1104.39,  537.93  L 1104.96,  538.03  L 1105.47,  537.74  L 1105.66,  537.20  L 1105.47,  536.65  L 1104.96,  536.36  L 1104.39,  536.46  L 1104.81,  537.20 " style="stroke-width: 0.85 ;&st7; " /><path d=" M 1061.13,  536.19  L 1060.86,  536.66  L 1060.76,  537.20  L 1060.86,  537.73  L 1061.13,  538.20  L 1061.54,  538.54  L 1062.05,  538.73  L 1062.59,  538.73  L 1063.10,  538.54  L 1063.51,  538.20  L 1063.79,  537.73  L 1063.88,  537.20  L 1063.79,  536.66  L 1063.51,  536.19  L 1063.10,  535.85  L 1062.59,  535.66  L 1062.05,  535.66  L 1061.54,  535.85  L 1061.13,  536.19  L 1061.52,  536.90  L 1061.52,  537.49  L 1061.90,  537.93  L 1062.47,  538.03  L 1062.97,  537.74  L 1063.17,  537.20  L 1062.97,  536.65  L 1062.47,  536.36  L 1061.90,  536.46  L 1062.32,  537.20 " style="stroke-width: 0.85 ;&st7; " /><path d=" M 1103.62,  570.19  L 1103.35,  570.66  L 1103.26,  571.19  L 1103.35,  571.72  L 1103.62,  572.19  L 1104.04,  572.54  L 1104.54,  572.73  L 1105.09,  572.73  L 1105.59,  572.54  L 1106.01,  572.19  L 1106.28,  571.72  L 1106.37,  571.19  L 1106.28,  570.66  L 1106.01,  570.19  L 1105.59,  569.84  L 1105.09,  569.65  L 1104.54,  569.65  L 1104.04,  569.84  L 1103.62,  570.19  L 1104.02,  570.90  L 1104.02,  571.48  L 1104.39,  571.93  L 1104.96,  572.03  L 1105.47,  571.74  L 1105.66,  571.19  L 1105.47,  570.64  L 1104.96,  570.35  L 1104.39,  570.45  L 1104.81,  571.19 " style="stroke-width: 0.85 ;&st7; " /><path d=" M 1053.82,  486.20  L 1053.82,  613.68  L 1113.31,  613.68  L 1113.31,  486.20  L 1053.82,  486.20 " style="stroke-width: 1.42 ;&st7; " /><path d=" M 1062.32,  486.20  L 1062.32,  605.18 " style="stroke-width: 0.85 ;&st7; " /><path d=" M 1402.27,  460.71  L 1402.27,  477.71 " style="stroke-width: 0.85 ;&st7; " /><path d=" M 1393.77,  460.71  L 1393.77,  477.71  L 1410.76,  477.71  L 1410.76,  460.71  L 1393.77,  460.71 " style="stroke-width: 1.42 ;&st7; " /><path d=" M 1109.35,  243.71  C 1109.35   241.21  1107.32   239.18  1104.82   239.18 " style="stroke-width: 1.42 ;&st7; " /><path d=" M 1104.82,  239.18  C 1102.31   239.18  1100.28   241.21  1100.28   243.71 " style="stroke-width: 1.42 ;&st7; " /><path d=" M 1100.28,  243.71  C 1100.28   246.21  1102.31   248.24  1104.82   248.24 " style="stroke-width: 1.42 ;&st7; " /><path d=" M 1104.82,  248.24  C 1107.32   248.24  1109.35   246.21  1109.35   243.71 " style="stroke-width: 1.42 ;&st7; " /><path d=" M 1330.31,  295.27  C 1330.31   292.77  1328.28   290.74  1325.78   290.74 " style="stroke-width: 1.42 ;&st7; " /><path d=" M 1325.78,  290.74  C 1323.28   290.74  1321.25   292.77  1321.25   295.27 " style="stroke-width: 1.42 ;&st7; " /><path d=" M 1321.25,  295.27  C 1321.25   297.77  1323.28   299.80  1325.78   299.80 " style="stroke-width: 1.42 ;&st7; " /><path d=" M 1325.78,  299.80  C 1328.28   299.80  1330.31   297.77  1330.31   295.27 " style="stroke-width: 1.42 ;&st7; " /><path d=" M 1355.81,  295.27  C 1355.81   292.77  1353.78   290.74  1351.27   290.74 " style="stroke-width: 1.42 ;&st7; " /><path d=" M 1351.27,  290.74  C 1348.77   290.74  1346.74   292.77  1346.74   295.27 " style="stroke-width: 1.42 ;&st7; " /><path d=" M 1346.74,  295.27  C 1346.74   297.77  1348.77   299.80  1351.27   299.80 " style="stroke-width: 1.42 ;&st7; " /><path d=" M 1351.27,  299.80  C 1353.78   299.80  1355.81   297.77  1355.81   295.27 " style="stroke-width: 1.42 ;&st7; " /><path d=" M 1304.82,  295.27  C 1304.82   292.77  1302.79   290.74  1300.28   290.74 " style="stroke-width: 1.42 ;&st7; " /><path d=" M 1300.28,  290.74  C 1297.78   290.74  1295.75   292.77  1295.75   295.27 " style="stroke-width: 1.42 ;&st7; " /><path d=" M 1295.75,  295.27  C 1295.75   297.77  1297.78   299.80  1300.28   299.80 " style="stroke-width: 1.42 ;&st7; " /><path d=" M 1300.28,  299.80  C 1302.79   299.80  1304.82   297.77  1304.82   295.27 " style="stroke-width: 1.42 ;&st7; " /><path d=" M 1202.83,  295.27  C 1202.83   292.77  1200.80   290.74  1198.30   290.74 " style="stroke-width: 1.42 ;&st7; " /><path d=" M 1198.30,  290.74  C 1195.80   290.74  1193.77   292.77  1193.77   295.27 " style="stroke-width: 1.42 ;&st7; " /><path d=" M 1193.77,  295.27  C 1193.77   297.77  1195.80   299.80  1198.30   299.80 " style="stroke-width: 1.42 ;&st7; " /><path d=" M 1198.30,  299.80  C 1200.80   299.80  1202.83   297.77  1202.83   295.27 " style="stroke-width: 1.42 ;&st7; " /><path d=" M 1279.32,  295.27  C 1279.32   292.77  1277.29   290.74  1274.79   290.74 " style="stroke-width: 1.42 ;&st7; " /><path d=" M 1274.79,  290.74  C 1272.28   290.74  1270.25   292.77  1270.25   295.27 " style="stroke-width: 1.42 ;&st7; " /><path d=" M 1270.25,  295.27  C 1270.25   297.77  1272.28   299.80  1274.79   299.80 " style="stroke-width: 1.42 ;&st7; " /><path d=" M 1274.79,  299.80  C 1277.29   299.80  1279.32   297.77  1279.32   295.27 " style="stroke-width: 1.42 ;&st7; " /><path d=" M 1228.33,  295.27  C 1228.33   292.77  1226.30   290.74  1223.80   290.74 " style="stroke-width: 1.42 ;&st7; " /><path d=" M 1223.80,  290.74  C 1221.29   290.74  1219.26   292.77  1219.26   295.27 " style="stroke-width: 1.42 ;&st7; " /><path d=" M 1219.26,  295.27  C 1219.26   297.77  1221.29   299.80  1223.80   299.80 " style="stroke-width: 1.42 ;&st7; " /><path d=" M 1223.80,  299.80  C 1226.30   299.80  1228.33   297.77  1228.33   295.27 " style="stroke-width: 1.42 ;&st7; " /><path d=" M 1253.82,  295.27  C 1253.82   292.77  1251.79   290.74  1249.29   290.74 " style="stroke-width: 1.42 ;&st7; " /><path d=" M 1249.29,  290.74  C 1246.79   290.74  1244.76   292.77  1244.76   295.27 " style="stroke-width: 1.42 ;&st7; " /><path d=" M 1244.76,  295.27  C 1244.76   297.77  1246.79   299.80  1249.29   299.80 " style="stroke-width: 1.42 ;&st7; " /><path d=" M 1249.29,  299.80  C 1251.79   299.80  1253.82   297.77  1253.82   295.27 " style="stroke-width: 1.42 ;&st7; " /><path d=" M 1449.29,  295.27  C 1449.29   292.77  1447.26   290.74  1444.76   290.74 " style="stroke-width: 1.42 ;&st7; " /><path d=" M 1444.76,  290.74  C 1442.26   290.74  1440.23   292.77  1440.23   295.27 " style="stroke-width: 1.42 ;&st7; " /><path d=" M 1440.23,  295.27  C 1440.23   297.77  1442.26   299.80  1444.76   299.80 " style="stroke-width: 1.42 ;&st7; " /><path d=" M 1444.76,  299.80  C 1447.26   299.80  1449.29   297.77  1449.29   295.27 " style="stroke-width: 1.42 ;&st7; " /><path d=" M 1298.16,   99.52  C 1298.16    97.17  1296.26    95.27  1293.91    95.27 " style="stroke-width: 1.42 ;&st7; " /><path d=" M 1293.91,  103.77  C 1296.26   103.77  1298.16   101.87  1298.16    99.52 " style="stroke-width: 1.42 ;&st7; " /><path d=" M 1285.41,   99.52  C 1285.41   101.87  1287.31   103.77  1289.66   103.77 " style="stroke-width: 1.42 ;&st7; " /><path d=" M 1289.66,   95.27  C 1287.31    95.27  1285.41    97.17  1285.41    99.52 " style="stroke-width: 1.42 ;&st7; " /><path d=" M 1293.20,   68.36  C 1293.20    67.57  1292.57    66.94  1291.78    66.94 " style="stroke-width: 0.85 ;&st7; " /><path d=" M 1291.78,   66.94  C 1291.00    66.94  1290.37    67.57  1290.37    68.36 " style="stroke-width: 0.85 ;&st7; " /><path d=" M 1290.37,   68.36  C 1290.37    69.14  1291.00    69.77  1291.78    69.77 " style="stroke-width: 0.85 ;&st7; " /><path d=" M 1291.78,   69.77  C 1292.57    69.77  1293.20    69.14  1293.20    68.36 " style="stroke-width: 0.85 ;&st7; " /><path d=" M 1293.20,   45.69  C 1293.20    44.91  1292.57    44.28  1291.78    44.28 " style="stroke-width: 0.85 ;&st7; " /><path d=" M 1291.78,   44.28  C 1291.00    44.28  1290.37    44.91  1290.37    45.69 " style="stroke-width: 0.85 ;&st7; " /><path d=" M 1290.37,   45.69  C 1290.37    46.48  1291.00    47.11  1291.78    47.11 " style="stroke-width: 0.85 ;&st7; " /><path d=" M 1291.78,   47.11  C 1292.57    47.11  1293.20    46.48  1293.20    45.69 " style="stroke-width: 0.85 ;&st7; " /><path d=" M 1291.78,   66.94  C 1294.52    65.33  1295.43    61.80  1293.82    59.06 " style="stroke-width: 1.42 ;&st7; " /><path d=" M 1293.82,   59.06  C 1293.30    58.18  1292.67    57.55  1291.78    57.03 " style="stroke-width: 1.42 ;&st7; " /><path d=" M 1291.78,   47.11  C 1289.05    48.72  1288.13    52.25  1289.75    54.99 " style="stroke-width: 1.42 ;&st7; " /><path d=" M 1289.75,   54.99  C 1290.27    55.87  1290.90    56.51  1291.78    57.03 " style="stroke-width: 1.42 ;&st7; " /><path d=" M 1182.72,  183.09  C 1182.72   182.31  1182.08   181.67  1181.30   181.67 " style="stroke-width: 0.85 ;&st7; " /><path d=" M 1181.30,  181.67  C 1180.52   181.67  1179.89   182.31  1179.89   183.09 " style="stroke-width: 0.85 ;&st7; " /><path d=" M 1179.89,  183.09  C 1179.89   183.87  1180.52   184.50  1181.30   184.50 " style="stroke-width: 0.85 ;&st7; " /><path d=" M 1181.30,  184.50  C 1182.08   184.50  1182.72   183.87  1182.72   183.09 " style="stroke-width: 0.85 ;&st7; " /><path d=" M 1182.72,  160.43  C 1182.72   159.64  1182.08   159.01  1181.30   159.01 " style="stroke-width: 0.85 ;&st7; " /><path d=" M 1181.30,  159.01  C 1180.52   159.01  1179.89   159.64  1179.89   160.43 " style="stroke-width: 0.85 ;&st7; " /><path d=" M 1179.89,  160.43  C 1179.89   161.21  1180.52   161.84  1181.30   161.84 " style="stroke-width: 0.85 ;&st7; " /><path d=" M 1181.30,  161.84  C 1182.08   161.84  1182.72   161.21  1182.72   160.43 " style="stroke-width: 0.85 ;&st7; " /><path d=" M 1208.21,  160.43  C 1208.21   159.64  1207.58   159.01  1206.80   159.01 " style="stroke-width: 0.85 ;&st7; " /><path d=" M 1206.80,  159.01  C 1206.02   159.01  1205.38   159.64  1205.38   160.43 " style="stroke-width: 0.85 ;&st7; " /><path d=" M 1205.38,  160.43  C 1205.38   161.21  1206.02   161.84  1206.80   161.84 " style="stroke-width: 0.85 ;&st7; " /><path d=" M 1206.80,  161.84  C 1207.58   161.84  1208.21   161.21  1208.21   160.43 " style="stroke-width: 0.85 ;&st7; " /><path d=" M 1208.21,  183.09  C 1208.21   182.31  1207.58   181.67  1206.80   181.67 " style="stroke-width: 0.85 ;&st7; " /><path d=" M 1206.80,  181.67  C 1206.02   181.67  1205.38   182.31  1205.38   183.09 " style="stroke-width: 0.85 ;&st7; " /><path d=" M 1205.38,  183.09  C 1205.38   183.87  1206.02   184.50  1206.80   184.50 " style="stroke-width: 0.85 ;&st7; " /><path d=" M 1206.80,  184.50  C 1207.58   184.50  1208.21   183.87  1208.21   183.09 " style="stroke-width: 0.85 ;&st7; " /><path d=" M 1211.33,  243.71  C 1211.33   241.21  1209.30   239.18  1206.80   239.18 " style="stroke-width: 1.42 ;&st7; " /><path d=" M 1206.80,  239.18  C 1204.30   239.18  1202.27   241.21  1202.27   243.71 " style="stroke-width: 1.42 ;&st7; " /><path d=" M 1202.27,  243.71  C 1202.27   246.21  1204.30   248.24  1206.80   248.24 " style="stroke-width: 1.42 ;&st7; " /><path d=" M 1206.80,  248.24  C 1209.30   248.24  1211.33   246.21  1211.33   243.71 " style="stroke-width: 1.42 ;&st7; " /><path d=" M 1296.32,  193.29  C 1296.32   190.78  1294.29   188.75  1291.78   188.75 " style="stroke-width: 1.42 ;&st7; " /><path d=" M 1291.78,  188.75  C 1289.28   188.75  1287.25   190.78  1287.25   193.29 " style="stroke-width: 1.42 ;&st7; " /><path d=" M 1287.25,  193.29  C 1287.25   195.79  1289.28   197.82  1291.78   197.82 " style="stroke-width: 1.42 ;&st7; " /><path d=" M 1291.78,  197.82  C 1294.29   197.82  1296.32   195.79  1296.32   193.29 " style="stroke-width: 1.42 ;&st7; " /><path d=" M 1296.32,  158.73  C 1296.32   156.22  1294.29   154.19  1291.78   154.19 " style="stroke-width: 1.42 ;&st7; " /><path d=" M 1291.78,  154.19  C 1289.28   154.19  1287.25   156.22  1287.25   158.73 " style="stroke-width: 1.42 ;&st7; " /><path d=" M 1287.25,  158.73  C 1287.25   161.23  1289.28   163.26  1291.78   163.26 " style="stroke-width: 1.42 ;&st7; " /><path d=" M 1291.78,  163.26  C 1294.29   163.26  1296.32   161.23  1296.32   158.73 " style="stroke-width: 1.42 ;&st7; " /><path d=" M 1168.84,  524.73  C 1168.84   522.23  1166.81   520.20  1164.31   520.20 " style="stroke-width: 1.42 ;&st7; " /><path d=" M 1164.31,  520.20  C 1161.80   520.20  1159.77   522.23  1159.77   524.73 " style="stroke-width: 1.42 ;&st7; " /><path d=" M 1159.77,  524.73  C 1159.77   527.23  1161.80   529.26  1164.31   529.26 " style="stroke-width: 1.42 ;&st7; " /><path d=" M 1164.31,  529.26  C 1166.81   529.26  1168.84   527.23  1168.84   524.73 " style="stroke-width: 1.42 ;&st7; " /><path d=" M 1168.84,  490.17  C 1168.84   487.67  1166.81   485.64  1164.31   485.64 " style="stroke-width: 1.42 ;&st7; " /><path d=" M 1164.31,  485.64  C 1161.80   485.64  1159.77   487.67  1159.77   490.17 " style="stroke-width: 1.42 ;&st7; " /><path d=" M 1159.77,  490.17  C 1159.77   492.67  1161.80   494.70  1164.31   494.70 " style="stroke-width: 1.42 ;&st7; " /><path d=" M 1164.31,  494.70  C 1166.81   494.70  1168.84   492.67  1168.84   490.17 " style="stroke-width: 1.42 ;&st7; " /><path d=" M 1109.35,  380.26  C 1109.35   377.75  1107.32   375.72  1104.82   375.72 " style="stroke-width: 1.42 ;&st7; " /><path d=" M 1104.82,  375.72  C 1102.31   375.72  1100.28   377.75  1100.28   380.26 " style="stroke-width: 1.42 ;&st7; " /><path d=" M 1100.28,  380.26  C 1100.28   382.76  1102.31   384.79  1104.82   384.79 " style="stroke-width: 1.42 ;&st7; " /><path d=" M 1104.82,  384.79  C 1107.32   384.79  1109.35   382.76  1109.35   380.26 " style="stroke-width: 1.42 ;&st7; " /><path d=" M 1109.35,  345.69  C 1109.35   343.19  1107.32   341.16  1104.82   341.16 " style="stroke-width: 1.42 ;&st7; " /><path d=" M 1104.82,  341.16  C 1102.31   341.16  1100.28   343.19  1100.28   345.69 " style="stroke-width: 1.42 ;&st7; " /><path d=" M 1100.28,  345.69  C 1100.28   348.20  1102.31   350.23  1104.82   350.23 " style="stroke-width: 1.42 ;&st7; " /><path d=" M 1104.82,  350.23  C 1107.32   350.23  1109.35   348.20  1109.35   345.69 " style="stroke-width: 1.42 ;&st7; " /><path d=" M 1096.32,  571.19  C 1096.32   570.41  1095.68   569.77  1094.90   569.77 " style="stroke-width: 0.85 ;&st7; " /><path d=" M 1094.90,  569.77  C 1094.12   569.77  1093.48   570.41  1093.48   571.19 " style="stroke-width: 0.85 ;&st7; " /><path d=" M 1093.48,  571.19  C 1093.48   571.97  1094.12   572.61  1094.90   572.61 " style="stroke-width: 0.85 ;&st7; " /><path d=" M 1094.90,  572.61  C 1095.68   572.61  1096.32   571.97  1096.32   571.19 " style="stroke-width: 0.85 ;&st7; " /><path d=" M 1096.32,  537.20  C 1096.32   536.41  1095.68   535.78  1094.90   535.78 " style="stroke-width: 0.85 ;&st7; " /><path d=" M 1094.90,  535.78  C 1094.12   535.78  1093.48   536.41  1093.48   537.20 " style="stroke-width: 0.85 ;&st7; " /><path d=" M 1093.48,  537.20  C 1093.48   537.98  1094.12   538.61  1094.90   538.61 " style="stroke-width: 0.85 ;&st7; " /><path d=" M 1094.90,  538.61  C 1095.68   538.61  1096.32   537.98  1096.32   537.20 " style="stroke-width: 0.85 ;&st7; " /><path d=" M 1073.65,  605.18  C 1073.65   604.40  1073.02   603.77  1072.24   603.77 " style="stroke-width: 0.85 ;&st7; " /><path d=" M 1072.24,  603.77  C 1071.46   603.77  1070.82   604.40  1070.82   605.18 " style="stroke-width: 0.85 ;&st7; " /><path d=" M 1070.82,  605.18  C 1070.82   605.97  1071.46   606.60  1072.24   606.60 " style="stroke-width: 0.85 ;&st7; " /><path d=" M 1072.24,  606.60  C 1073.02   606.60  1073.65   605.97  1073.65   605.18 " style="stroke-width: 0.85 ;&st7; " /><path d=" M 1073.65,  571.19  C 1073.65   570.41  1073.02   569.77  1072.24   569.77 " style="stroke-width: 0.85 ;&st7; " /><path d=" M 1072.24,  569.77  C 1071.46   569.77  1070.82   570.41  1070.82   571.19 " style="stroke-width: 0.85 ;&st7; " /><path d=" M 1070.82,  571.19  C 1070.82   571.97  1071.46   572.61  1072.24   572.61 " style="stroke-width: 0.85 ;&st7; " /><path d=" M 1072.24,  572.61  C 1073.02   572.61  1073.65   571.97  1073.65   571.19 " style="stroke-width: 0.85 ;&st7; " /><path d=" M 1073.65,  537.20  C 1073.65   536.41  1073.02   535.78  1072.24   535.78 " style="stroke-width: 0.85 ;&st7; " /><path d=" M 1072.24,  535.78  C 1071.46   535.78  1070.82   536.41  1070.82   537.20 " style="stroke-width: 0.85 ;&st7; " /><path d=" M 1070.82,  537.20  C 1070.82   537.98  1071.46   538.61  1072.24   538.61 " style="stroke-width: 0.85 ;&st7; " /><path d=" M 1072.24,  538.61  C 1073.02   538.61  1073.65   537.98  1073.65   537.20 " style="stroke-width: 0.85 ;&st7; " /><path d=" M 1096.32,  605.18  C 1096.32   604.40  1095.68   603.77  1094.90   603.77 " style="stroke-width: 0.85 ;&st7; " /><path d=" M 1094.90,  603.77  C 1094.12   603.77  1093.48   604.40  1093.48   605.18 " style="stroke-width: 0.85 ;&st7; " /><path d=" M 1093.48,  605.18  C 1093.48   605.97  1094.12   606.60  1094.90   606.60 " style="stroke-width: 0.85 ;&st7; " /><path d=" M 1094.90,  606.60  C 1095.68   606.60  1096.32   605.97  1096.32   605.18 " style="stroke-width: 0.85 ;&st7; " /><path d=" M 1066.86,  295.27  C 1066.86   292.77  1064.83   290.74  1062.32   290.74 " style="stroke-width: 1.42 ;&st7; " /><path d=" M 1062.32,  290.74  C 1059.82   290.74  1057.79   292.77  1057.79   295.27 " style="stroke-width: 1.42 ;&st7; " /><path d=" M 1057.79,  295.27  C 1057.79   297.77  1059.82   299.80  1062.32   299.80 " style="stroke-width: 1.42 ;&st7; " /><path d=" M 1062.32,  299.80  C 1064.83   299.80  1066.86   297.77  1066.86   295.27 " style="stroke-width: 1.42 ;&st7; " /><path d=" M 1109.35,  465.24  C 1109.35   462.74  1107.32   460.71  1104.82   460.71 " style="stroke-width: 1.42 ;&st7; " /><path d=" M 1104.82,  460.71  C 1102.31   460.71  1100.28   462.74  1100.28   465.24 " style="stroke-width: 1.42 ;&st7; " /><path d=" M 1100.28,  465.24  C 1100.28   467.74  1102.31   469.77  1104.82   469.77 " style="stroke-width: 1.42 ;&st7; " /><path d=" M 1104.82,  469.77  C 1107.32   469.77  1109.35   467.74  1109.35   465.24 " style="stroke-width: 1.42 ;&st7; " /><path d=" M 1066.86,  465.24  C 1066.86   462.74  1064.83   460.71  1062.32   460.71 " style="stroke-width: 1.42 ;&st7; " /><path d=" M 1062.32,  460.71  C 1059.82   460.71  1057.79   462.74  1057.79   465.24 " style="stroke-width: 1.42 ;&st7; " /><path d=" M 1057.79,  465.24  C 1057.79   467.74  1059.82   469.77  1062.32   469.77 " style="stroke-width: 1.42 ;&st7; " /><path d=" M 1062.32,  469.77  C 1064.83   469.77  1066.86   467.74  1066.86   465.24 " style="stroke-width: 1.42 ;&st7; " /><path d=" M 1109.35,  430.68  C 1109.35   428.18  1107.32   426.15  1104.82   426.15 " style="stroke-width: 1.42 ;&st7; " /><path d=" M 1104.82,  426.15  C 1102.31   426.15  1100.28   428.18  1100.28   430.68 " style="stroke-width: 1.42 ;&st7; " /><path d=" M 1100.28,  430.68  C 1100.28   433.18  1102.31   435.21  1104.82   435.21 " style="stroke-width: 1.42 ;&st7; " /><path d=" M 1104.82,  435.21  C 1107.32   435.21  1109.35   433.18  1109.35   430.68 " style="stroke-width: 1.42 ;&st7; " /><path d=" M 1066.86,  430.68  C 1066.86   428.18  1064.83   426.15  1062.32   426.15 " style="stroke-width: 1.42 ;&st7; " /><path d=" M 1062.32,  426.15  C 1059.82   426.15  1057.79   428.18  1057.79   430.68 " style="stroke-width: 1.42 ;&st7; " /><path d=" M 1057.79,  430.68  C 1057.79   433.18  1059.82   435.21  1062.32   435.21 " style="stroke-width: 1.42 ;&st7; " /><path d=" M 1062.32,  435.21  C 1064.83   435.21  1066.86   433.18  1066.86   430.68 " style="stroke-width: 1.42 ;&st7; " /><path d=" M 1096.32,  503.20  C 1096.32   502.42  1095.68   501.78  1094.90   501.78 " style="stroke-width: 0.85 ;&st7; " /><path d=" M 1094.90,  501.78  C 1094.12   501.78  1093.48   502.42  1093.48   503.20 " style="stroke-width: 0.85 ;&st7; " /><path d=" M 1093.48,  503.20  C 1093.48   503.98  1094.12   504.62  1094.90   504.62 " style="stroke-width: 0.85 ;&st7; " /><path d=" M 1094.90,  504.62  C 1095.68   504.62  1096.32   503.98  1096.32   503.20 " style="stroke-width: 0.85 ;&st7; " /><path d=" M 1073.65,  503.20  C 1073.65   502.42  1073.02   501.78  1072.24   501.78 " style="stroke-width: 0.85 ;&st7; " /><path d=" M 1072.24,  501.78  C 1071.46   501.78  1070.82   502.42  1070.82   503.20 " style="stroke-width: 0.85 ;&st7; " /><path d=" M 1070.82,  503.20  C 1070.82   503.98  1071.46   504.62  1072.24   504.62 " style="stroke-width: 0.85 ;&st7; " /><path d=" M 1072.24,  504.62  C 1073.02   504.62  1073.65   503.98  1073.65   503.20 " style="stroke-width: 0.85 ;&st7; " /><path d=" M 1406.80,  295.27  C 1406.80   292.77  1404.77   290.74  1402.27   290.74 " style="stroke-width: 1.42 ;&st7; " /><path d=" M 1402.27,  290.74  C 1399.76   290.74  1397.73   292.77  1397.73   295.27 " style="stroke-width: 1.42 ;&st7; " /><path d=" M 1397.73,  295.27  C 1397.73   297.77  1399.76   299.80  1402.27   299.80 " style="stroke-width: 1.42 ;&st7; " /><path d=" M 1402.27,  299.80  C 1404.77   299.80  1406.80   297.77  1406.80   295.27 " style="stroke-width: 1.42 ;&st7; " /><path d=" M 1381.30,  295.27  C 1381.30   292.77  1379.27   290.74  1376.77   290.74 " style="stroke-width: 1.42 ;&st7; " /><path d=" M 1376.77,  290.74  C 1374.27   290.74  1372.24   292.77  1372.24   295.27 " style="stroke-width: 1.42 ;&st7; " /><path d=" M 1372.24,  295.27  C 1372.24   297.77  1374.27   299.80  1376.77   299.80 " style="stroke-width: 1.42 ;&st7; " /><path d=" M 1376.77,  299.80  C 1379.27   299.80  1381.30   297.77  1381.30   295.27 " style="stroke-width: 1.42 ;&st7; " /><path d=" M 1181.30,   47.11  C 1178.56    48.72  1177.65    52.25  1179.27    54.99 " style="stroke-width: 1.42 ;&st7; " /><path d=" M 1179.27,   54.99  C 1179.79    55.87  1180.42    56.51  1181.30    57.03 " style="stroke-width: 1.42 ;&st7; " /><path d=" M 1181.30,   66.94  C 1184.04    65.33  1184.95    61.80  1183.34    59.06 " style="stroke-width: 1.42 ;&st7; " /><path d=" M 1183.34,   59.06  C 1182.82    58.18  1182.18    57.55  1181.30    57.03 " style="stroke-width: 1.42 ;&st7; " /><path d=" M 1182.72,   45.69  C 1182.72    44.91  1182.08    44.28  1181.30    44.28 " style="stroke-width: 0.85 ;&st7; " /><path d=" M 1181.30,   44.28  C 1180.52    44.28  1179.89    44.91  1179.89    45.69 " style="stroke-width: 0.85 ;&st7; " /><path d=" M 1179.89,   45.69  C 1179.89    46.48  1180.52    47.11  1181.30    47.11 " style="stroke-width: 0.85 ;&st7; " /><path d=" M 1181.30,   47.11  C 1182.08    47.11  1182.72    46.48  1182.72    45.69 " style="stroke-width: 0.85 ;&st7; " /><path d=" M 1182.72,   68.36  C 1182.72    67.57  1182.08    66.94  1181.30    66.94 " style="stroke-width: 0.85 ;&st7; " /><path d=" M 1181.30,   66.94  C 1180.52    66.94  1179.89    67.57  1179.89    68.36 " style="stroke-width: 0.85 ;&st7; " /><path d=" M 1179.89,   68.36  C 1179.89    69.14  1180.52    69.77  1181.30    69.77 " style="stroke-width: 0.85 ;&st7; " /><path d=" M 1181.30,   69.77  C 1182.08    69.77  1182.72    69.14  1182.72    68.36 " style="stroke-width: 0.85 ;&st7; " /><path d=" M 1179.18,  103.77  C 1176.83   103.77  1174.93   105.67  1174.93   108.02 " style="stroke-width: 1.42 ;&st7; " /><path d=" M 1174.93,  108.02  C 1174.93   110.36  1176.83   112.27  1179.18   112.27 " style="stroke-width: 1.42 ;&st7; " /><path d=" M 1183.43,  112.27  C 1185.77   112.27  1187.68   110.36  1187.68   108.02 " style="stroke-width: 1.42 ;&st7; " /><path d=" M 1187.68,  108.02  C 1187.68   105.67  1185.77   103.77  1183.43   103.77 " style="stroke-width: 1.42 ;&st7; " /><path d=" M 1109.35,  184.79  C 1109.35   182.28  1107.32   180.26  1104.82   180.26 " style="stroke-width: 1.42 ;&st7; " /><path d=" M 1104.82,  180.26  C 1102.31   180.26  1100.28   182.28  1100.28   184.79 " style="stroke-width: 1.42 ;&st7; " /><path d=" M 1100.28,  184.79  C 1100.28   187.29  1102.31   189.32  1104.82   189.32 " style="stroke-width: 1.42 ;&st7; " /><path d=" M 1104.82,  189.32  C 1107.32   189.32  1109.35   187.29  1109.35   184.79 " style="stroke-width: 1.42 ;&st7; " /><path d=" M 1109.35,  150.23  C 1109.35   147.72  1107.32   145.69  1104.82   145.69 " style="stroke-width: 1.42 ;&st7; " /><path d=" M 1104.82,  145.69  C 1102.31   145.69  1100.28   147.72  1100.28   150.23 " style="stroke-width: 1.42 ;&st7; " /><path d=" M 1100.28,  150.23  C 1100.28   152.73  1102.31   154.76  1104.82   154.76 " style="stroke-width: 1.42 ;&st7; " /><path d=" M 1104.82,  154.76  C 1107.32   154.76  1109.35   152.73  1109.35   150.23 " style="stroke-width: 1.42 ;&st7; " /><path d=" M 1491.78,  295.27  C 1491.78   292.77  1489.75   290.74  1487.25   290.74 " style="stroke-width: 1.42 ;&st7; " /><path d=" M 1487.25,  290.74  C 1484.75   290.74  1482.72   292.77  1482.72   295.27 " style="stroke-width: 1.42 ;&st7; " /><path d=" M 1482.72,  295.27  C 1482.72   297.77  1484.75   299.80  1487.25   299.80 " style="stroke-width: 1.42 ;&st7; " /><path d=" M 1487.25,  299.80  C 1489.75   299.80  1491.78   297.77  1491.78   295.27 " style="stroke-width: 1.42 ;&st7; " /><path d=" M 1449.29,  482.24  C 1449.29   479.73  1447.26   477.71  1444.76   477.71 " style="stroke-width: 1.42 ;&st7; " /><path d=" M 1444.76,  477.71  C 1442.26   477.71  1440.23   479.73  1440.23   482.24 " style="stroke-width: 1.42 ;&st7; " /><path d=" M 1440.23,  482.24  C 1440.23   484.74  1442.26   486.77  1444.76   486.77 " style="stroke-width: 1.42 ;&st7; " /><path d=" M 1444.76,  486.77  C 1447.26   486.77  1449.29   484.74  1449.29   482.24 " style="stroke-width: 1.42 ;&st7; " /><path d=" M 1449.29,  456.18  C 1449.29   453.67  1447.26   451.64  1444.76   451.64 " style="stroke-width: 1.42 ;&st7; " /><path d=" M 1444.76,  451.64  C 1442.26   451.64  1440.23   453.67  1440.23   456.18 " style="stroke-width: 1.42 ;&st7; " /><path d=" M 1440.23,  456.18  C 1440.23   458.68  1442.26   460.71  1444.76   460.71 " style="stroke-width: 1.42 ;&st7; " /><path d=" M 1444.76,  460.71  C 1447.26   460.71  1449.29   458.68  1449.29   456.18 " style="stroke-width: 1.42 ;&st7; " /><path d=" M 1449.29,  592.72  C 1449.29   590.22  1447.26   588.19  1444.76   588.19 " style="stroke-width: 1.42 ;&st7; " /><path d=" M 1444.76,  588.19  C 1442.26   588.19  1440.23   590.22  1440.23   592.72 " style="stroke-width: 1.42 ;&st7; " /><path d=" M 1440.23,  592.72  C 1440.23   595.22  1442.26   597.25  1444.76   597.25 " style="stroke-width: 1.42 ;&st7; " /><path d=" M 1444.76,  597.25  C 1447.26   597.25  1449.29   595.22  1449.29   592.72 " style="stroke-width: 1.42 ;&st7; " /><path d=" M 1449.29,  566.66  C 1449.29   564.15  1447.26   562.12  1444.76   562.12 " style="stroke-width: 1.42 ;&st7; " /><path d=" M 1444.76,  562.12  C 1442.26   562.12  1440.23   564.15  1440.23   566.66 " style="stroke-width: 1.42 ;&st7; " /><path d=" M 1440.23,  566.66  C 1440.23   569.16  1442.26   571.19  1444.76   571.19 " style="stroke-width: 1.42 ;&st7; " /><path d=" M 1444.76,  571.19  C 1447.26   571.19  1449.29   569.16  1449.29   566.66 " style="stroke-width: 1.42 ;&st7; " /><text style="&st18;" transform="matrix(&st16;  1276.95  195.26 )">22</text><text style="&st18;" transform="matrix(&st16;  1098.03  255.88 )">STP</text><text style="&st18;" transform="matrix(&st17;  1101.12  218.98 )">LG</text><text style="&st18;" transform="matrix(&st16;  1102.48  245.68 )">A</text><text style="&st18;" transform="matrix(&st16;  1090.01  245.68 )">26</text><text style="&st18;" transform="matrix(&st17;  1347.58  621.38 )">W-B</text><text style="&st18;" transform="matrix(&st17;  1322.08  621.38 )">W-B</text><text style="&st18;" transform="matrix(&st17;  1296.59  621.38 )">W-B</text><text style="&st18;" transform="matrix(&st17;  1347.58  349.43 )">W-B</text><text style="&st18;" transform="matrix(&st16;  1309.09  56.17 )">10A <tspan dy="6" x="0">IGN</tspan></text><text style="&st18;" transform="matrix(&st16;  1290.19  101.49 )">1</text><text style="&st18;" transform="matrix(&st17;  1307.89  191.28 )">A52(A),A53(B)</text><text ewd:textID="13" style="&st18;" transform="matrix(&st17;  1315.0  191.28 )">Junction <tspan dy="6" x="0">Connector</tspan></text><text style="&st18;" transform="matrix(&st17;  1203.1  216.72 )">R</text><text style="&st18;" transform="matrix(&st16;  1200.01  151.07 )">4</text><text style="&st18;" transform="matrix(&st16;  1200.01  196.95 )">3</text><text style="&st18;" transform="matrix(&st16;  1175.29  196.95 )">1</text><text style="&st18;" transform="matrix(&st16;  1174.51  151.07 )">2</text><text style="&st18;" transform="matrix(&st16;  1198.74  255.88 )">ST1-</text><text style="&st18;" transform="matrix(&st16;  1191.99  245.68 )">35</text><text style="&st18;" transform="matrix(&st16;  1204.47  245.68 )">A</text><text style="&st18;" transform="matrix(&st17;  1120.93  378.25 )">H86(A),H87(B)</text><text ewd:textID="13" style="&st18;" transform="matrix(&st17;  1128.03  378.25 )">Junction <tspan dy="6" x="0">Connector</tspan></text><text ewd:textID="19" style="&st18;" transform="matrix(&st17;  1230.01  191.28 )">Stop Light <tspan dy="6" x="0">Switch Assembly</tspan></text><text style="&st18;" transform="matrix(&st17;  1222.91  191.28 )">A4</text><text style="&st18;" transform="matrix(&st17;  1288.09  131.24 )">L</text><text style="&st18;" transform="matrix(&st16;  1285.0  86.47 )">2</text><text style="&st18;" transform="matrix(&st17;  1160.61  474.01 )">BR</text><text style="&st18;" transform="matrix(&st16;  1150.25  526.7 )">13</text><text style="&st18;" transform="matrix(&st16;  1161.97  526.7 )">B</text><text style="&st18;" transform="matrix(&st16;  1149.47  492.14 )">22</text><text style="&st18;" transform="matrix(&st16;  1161.97  492.14 )">A</text><text style="&st18;" transform="matrix(&st16;  1090.76  382.22 )">12</text><text style="&st18;" transform="matrix(&st16;  1102.48  382.22 )">A</text><text style="&st18;" transform="matrix(&st16;  1093.94  347.66 )">7</text><text style="&st18;" transform="matrix(&st16;  1102.48  347.66 )">B</text><text style="&st18;" transform="matrix(&st17;  1322.08  349.43 )">W-B</text><text style="&st18;" transform="matrix(&st17;  1296.59  349.43 )">W-B</text><text style="&st18;" transform="matrix(&st16;  1194.38  287.04 )">E1</text><text style="&st18;" transform="matrix(&st16;  1323.45  297.24 )">B</text><text style="&st18;" transform="matrix(&st16;  1310.97  297.24 )">23</text><text style="&st18;" transform="matrix(&st16;  1348.94  297.24 )">B</text><text style="&st18;" transform="matrix(&st16;  1337.25  297.24 )">21</text><text style="&st18;" transform="matrix(&st16;  1297.95  297.24 )">B</text><text style="&st18;" transform="matrix(&st16;  1285.48  297.24 )">43</text><text style="&st18;" transform="matrix(&st16;  1184.27  297.24 )">81</text><text style="&st18;" transform="matrix(&st16;  1195.97  297.24 )">B</text><text style="&st18;" transform="matrix(&st17;  1245.6  618.49 )">BR</text><text style="&st18;" transform="matrix(&st17;  1245.6  346.53 )">BR</text><text style="&st18;" transform="matrix(&st16;  1294.38  287.04 )">E01</text><text style="&st18;" transform="matrix(&st16;  1319.49  287.04 )">E04</text><text style="&st18;" transform="matrix(&st16;  1344.99  287.04 )">E05</text><text style="&st18;" transform="matrix(&st17;  1441.06  420.55 )">B</text><text style="&st18;" transform="matrix(&st16;  1442.43  297.24 )">A</text><text style="&st18;" transform="matrix(&st16;  1437.62  287.04 )">SPD</text><text style="&st18;" transform="matrix(&st17;  1194.6  618.49 )">BR</text><text style="&st18;" transform="matrix(&st17;  1194.6  346.53 )">BR</text><text style="&st18;" transform="matrix(&st16;  1246.96  297.24 )">B</text><text style="&st18;" transform="matrix(&st16;  1234.49  297.24 )">42</text><text style="&st18;" transform="matrix(&st16;  1243.0  287.04 )">E02</text><text style="&st18;" transform="matrix(&st17;  1271.09  621.38 )">W-B</text><text style="&st18;" transform="matrix(&st17;  1220.1  621.38 )">W-B</text><text style="&st18;" transform="matrix(&st17;  1271.09  349.43 )">W-B</text><text style="&st18;" transform="matrix(&st17;  1220.1  349.43 )">W-B</text><text style="&st18;" transform="matrix(&st16;  1272.46  297.24 )">B</text><text style="&st18;" transform="matrix(&st16;  1259.98  297.24 )">46</text><text style="&st18;" transform="matrix(&st16;  1221.46  297.24 )">B</text><text style="&st18;" transform="matrix(&st16;  1208.99  297.24 )">82</text><text style="&st18;" transform="matrix(&st16;  1215.0  287.04 )">ME01</text><text style="&st18;" transform="matrix(&st16;  1268.5  287.04 )">E03</text><text style="&st18;" transform="matrix(&st16;  1430.73  297.24 )">13</text><text style="&st18;" transform="matrix(&st17;  1441.06  344.06 )">B</text><text style="&st18;" transform="matrix(&st16;  1426.77  381.94 )">18</text><text style="&st18;" transform="matrix(&st17;  1288.09  216.58 )">B</text><text style="&st18;" transform="matrix(&st16;  1221.46  125.57 )">B</text><text style="&st18;" transform="matrix(&st16;  1442.43  484.21 )">B</text><text style="&st18;" transform="matrix(&st16;  1433.88  484.21 )">2</text><text style="&st18;" transform="matrix(&st16;  1434.66  458.14 )">1</text><text style="&st18;" transform="matrix(&st16;  1442.43  458.14 )">B</text><text style="&st18;" transform="matrix(&st17;  1441.06  507.93 )">LG</text><text ewd:textID="13" style="&st18;" transform="matrix(&st17;  1467.97  480.23 )">Junction Connector</text><text style="&st18;" transform="matrix(&st17;  1460.87  480.23 )">H80(B)</text><text style="&st18;" transform="matrix(&st16;  1442.43  594.69 )">A</text><text style="&st18;" transform="matrix(&st16;  1430.7  594.69 )">16</text><text style="&st18;" transform="matrix(&st16;  1430.7  568.63 )">18</text><text style="&st18;" transform="matrix(&st16;  1442.43  568.63 )">A</text><text style="&st18;" transform="matrix(&st17;  1441.06  616.01 )">V</text><text ewd:textID="13" style="&st18;" transform="matrix(&st17;  1467.97  590.71 )">Junction Connector</text><text style="&st18;" transform="matrix(&st17;  1460.87  590.71 )">H77(A)</text><text style="&st18;" transform="matrix(&st17;  1137.92  624.71 )">z11(B)</text><text style="&st18;" transform="matrix(&st16;  1073.25  529.53 )">+ RES</text><text style="&st18;" transform="matrix(&st16;  1073.61  563.53 )">- SET</text><text style="&st18;" transform="matrix(&st16;  1069.51  597.52 )">CANCEL</text><text style="&st18;" transform="matrix(&st16;  1065.16  443.41 )">CCS</text><text style="&st18;" transform="matrix(&st16;  1059.99  297.24 )">A</text><text style="&st18;" transform="matrix(&st16;  1047.52  297.24 )">45</text><text style="&st18;" transform="matrix(&st16;  1055.05  287.04 )">CCS</text><text ewd:textID="9" style="&st18;" transform="matrix(&st17;  1145.03  624.71 )">Cruise Control Main Switch</text><text style="&st18;" transform="matrix(&st17;  1058.63  355.03 )">BR</text><text style="&st18;" transform="matrix(&st17;  1101.12  414.52 )">BR</text><text style="&st18;" transform="matrix(&st17;  1137.92  463.23 )">H54(A),z11(B)</text><text ewd:textID="17" style="&st18;" transform="matrix(&st17;  1145.03  463.23 )">Spiral Cable Sub-Assembly</text><text style="&st18;" transform="matrix(&st16;  1093.94  467.21 )">4</text><text style="&st18;" transform="matrix(&st16;  1102.48  467.21 )">B</text><text style="&st18;" transform="matrix(&st16;  1051.45  467.21 )">3</text><text style="&st18;" transform="matrix(&st16;  1059.99  467.21 )">B</text><text style="&st18;" transform="matrix(&st16;  1093.94  432.65 )">2</text><text style="&st18;" transform="matrix(&st16;  1102.48  432.65 )">A</text><text style="&st18;" transform="matrix(&st16;  1052.22  432.65 )">1</text><text style="&st18;" transform="matrix(&st16;  1059.99  432.65 )">A</text><text style="&st18;" transform="matrix(&st16;  1069.33  495.54 )">ON-OFF</text><text style="&st18;" transform="matrix(&st16;  1107.65  443.41 )">ECC</text><text style="&st18;" transform="matrix(&st17;  1058.63  411.69 )">L</text><text ewd:textID="10" style="&st18;" transform="matrix(&st17;  1126.62  584.1 )">Cruise Control Switch</text><text style="&st18;" transform="matrix(&st16;  1044.33  373.44 )">10</text><text style="&st18;" transform="matrix(&st16;  1235.43  274.29 )">ECM</text><text style="&st18;" transform="matrix(&st16;  1235.43  267.19 )">A27(A),D56(B)</text><text style="&st18;" transform="matrix(&st17;  1058.63  480.18 )">R</text><text style="&st18;" transform="matrix(&st17;  1101.12  480.04 )">B</text><text style="&st18;" transform="matrix(&st16;  1289.45  160.69 )">B</text><text style="&st18;" transform="matrix(&st16;  1285.71  32.08 )">(IG)</text><text ewd:textID="13" style="&st18;" transform="matrix(&st17;  1187.52  522.72 )">Junction Connector</text><text style="&st18;" transform="matrix(&st17;  1180.42  522.72 )">A61(A),D55(B)</text><text style="&st18;" transform="matrix(&st16;  1149.49  449.93 )">2</text><text style="&st18;" transform="matrix(&st17;  1160.61  414.52 )">BR</text><text style="&st18;" transform="matrix(&st17;  1160.61  618.49 )">BR</text><text style="&st18;" transform="matrix(&st16;  1289.45  195.26 )">A</text><text style="&st18;" transform="matrix(&st16;  1277.73  160.69 )">14</text><text style="&st18;" transform="matrix(&st17;  1373.08  349.43 )">W-B</text><text style="&st18;" transform="matrix(&st16;  1374.44  297.24 )">A</text><text style="&st18;" transform="matrix(&st16;  1362.74  297.24 )">31</text><text style="&st18;" transform="matrix(&st16;  1371.97  287.04 )">EC</text><text style="&st18;" transform="matrix(&st17;  1373.08  621.38 )">W-B</text><text style="&st18;" transform="matrix(&st16;  1254.34  660.98 )">W-B</text><text style="&st18;" transform="matrix(&st16;  1198.61  56.17 )">15A <tspan dy="6" x="0">STOP</tspan></text><text style="&st18;" transform="matrix(&st16;  1174.51  86.47 )">2</text><text style="&st18;" transform="matrix(&st16;  1179.71  109.99 )">1</text><text style="&st18;" transform="matrix(&st16;  1172.19  32.08 )">(BAT)</text><text style="&st18;" transform="matrix(&st17;  1177.61  131.24 )">L</text><text style="&st18;" transform="matrix(&st16;  1102.48  186.76 )">B</text><text style="&st18;" transform="matrix(&st16;  1093.94  186.76 )">8</text><text style="&st18;" transform="matrix(&st16;  1102.48  152.2 )">A</text><text style="&st18;" transform="matrix(&st16;  1090.76  152.2 )">12</text><text ewd:textID="13" style="&st18;" transform="matrix(&st17;  1128.03  182.78 )">Junction <tspan dy="6" x="0">Connector</tspan></text><text style="&st18;" transform="matrix(&st17;  1120.93  182.78 )">A48(A),A49(B)</text><text style="&st18;" transform="matrix(&st17;  1177.61  218.91 )">BE</text><text style="&st18;" transform="matrix(&st17;  1101.12  133.93 )">BE</text><text style="&st18;" transform="matrix(&st17;  1483.56  506.56 )">W</text><text style="&st18;" transform="matrix(&st17;  1483.56  345.08 )">W</text><text style="&st18;" transform="matrix(&st17;  1483.56  421.57 )">W</text><text style="&st18;" transform="matrix(&st16;  1478.0  287.04 )">CANL</text><text style="&st18;" transform="matrix(&st16;  1484.92  297.24 )">A</text><text style="&st18;" transform="matrix(&st16;  1473.97  297.24 )">11</text><text style="&st18;" transform="matrix(&st16;  1468.48  381.94 )">22</text><text style="&st18;" transform="matrix(&st16;  1477.28  485.9 )">15</text><text style="&st18;" transform="matrix(&st16;  1477.28  457.02 )">14</text><text style="&st18;" transform="matrix(&st17;  1418.38  480.23 )">A46</text><text ewd:textID="13" style="&st18;" transform="matrix(&st17;  1425.48  480.23 )">Junction Connector</text><text style="&st18;" transform="matrix(&st16;  1392.3  485.9 )">12</text><text style="&st18;" transform="matrix(&st16;  1392.3  457.02 )">10</text><text style="&st18;" transform="matrix(&st17;  1398.57  349.43 )">W-B</text><text style="&st18;" transform="matrix(&st16;  1399.93  297.24 )">A</text><text style="&st18;" transform="matrix(&st16;  1391.42  297.24 )">4</text><text style="&st18;" transform="matrix(&st16;  1394.11  287.04 )">ADJ1</text><text style="&st18;" transform="matrix(&st17;  1398.57  621.38 )">W-B</text><text style="&st18;" transform="matrix(&st17;  1409.9  351.87 )">(2WD)</text><text style="&st18;" transform="matrix(&st17;  1409.9  623.82 )">(2WD)</text></svg>