﻿<?xml version="1.0" encoding="utf-8"?>
<!DOCTYPE svg PUBLIC "-//W3C//DTD SVG 1.0//EN" "http://www.w3.org/TR/2001/REC-SVG-20010904/DTD/svg10.dtd"[
	<!ENTITY ns_flows "http://ns.adobe.com/Flows/1.0/">
	<!ENTITY ns_svg "http://www.w3.org/2000/svg">
	<!ENTITY ns_xlink "http://www.w3.org/1999/xlink">
	<!ENTITY st0 "font-size:7px;font-family:'MS-PGothic';adobe-font-script:japanese;">
	<!ENTITY st1 "font-size:6px;font-family:'ArialMT';">
	<!-- White fill  -->
	<!ENTITY st2 "fill:#FFFFFF;stroke:#000000; stroke-width:1.41;stroke-linecap:round;stroke-linejoin:round;">
	<!-- Yellow fill  -->
	<!ENTITY st3 "fill:#FFFFCC;stroke:#FFFFCC; stroke-width:0.1;stroke-linecap:round;stroke-linejoin:round;">
	<!-- Gray fill  -->
	<!ENTITY st4 "fill:#CCCCCC;stroke:#CCCCCC; stroke-width:0.1;stroke-linecap:round;stroke-linejoin:round;">
	<!-- Light-blue fill -->
	<!ENTITY st5 "fill:#CCECF4;stroke:#000000; stroke-width:1.133;stroke-linecap:round;stroke-linejoin:round;">
	<!ENTITY st6 "fill:none;stroke-linecap:butt; stroke-linejoin:round;">
	<!ENTITY st7 "fill:none;stroke:#000000;stroke-linecap:round;stroke-linejoin:round;">
	<!ENTITY st8 "enable-background:new    ;">
	<!-- Black fill -->
	<!ENTITY st9 "fill:#000000;stroke:#000000; stroke-linecap:round;stroke-linejoin:round;">
	<!-- SRS note   -->
	<!ENTITY st10 "font-size:9px;font-family:'ArialMT';">
	<!ENTITY st11 "font-size:9px;font-family:'Svg Symbol';">
	<!ENTITY st12 "font-size:6px;font-family:'Svg Symbol';">
	<!ENTITY st13 "fill:none;stroke:#ff0000;stroke-linecap:round;stroke-linejoin:round;">
	<!-- Yellow fill  -->
	<!ENTITY st14 "fill:#FFFF00;stroke:#FFFF00; stroke-width:0.1;stroke-linecap:round;stroke-linejoin:round;">
	<!ENTITY st15 "font-size:6px;font-family:'MS-PGothic';adobe-font-script:japanese;">
	<!ENTITY st16 "1.00 0.00 0.00 1.00">
	<!ENTITY st17 "0.00 -1.00 1.00 0.00">
	<!ENTITY st18 "font-size:6px;font-family:'Arial';">
	<!ENTITY st19 "font-size:9px;font-family:'Arial';">
	<!ENTITY st20 "font-size:6px;font-family:'MS-PGothic','MS PGothic';adobe-font-script:japanese;">
	<!ENTITY st21 "font-size:7px;font-family:'MS-PGothic','MS PGothic';adobe-font-script:japanese;">
	<!ATTLIST svg
		xmlns:ewd CDATA #FIXED "http://shcl.co.jp/ewd"
		xmlns:a CDATA #FIXED "http://ns.adobe.com/AdobeSVGViewerExtensions/3.0/"
		ewd:ver CDATA #IMPLIED
	>
	<!ATTLIST a
		ewd:lineID CDATA #IMPLIED
		ewd:groupID CDATA #IMPLIED
		ewd:figtype CDATA #IMPLIED
		ewd:code CDATA #IMPLIED
		ewd:figID CDATA #IMPLIED
		ewd:pinNo CDATA #IMPLIED
		ewd:comment CDATA #IMPLIED >
	<!ATTLIST g
		ewd:lineID CDATA #IMPLIED
		ewd:groupID CDATA #IMPLIED
		ewd:figtype CDATA #IMPLIED
		ewd:code CDATA #IMPLIED
		ewd:figID CDATA #IMPLIED
		ewd:pinNo CDATA #IMPLIED
		ewd:comment CDATA #IMPLIED >
	<!ATTLIST text
		ewd:textID CDATA #IMPLIED >
	<!ATTLIST title
		ewd:textID CDATA #IMPLIED >
]>
<!-- Generator: Shintec Hozumi YS   -->
<svg onload="call_execInitLoadProc_svg('system')" style="overflow:visible;  enable-background:new 0 0 666.261 710.000" viewBox="0 0 666.261 710.000" height="710.000" width="666.261" xml:space="preserve" ewd:ver="L2.1.2.9" xmlns="&ns_svg;" xmlns:a="http://ns.adobe.com/AdobeSVGViewerExtensions/3.0/" xmlns:ewd="http://shcl.co.jp/ewd" xmlns:xlink="&ns_xlink;">
<path d=" M  624.65,  316.23  L  616.15,  316.23 " style="stroke-width: 0.85 ;&st7; " /><path d=" M  633.13,  306.57  L  625.77,  310.82 " style="stroke-width: 0.85 ;&st7; " /><path d=" M  627.77,  314.29  L  635.13,  310.04 " style="stroke-width: 0.85 ;&st7; " /><path d=" M  620.40,   69.77  L  620.40,   95.27 " style="stroke-width: 0.85 ;&st7; " /><path d=" M  622.52,   95.27  L  618.27,   95.27 " style="stroke-width: 1.42 ;&st7; " /><path d=" M  622.52,  103.77  L  618.27,  103.77 " style="stroke-width: 1.42 ;&st7; " /><path d=" M  628.89,  180.26  L  620.40,  180.26 " style="stroke-width: 1.42 ;&st7; " /><path d=" M  611.90,  435.21  L  620.40,  435.21 " style="stroke-width: 1.42 ;&st7; " /><path d=" M  628.89,  520.20  L  620.40,  520.20 " style="stroke-width: 1.42 ;&st7; " /><path d=" M  624.65,  529.26  L  620.40,  525.01  L  616.15,  529.26 " style="stroke-width: 1.42 ;&st7; " /><path d=" M  624.65,  525.86  L  620.40,  521.61  L  616.15,  525.86 " style="stroke-width: 1.42 ;&st7; " /><path d=" M  624.65,  429.55  L  620.40,  433.80  L  616.15,  429.55 " style="stroke-width: 1.42 ;&st7; " /><path d=" M  616.15,  426.15  L  620.40,  430.40  L  624.65,  426.15 " style="stroke-width: 1.42 ;&st7; " /><path d=" M  620.40,  341.73  L  620.40,  282.24 " style="stroke-width: 0.85 ;&st7; " /><path d=" M  624.65,  185.92  L  620.40,  181.67  L  616.15,  185.92 " style="stroke-width: 1.42 ;&st7; " /><path d=" M  624.65,  189.32  L  620.40,  185.07  L  616.15,  189.32 " style="stroke-width: 1.42 ;&st7; " /><path d=" M  607.65,   35.78  L  607.65,   78.27  L  633.14,   78.27  L  633.14,   35.78  L  607.65,   35.78 " style="stroke-width: 1.42 ;&st7; " /><path d=" M  620.40,   90.37  L  617.56,   87.54  L  617.56,   91.79  L  620.40,   94.62  L  623.23,   91.79  L  623.23,   87.54  L  620.40,   90.37 " style="stroke-width: 0.28 ;&st9;" /><path d=" M  594.90,  282.24  L  594.90,  341.73  L  645.89,  341.73  L  645.89,  282.24  L  594.90,  282.24 " style="stroke-width: 1.42 ;&st7; " /><path d=" M  635.13,  310.04  L  632.80,  313.08  L  631.33,  310.54  L  635.13,  310.04  L  633.85,  310.78  L  632.87,  312.06  L  632.25,  310.99  L  633.85,  310.78  L  633.21,  311.15  L  632.90,  311.55  L  632.70,  311.22  L  633.21,  311.15 " style="stroke-width: 0.85 ;&st7; " /><path d=" M  633.13,  306.57  L  630.80,  309.61  L  629.33,  307.07  L  633.13,  306.57  L  631.85,  307.31  L  630.86,  308.59  L  630.24,  307.52  L  631.85,  307.31  L  631.21,  307.68  L  630.89,  308.08  L  630.70,  307.75  L  631.21,  307.68 " style="stroke-width: 0.85 ;&st7; " /><path d=" M  620.40,  316.23  L  614.73,  307.73  L  626.06,  307.73  L  620.40,  316.23 " style="stroke-width: 0.28 ;&st9;" /><path d=" M  620.40,   47.11  C  617.66    48.72   616.75    52.25   618.36    54.99 " style="stroke-width: 1.42 ;&st7; " /><path d=" M  618.36,   54.99  C  618.88    55.87   619.51    56.51   620.40    57.03 " style="stroke-width: 1.42 ;&st7; " /><path d=" M  620.40,   66.94  C  623.13    65.33   624.05    61.80   622.43    59.06 " style="stroke-width: 1.42 ;&st7; " /><path d=" M  622.43,   59.06  C  621.91    58.18   621.28    57.55   620.40    57.03 " style="stroke-width: 1.42 ;&st7; " /><path d=" M  621.81,   45.69  C  621.81    44.91   621.18    44.28   620.40    44.28 " style="stroke-width: 0.85 ;&st7; " /><path d=" M  620.40,   44.28  C  619.61    44.28   618.98    44.91   618.98    45.69 " style="stroke-width: 0.85 ;&st7; " /><path d=" M  618.98,   45.69  C  618.98    46.48   619.61    47.11   620.40    47.11 " style="stroke-width: 0.85 ;&st7; " /><path d=" M  620.40,   47.11  C  621.18    47.11   621.81    46.48   621.81    45.69 " style="stroke-width: 0.85 ;&st7; " /><path d=" M  621.81,   68.36  C  621.81    67.57   621.18    66.94   620.40    66.94 " style="stroke-width: 0.85 ;&st7; " /><path d=" M  620.40,   66.94  C  619.61    66.94   618.98    67.57   618.98    68.36 " style="stroke-width: 0.85 ;&st7; " /><path d=" M  618.98,   68.36  C  618.98    69.14   619.61    69.77   620.40    69.77 " style="stroke-width: 0.85 ;&st7; " /><path d=" M  620.40,   69.77  C  621.18    69.77   621.81    69.14   621.81    68.36 " style="stroke-width: 0.85 ;&st7; " /><path d=" M  618.27,   95.27  C  615.92    95.27   614.02    97.17   614.02    99.52 " style="stroke-width: 1.42 ;&st7; " /><path d=" M  614.02,   99.52  C  614.02   101.87   615.92   103.77   618.27   103.77 " style="stroke-width: 1.42 ;&st7; " /><path d=" M  622.52,  103.77  C  624.87   103.77   626.77   101.87   626.77    99.52 " style="stroke-width: 1.42 ;&st7; " /><path d=" M  626.77,   99.52  C  626.77    97.17   624.87    95.27   622.52    95.27 " style="stroke-width: 1.42 ;&st7; " /><text ewd:textID="6" style="&st18;" transform="matrix(&st17;  612.45  323.57 )">Charge</text><text style="&st18;" transform="matrix(&st16;  613.61  349.92 )">8</text><text style="&st18;" transform="matrix(&st16;  609.64  278.55 )">20</text><text style="&st18;" transform="matrix(&st16;  637.7  56.17 )">7.5A <tspan dy="6" x="0">MET</tspan></text><text style="&st18;" transform="matrix(&st16;  618.81  101.49 )">1</text><text style="&st18;" transform="matrix(&st16;  613.61  86.47 )">2</text><text style="&st18;" transform="matrix(&st16;  614.32  32.08 )">(IG)</text><text style="&st18;" transform="matrix(&st16;  602.4  177.98 )">15</text><text style="&st18;" transform="matrix(&st17;  616.7  142.42 )">BE</text><text style="&st18;" transform="matrix(&st17;  616.7  225.08 )">P</text><text style="&st18;" transform="matrix(&st16;  602.4  441.43 )">16</text><text style="&st18;" transform="matrix(&st17;  616.7  395.05 )">B</text><text style="&st18;" transform="matrix(&st17;  616.7  482.93 )">GR</text><text style="&st18;" transform="matrix(&st16;  605.58  517.92 )">6</text><text style="&st18;" transform="matrix(&st16;  541.58  609.99 )">B</text><text style="&st18;" transform="matrix(&st16;  623.23  338.04 )">CHG-</text><text style="&st18;" transform="matrix(&st16;  623.23  290.43 )">IG+</text><text ewd:textID="7" style="&st18;" transform="matrix(&st17;  660.61  344.25 )">Combination Meter Assembly</text><text style="&st18;" transform="matrix(&st17;  653.5  344.25 )">H37</text><text style="&st18;" transform="matrix(&st17;  616.7  548.02 )">B</text></svg>