﻿<?xml version="1.0" encoding="utf-8"?>
<!DOCTYPE svg PUBLIC "-//W3C//DTD SVG 1.0//EN" "http://www.w3.org/TR/2001/REC-SVG-20010904/DTD/svg10.dtd"[
	<!ENTITY ns_flows "http://ns.adobe.com/Flows/1.0/">
	<!ENTITY ns_svg "http://www.w3.org/2000/svg">
	<!ENTITY ns_xlink "http://www.w3.org/1999/xlink">
	<!ENTITY st0 "font-size:7px;font-family:'MS-PGothic';adobe-font-script:japanese;">
	<!ENTITY st1 "font-size:6px;font-family:'ArialMT';">
	<!-- White fill  -->
	<!ENTITY st2 "fill:#FFFFFF;stroke:#000000; stroke-width:1.41;stroke-linecap:round;stroke-linejoin:round;">
	<!-- Yellow fill  -->
	<!ENTITY st3 "fill:#FFFFCC;stroke:#FFFFCC; stroke-width:0.1;stroke-linecap:round;stroke-linejoin:round;">
	<!-- Gray fill  -->
	<!ENTITY st4 "fill:#CCCCCC;stroke:#CCCCCC; stroke-width:0.1;stroke-linecap:round;stroke-linejoin:round;">
	<!-- Light-blue fill -->
	<!ENTITY st5 "fill:#CCECF4;stroke:#000000; stroke-width:1.133;stroke-linecap:round;stroke-linejoin:round;">
	<!ENTITY st6 "fill:none;stroke-linecap:butt; stroke-linejoin:round;">
	<!ENTITY st7 "fill:none;stroke:#000000;stroke-linecap:round;stroke-linejoin:round;">
	<!ENTITY st8 "enable-background:new    ;">
	<!-- Black fill -->
	<!ENTITY st9 "fill:#000000;stroke:#000000; stroke-linecap:round;stroke-linejoin:round;">
	<!-- SRS note   -->
	<!ENTITY st10 "font-size:9px;font-family:'ArialMT';">
	<!ENTITY st11 "font-size:9px;font-family:'Svg Symbol';">
	<!ENTITY st12 "font-size:6px;font-family:'Svg Symbol';">
	<!ENTITY st13 "fill:none;stroke:#ff0000;stroke-linecap:round;stroke-linejoin:round;">
	<!-- Yellow fill  -->
	<!ENTITY st14 "fill:#FFFF00;stroke:#FFFF00; stroke-width:0.1;stroke-linecap:round;stroke-linejoin:round;">
	<!ENTITY st15 "font-size:6px;font-family:'MS-PGothic';adobe-font-script:japanese;">
	<!ENTITY st16 "1.00 0.00 0.00 1.00">
	<!ENTITY st17 "0.00 -1.00 1.00 0.00">
	<!ENTITY st18 "font-size:6px;font-family:'Arial';">
	<!ENTITY st19 "font-size:9px;font-family:'Arial';">
	<!ENTITY st20 "font-size:6px;font-family:'MS-PGothic','MS PGothic';adobe-font-script:japanese;">
	<!ENTITY st21 "font-size:7px;font-family:'MS-PGothic','MS PGothic';adobe-font-script:japanese;">
	<!ATTLIST svg
		xmlns:ewd CDATA #FIXED "http://shcl.co.jp/ewd"
		xmlns:a CDATA #FIXED "http://ns.adobe.com/AdobeSVGViewerExtensions/3.0/"
		ewd:ver CDATA #IMPLIED
	>
	<!ATTLIST a
		ewd:lineID CDATA #IMPLIED
		ewd:groupID CDATA #IMPLIED
		ewd:figtype CDATA #IMPLIED
		ewd:code CDATA #IMPLIED
		ewd:figID CDATA #IMPLIED
		ewd:pinNo CDATA #IMPLIED
		ewd:comment CDATA #IMPLIED >
	<!ATTLIST g
		ewd:lineID CDATA #IMPLIED
		ewd:groupID CDATA #IMPLIED
		ewd:figtype CDATA #IMPLIED
		ewd:code CDATA #IMPLIED
		ewd:figID CDATA #IMPLIED
		ewd:pinNo CDATA #IMPLIED
		ewd:comment CDATA #IMPLIED >
	<!ATTLIST text
		ewd:textID CDATA #IMPLIED >
	<!ATTLIST title
		ewd:textID CDATA #IMPLIED >
]>
<!-- Generator: Shintec Hozumi YS   -->
<svg onload="call_execInitLoadProc_svg('system')" style="overflow:visible;  enable-background:new 0 0 496.623 710.000" viewBox="0 0 496.623 710.000" height="710.000" width="496.623" xml:space="preserve" ewd:ver="L2.1.2.9" xmlns="&ns_svg;" xmlns:a="http://ns.adobe.com/AdobeSVGViewerExtensions/3.0/" xmlns:ewd="http://shcl.co.jp/ewd" xmlns:xlink="&ns_xlink;">
<path d=" M   59.49,   69.77  L   59.49,   95.27 " style="stroke-width: 0.85 ;&st7; " /><path d=" M   61.61,   95.27  L   57.37,   95.27 " style="stroke-width: 1.42 ;&st7; " /><path d=" M   61.61,  103.77  L   57.37,  103.77 " style="stroke-width: 1.42 ;&st7; " /><path d=" M   50.99,  494.70  L   59.49,  494.70 " style="stroke-width: 1.42 ;&st7; " /><path d=" M  144.48,  265.24  L  139.42,  253.88 " style="stroke-width: 1.42 ;&st7; " /><path d=" M  144.48,  265.24  L  149.54,  253.88 " style="stroke-width: 1.42 ;&st7; " /><path d=" M  178.47,  265.24  L  173.41,  253.88 " style="stroke-width: 1.42 ;&st7; " /><path d=" M  178.47,  265.24  L  183.53,  253.88 " style="stroke-width: 1.42 ;&st7; " /><path d=" M  271.95,  494.70  L  280.45,  494.70 " style="stroke-width: 1.42 ;&st7; " /><path d=" M  348.44,  503.20  L  339.94,  503.20 " style="stroke-width: 1.42 ;&st7; " /><path d=" M  348.44,  554.19  L  339.94,  554.19 " style="stroke-width: 1.42 ;&st7; " /><path d=" M  305.95,  188.75  L  297.45,  188.75 " style="stroke-width: 1.42 ;&st7; " /><path d=" M  356.94,  188.75  L  348.44,  188.75 " style="stroke-width: 1.42 ;&st7; " /><path d=" M  229.46,  494.70  L  237.96,  494.70 " style="stroke-width: 1.42 ;&st7; " /><path d=" M  344.19,  559.86  L  339.94,  555.61  L  335.69,  559.86 " style="stroke-width: 1.42 ;&st7; " /><path d=" M  344.19,  563.26  L  339.94,  559.01  L  335.69,  563.26 " style="stroke-width: 1.42 ;&st7; " /><path d=" M  457.73,  425.71  L  457.46,  426.18  L  457.37,  426.71  L  457.46,  427.25  L  457.73,  427.72  L  458.14,  428.06  L  458.65,  428.25  L  459.20,  428.25  L  459.70,  428.06  L  460.12,  427.72  L  460.39,  427.25  L  460.48,  426.71  L  460.39,  426.18  L  460.12,  425.71  L  459.70,  425.37  L  459.20,  425.18  L  458.65,  425.18  L  458.14,  425.37  L  457.73,  425.71  L  458.12,  426.42  L  458.12,  427.01  L  458.50,  427.45  L  459.07,  427.55  L  459.57,  427.26  L  459.77,  426.71  L  459.57,  426.17  L  459.07,  425.88  L  458.50,  425.98  L  458.92,  426.71 " style="stroke-width: 0.85 ;&st7; " /><path d=" M  398.24,  425.71  L  397.97,  426.18  L  397.88,  426.71  L  397.97,  427.25  L  398.24,  427.72  L  398.65,  428.06  L  399.16,  428.25  L  399.71,  428.25  L  400.21,  428.06  L  400.63,  427.72  L  400.90,  427.25  L  400.99,  426.71  L  400.90,  426.18  L  400.63,  425.71  L  400.21,  425.37  L  399.71,  425.18  L  399.16,  425.18  L  398.65,  425.37  L  398.24,  425.71  L  398.63,  426.42  L  398.63,  427.01  L  399.01,  427.45  L  399.58,  427.55  L  400.08,  427.26  L  400.28,  426.71  L  400.08,  426.17  L  399.58,  425.88  L  399.01,  425.98  L  399.43,  426.71 " style="stroke-width: 0.85 ;&st7; " /><path d=" M  338.75,  425.71  L  338.48,  426.18  L  338.38,  426.71  L  338.48,  427.25  L  338.75,  427.72  L  339.16,  428.06  L  339.67,  428.25  L  340.22,  428.25  L  340.72,  428.06  L  341.14,  427.72  L  341.41,  427.25  L  341.50,  426.71  L  341.41,  426.18  L  341.14,  425.71  L  340.72,  425.37  L  340.22,  425.18  L  339.67,  425.18  L  339.16,  425.37  L  338.75,  425.71  L  339.14,  426.42  L  339.14,  427.01  L  339.52,  427.45  L  340.09,  427.55  L  340.59,  427.26  L  340.79,  426.71  L  340.59,  426.17  L  340.09,  425.88  L  339.52,  425.98  L  339.94,  426.71 " style="stroke-width: 0.85 ;&st7; " /><path d=" M  177.05,  710.00  L  179.89,  710.00 " style="stroke-width: 0.85 ;&st7; " /><path d=" M  175.64,  707.17  L  181.30,  707.17 " style="stroke-width: 0.85 ;&st7; " /><path d=" M  174.22,  704.33  L  182.72,  704.33 " style="stroke-width: 0.85 ;&st7; " /><path d=" M  169.97,  701.50  L  186.97,  701.50 " style="stroke-width: 0.85 ;&st7; " /><path d=" M  178.47,  697.25  L  178.47,  701.50 " style="stroke-width: 0.85 ;&st7; " /><path d=" M  144.48,  418.22  L  178.47,  418.22  L  178.47,  426.71 " style="stroke-width: 0.85 ;&st7; " /><path d=" M   59.49,  562.69  L   59.49,  588.19 " style="stroke-width: 0.85 ;&st7; " /><path d=" M   50.99,  579.69  L   67.99,  579.69 " style="stroke-width: 1.13 ;&st7;stroke-dasharray:3, 1.5;" /><path d=" M   50.99,  571.19  L   67.99,  571.19 " style="stroke-width: 1.13 ;&st7;stroke-dasharray:3, 1.5;" /><path d=" M   50.99,  562.69  L   50.99,  588.19  L   67.99,  588.19  L   67.99,  562.69  L   50.99,  562.69 " style="stroke-width: 1.42 ;&st7; " /><path d=" M   59.49,  409.72  L   59.49,  435.21 " style="stroke-width: 0.85 ;&st7; " /><path d=" M   50.99,  426.71  L   67.99,  426.71 " style="stroke-width: 1.13 ;&st7;stroke-dasharray:3, 1.5;" /><path d=" M   50.99,  418.22  L   67.99,  418.22 " style="stroke-width: 1.13 ;&st7;stroke-dasharray:3, 1.5;" /><path d=" M   50.99,  409.72  L   50.99,  435.21  L   67.99,  435.21  L   67.99,  409.72  L   50.99,  409.72 " style="stroke-width: 1.42 ;&st7; " /><path d=" M  143.06,  710.00  L  145.89,  710.00 " style="stroke-width: 0.85 ;&st7; " /><path d=" M  141.64,  707.17  L  147.31,  707.17 " style="stroke-width: 0.85 ;&st7; " /><path d=" M  140.23,  704.33  L  148.73,  704.33 " style="stroke-width: 0.85 ;&st7; " /><path d=" M  135.98,  701.50  L  152.97,  701.50 " style="stroke-width: 0.85 ;&st7; " /><path d=" M  144.48,  697.25  L  144.48,  701.50 " style="stroke-width: 0.85 ;&st7; " /><path d=" M  135.98,  409.72  L  186.97,  409.72  L  186.97,  426.71  L  135.98,  426.71  L  135.98,  409.72 " style="stroke-width: 1.42 ;&st7; " /><path d=" M  144.48,  409.72  L  144.48,  426.71 " style="stroke-width: 0.85 ;&st7; " /><path d=" M  344.19,  508.87  L  339.94,  504.62  L  335.69,  508.87 " style="stroke-width: 1.42 ;&st7; " /><path d=" M  344.19,  512.27  L  339.94,  508.02  L  335.69,  512.27 " style="stroke-width: 1.42 ;&st7; " /><path d=" M   55.24,  485.64  L   59.49,  489.89  L   63.74,  485.64 " style="stroke-width: 1.42 ;&st7; " /><path d=" M   63.74,  489.04  L   59.49,  493.29  L   55.24,  489.04 " style="stroke-width: 1.42 ;&st7; " /><path d=" M   58.07,  710.00  L   60.91,  710.00 " style="stroke-width: 0.85 ;&st7; " /><path d=" M   56.66,  707.17  L   62.32,  707.17 " style="stroke-width: 0.85 ;&st7; " /><path d=" M   55.24,  704.33  L   63.74,  704.33 " style="stroke-width: 0.85 ;&st7; " /><path d=" M   50.99,  701.50  L   67.99,  701.50 " style="stroke-width: 0.85 ;&st7; " /><path d=" M   59.49,  697.25  L   59.49,  701.50 " style="stroke-width: 0.85 ;&st7; " /><path d=" M   59.49,   90.37  L   56.66,   87.54  L   56.66,   91.79  L   59.49,   94.62  L   62.32,   91.79  L   62.32,   87.54  L   59.49,   90.37 " style="stroke-width: 0.28 ;&st9;" /><path d=" M   72.24,   78.27  L   72.24,   35.78  L   46.74,   35.78  L   46.74,   78.27  L   72.24,   78.27 " style="stroke-width: 1.42 ;&st7; " /><path d=" M   42.49,  307.73  L   42.49,  358.73  L  416.43,  358.73  L  416.43,  307.73  L   42.49,  307.73 " style="stroke-width: 1.42 ;&st7; " /><path d=" M  339.94,  426.71  L  458.92,  426.71 " style="stroke-width: 0.85 ;&st7; " /><path d=" M  458.92,  418.22  L  458.92,  435.21 " style="stroke-width: 0.85 ;&st7; " /><path d=" M  399.43,  418.22  L  399.43,  426.71 " style="stroke-width: 0.85 ;&st7; " /><path d=" M  339.94,  418.22  L  339.94,  435.21 " style="stroke-width: 0.85 ;&st7; " /><path d=" M  143.28,  417.21  L  143.01,  417.68  L  142.92,  418.22  L  143.01,  418.75  L  143.28,  419.22  L  143.70,  419.56  L  144.20,  419.75  L  144.75,  419.75  L  145.25,  419.56  L  145.67,  419.22  L  145.94,  418.75  L  146.03,  418.22  L  145.94,  417.68  L  145.67,  417.21  L  145.25,  416.87  L  144.75,  416.68  L  144.20,  416.68  L  143.70,  416.87  L  143.28,  417.21  L  143.68,  417.92  L  143.68,  418.51  L  144.05,  418.95  L  144.62,  419.05  L  145.13,  418.76  L  145.33,  418.22  L  145.13,  417.67  L  144.62,  417.38  L  144.05,  417.48  L  144.48,  418.22 " style="stroke-width: 0.85 ;&st7; " /><path d=" M  284.70,  489.04  L  280.45,  493.29  L  276.20,  489.04 " style="stroke-width: 1.42 ;&st7; " /><path d=" M  276.20,  485.64  L  280.45,  489.89  L  284.70,  485.64 " style="stroke-width: 1.42 ;&st7; " /><path d=" M  280.45,  103.77  L  280.45,  137.76  L  365.44,  137.76  L  365.44,  103.77  L  280.45,  103.77 " style="stroke-width: 1.42 ;&st7; " /><path d=" M  322.95,  613.68  L  322.95,  647.68  L  356.94,  647.68  L  356.94,  613.68  L  322.95,  613.68 " style="stroke-width: 1.42 ;&st7; " /><path d=" M  220.96,  613.68  L  220.96,  647.68  L  297.45,  647.68  L  297.45,  613.68  L  220.96,  613.68 " style="stroke-width: 1.42 ;&st7; " /><path d=" M  441.93,  613.68  L  441.93,  647.68  L  475.92,  647.68  L  475.92,  613.68  L  441.93,  613.68 " style="stroke-width: 1.42 ;&st7; " /><path d=" M  182.72,  243.99  L  178.47,  239.75  L  163.60,  239.75  L  161.47,  235.50  L  159.35,  239.75  L  144.48,  239.75  L  140.23,  243.99 " style="stroke-width: 0.85 ;&st7; " /><path d=" M  301.70,  197.82  L  297.45,  193.57  L  293.20,  197.82 " style="stroke-width: 1.42 ;&st7; " /><path d=" M  301.70,  194.42  L  297.45,  190.17  L  293.20,  194.42 " style="stroke-width: 1.42 ;&st7; " /><path d=" M  382.44,  103.77  L  382.44,  137.76  L  475.92,  137.76  L  475.92,  103.77  L  382.44,  103.77 " style="stroke-width: 1.42 ;&st7; " /><path d=" M  398.24,  247.24  L  397.97,  247.71  L  397.88,  248.24  L  397.97,  248.78  L  398.24,  249.25  L  398.65,  249.59  L  399.16,  249.78  L  399.71,  249.78  L  400.21,  249.59  L  400.63,  249.25  L  400.90,  248.78  L  400.99,  248.24  L  400.90,  247.71  L  400.63,  247.24  L  400.21,  246.90  L  399.71,  246.71  L  399.16,  246.71  L  398.65,  246.90  L  398.24,  247.24  L  398.63,  247.95  L  398.63,  248.54  L  399.01,  248.98  L  399.58,  249.08  L  400.08,  248.79  L  400.28,  248.24  L  400.08,  247.70  L  399.58,  247.41  L  399.01,  247.51  L  399.43,  248.24 " style="stroke-width: 0.85 ;&st7; " /><path d=" M  399.43,  239.75  L  399.43,  256.74 " style="stroke-width: 0.85 ;&st7; " /><path d=" M  352.69,  197.82  L  348.44,  193.57  L  344.19,  197.82 " style="stroke-width: 1.42 ;&st7; " /><path d=" M  352.69,  194.42  L  348.44,  190.17  L  344.19,  194.42 " style="stroke-width: 1.42 ;&st7; " /><path d=" M  348.44,  239.75  L  348.44,  248.24  L  399.43,  248.24 " style="stroke-width: 0.85 ;&st7; " /><path d=" M  233.71,  485.64  L  237.96,  489.89  L  242.21,  485.64 " style="stroke-width: 1.42 ;&st7; " /><path d=" M  242.21,  489.04  L  237.96,  493.29  L  233.71,  489.04 " style="stroke-width: 1.42 ;&st7; " /><path d=" M  339.94,  239.75  L  339.94,  256.74  L  407.93,  256.74  L  407.93,  239.75  L  339.94,  239.75 " style="stroke-width: 1.42 ;&st7; " /><path d=" M  331.44,  418.22  L  331.44,  435.21  L  467.42,  435.21  L  467.42,  418.22  L  331.44,  418.22 " style="stroke-width: 1.42 ;&st7; " /><path d=" M   59.49,   47.11  C   56.75    48.72    55.84    52.25    57.45    54.99 " style="stroke-width: 1.42 ;&st7; " /><path d=" M   57.45,   54.99  C   57.97    55.87    58.61    56.51    59.49    57.03 " style="stroke-width: 1.42 ;&st7; " /><path d=" M   59.49,   66.94  C   62.23    65.33    63.14    61.80    61.53    59.06 " style="stroke-width: 1.42 ;&st7; " /><path d=" M   61.53,   59.06  C   61.01    58.18    60.37    57.55    59.49    57.03 " style="stroke-width: 1.42 ;&st7; " /><path d=" M   60.91,   45.69  C   60.91    44.91    60.27    44.28    59.49    44.28 " style="stroke-width: 0.85 ;&st7; " /><path d=" M   59.49,   44.28  C   58.71    44.28    58.07    44.91    58.07    45.69 " style="stroke-width: 0.85 ;&st7; " /><path d=" M   58.07,   45.69  C   58.07    46.48    58.71    47.11    59.49    47.11 " style="stroke-width: 0.85 ;&st7; " /><path d=" M   59.49,   47.11  C   60.27    47.11    60.91    46.48    60.91    45.69 " style="stroke-width: 0.85 ;&st7; " /><path d=" M   60.91,   68.36  C   60.91    67.57    60.27    66.94    59.49    66.94 " style="stroke-width: 0.85 ;&st7; " /><path d=" M   59.49,   66.94  C   58.71    66.94    58.07    67.57    58.07    68.36 " style="stroke-width: 0.85 ;&st7; " /><path d=" M   58.07,   68.36  C   58.07    69.14    58.71    69.77    59.49    69.77 " style="stroke-width: 0.85 ;&st7; " /><path d=" M   59.49,   69.77  C   60.27    69.77    60.91    69.14    60.91    68.36 " style="stroke-width: 0.85 ;&st7; " /><path d=" M   57.37,   95.27  C   55.02    95.27    53.12    97.17    53.12    99.52 " style="stroke-width: 1.42 ;&st7; " /><path d=" M   53.12,   99.52  C   53.12   101.87    55.02   103.77    57.37   103.77 " style="stroke-width: 1.42 ;&st7; " /><path d=" M   61.61,  103.77  C   63.96   103.77    65.86   101.87    65.86    99.52 " style="stroke-width: 1.42 ;&st7; " /><path d=" M   65.86,   99.52  C   65.86    97.17    63.96    95.27    61.61    95.27 " style="stroke-width: 1.42 ;&st7; " /><path d=" M   64.02,  405.18  C   64.02   402.68    61.99   400.65    59.49   400.65 " style="stroke-width: 1.42 ;&st7; " /><path d=" M   59.49,  400.65  C   56.99   400.65    54.96   402.68    54.96   405.18 " style="stroke-width: 1.42 ;&st7; " /><path d=" M   54.96,  405.18  C   54.96   407.69    56.99   409.72    59.49   409.72 " style="stroke-width: 1.42 ;&st7; " /><path d=" M   59.49,  409.72  C   61.99   409.72    64.02   407.69    64.02   405.18 " style="stroke-width: 1.42 ;&st7; " /><path d=" M   64.02,  439.75  C   64.02   437.24    61.99   435.21    59.49   435.21 " style="stroke-width: 1.42 ;&st7; " /><path d=" M   59.49,  435.21  C   56.99   435.21    54.96   437.24    54.96   439.75 " style="stroke-width: 1.42 ;&st7; " /><path d=" M   54.96,  439.75  C   54.96   442.25    56.99   444.28    59.49   444.28 " style="stroke-width: 1.42 ;&st7; " /><path d=" M   59.49,  444.28  C   61.99   444.28    64.02   442.25    64.02   439.75 " style="stroke-width: 1.42 ;&st7; " /><path d=" M   64.02,  558.16  C   64.02   555.66    61.99   553.63    59.49   553.63 " style="stroke-width: 1.42 ;&st7; " /><path d=" M   59.49,  553.63  C   56.99   553.63    54.96   555.66    54.96   558.16 " style="stroke-width: 1.42 ;&st7; " /><path d=" M   54.96,  558.16  C   54.96   560.66    56.99   562.69    59.49   562.69 " style="stroke-width: 1.42 ;&st7; " /><path d=" M   59.49,  562.69  C   61.99   562.69    64.02   560.66    64.02   558.16 " style="stroke-width: 1.42 ;&st7; " /><path d=" M   64.02,  592.72  C   64.02   590.22    61.99   588.19    59.49   588.19 " style="stroke-width: 1.42 ;&st7; " /><path d=" M   59.49,  588.19  C   56.99   588.19    54.96   590.22    54.96   592.72 " style="stroke-width: 1.42 ;&st7; " /><path d=" M   54.96,  592.72  C   54.96   595.22    56.99   597.25    59.49   597.25 " style="stroke-width: 1.42 ;&st7; " /><path d=" M   59.49,  597.25  C   61.99   597.25    64.02   595.22    64.02   592.72 " style="stroke-width: 1.42 ;&st7; " /><path d=" M  344.48,  609.15  C  344.48   606.65   342.45   604.62   339.94   604.62 " style="stroke-width: 1.42 ;&st7; " /><path d=" M  339.94,  604.62  C  337.44   604.62   335.41   606.65   335.41   609.15 " style="stroke-width: 1.42 ;&st7; " /><path d=" M  335.41,  609.15  C  335.41   611.65   337.44   613.68   339.94   613.68 " style="stroke-width: 1.42 ;&st7; " /><path d=" M  339.94,  613.68  C  342.45   613.68   344.48   611.65   344.48   609.15 " style="stroke-width: 1.42 ;&st7; " /><path d=" M  344.48,  600.09  C  344.48   597.58   342.45   595.55   339.94   595.55 " style="stroke-width: 1.42 ;&st7; " /><path d=" M  339.94,  595.55  C  337.44   595.55   335.41   597.58   335.41   600.09 " style="stroke-width: 1.42 ;&st7; " /><path d=" M  335.41,  600.09  C  335.41   602.59   337.44   604.62   339.94   604.62 " style="stroke-width: 1.42 ;&st7; " /><path d=" M  339.94,  604.62  C  342.45   604.62   344.48   602.59   344.48   600.09 " style="stroke-width: 1.42 ;&st7; " /><path d=" M  301.98,  142.29  C  301.98   139.79   299.95   137.76   297.45   137.76 " style="stroke-width: 1.42 ;&st7; " /><path d=" M  297.45,  137.76  C  294.95   137.76   292.92   139.79   292.92   142.29 " style="stroke-width: 1.42 ;&st7; " /><path d=" M  292.92,  142.29  C  292.92   144.80   294.95   146.83   297.45   146.83 " style="stroke-width: 1.42 ;&st7; " /><path d=" M  297.45,  146.83  C  299.95   146.83   301.98   144.80   301.98   142.29 " style="stroke-width: 1.42 ;&st7; " /><path d=" M  352.97,  142.29  C  352.97   139.79   350.95   137.76   348.44   137.76 " style="stroke-width: 1.42 ;&st7; " /><path d=" M  348.44,  137.76  C  345.94   137.76   343.91   139.79   343.91   142.29 " style="stroke-width: 1.42 ;&st7; " /><path d=" M  343.91,  142.29  C  343.91   144.80   345.94   146.83   348.44   146.83 " style="stroke-width: 1.42 ;&st7; " /><path d=" M  348.44,  146.83  C  350.95   146.83   352.97   144.80   352.97   142.29 " style="stroke-width: 1.42 ;&st7; " /><text style="&st18;" transform="matrix(&st17;  55.79  465.51 )">BR</text><text style="&st18;" transform="matrix(&st17;  140.78  468.41 )">W-B</text><text style="&st18;" transform="matrix(&st17;  336.25  480.18 )">R</text><text style="&st18;" transform="matrix(&st16;  139.25  355.03 )">CG</text><text style="&st18;" transform="matrix(&st16;  137.69  366.92 )">4</text><text style="&st18;" transform="matrix(&st16;  54.4  355.03 )">SG</text><text style="&st18;" transform="matrix(&st16;  44.68  500.92 )">2</text><text style="&st18;" transform="matrix(&st17;  55.79  529.25 )">BR</text><text style="&st18;" transform="matrix(&st16;  76.8  56.17 )">7.5A <tspan dy="6" x="0">OBD</tspan></text><text style="&st18;" transform="matrix(&st16;  54.54  101.49 )">DD</text><text style="&st18;" transform="matrix(&st16;  43.62  101.49 )">18</text><text style="&st18;" transform="matrix(&st16;  50.38  32.08 )">(BAT)</text><text style="&st18;" transform="matrix(&st17;  140.78  655.38 )">W-B</text><text style="&st18;" transform="matrix(&st16;  218.44  296.93 )">H19</text><text style="&st18;" transform="matrix(&st16;  394.13  355.03 )">SIL</text><text style="&st18;" transform="matrix(&st16;  392.64  366.92 )">7</text><text style="&st18;" transform="matrix(&st16;  52.71  315.37 )">BAT</text><text style="&st18;" transform="matrix(&st16;  134.73  315.37 )">CANH</text><text style="&st18;" transform="matrix(&st16;  169.22  315.37 )">CANL</text><text style="&st18;" transform="matrix(&st16;  49.52  304.04 )">16</text><text style="&st18;" transform="matrix(&st16;  137.69  304.04 )">6</text><text style="&st18;" transform="matrix(&st16;  168.5  304.04 )">14</text><text style="&st18;" transform="matrix(&st17;  55.79  212.33 )">P</text><text style="&st18;" transform="matrix(&st17;  395.74  388.88 )">BE</text><text style="&st18;" transform="matrix(&st17;  55.79  652.48 )">BR</text><text style="&st18;" transform="matrix(&st17;  276.76  482.44 )">LG</text><text style="&st18;" transform="matrix(&st16;  218.44  304.04 )">DLC3</text><text style="&st18;" transform="matrix(&st17;  55.79  389.02 )">BR</text><text style="&st18;" transform="matrix(&st17;  140.78  391.92 )">W-B</text><text style="&st18;" transform="matrix(&st16;  52.7  366.92 )">5</text><text ewd:textID="4" style="&st18;" transform="matrix(&st17;  201.69  429.24 )">Junction <tspan dy="6" x="0">Connector</tspan></text><text style="&st18;" transform="matrix(&st17;  194.58  429.24 )">H85</text><text style="&st18;" transform="matrix(&st16;  290.53  315.37 )">TAC</text><text style="&st18;" transform="matrix(&st16;  290.66  304.04 )">9</text><text style="&st18;" transform="matrix(&st16;  57.16  407.15 )">A</text><text style="&st18;" transform="matrix(&st16;  46.21  407.15 )">11</text><text style="&st18;" transform="matrix(&st16;  57.16  441.71 )">B</text><text style="&st18;" transform="matrix(&st16;  48.61  441.71 )">7</text><text style="&st18;" transform="matrix(&st16;  57.16  560.13 )">A</text><text style="&st18;" transform="matrix(&st16;  44.66  560.13 )">22</text><text style="&st18;" transform="matrix(&st16;  57.16  594.69 )">B</text><text style="&st18;" transform="matrix(&st16;  45.43  594.69 )">13</text><text ewd:textID="4" style="&st18;" transform="matrix(&st17;  82.71  437.74 )">Junction Connector</text><text style="&st18;" transform="matrix(&st17;  75.6  437.74 )">H86(A),H87(B)</text><text ewd:textID="4" style="&st18;" transform="matrix(&st17;  82.71  590.71 )">Junction Connector</text><text style="&st18;" transform="matrix(&st17;  75.6  590.71 )">A61(A),D55(B)</text><text style="&st18;" transform="matrix(&st17;  293.75  289.84 )">W</text><text style="&st18;" transform="matrix(&st16;  137.69  434.91 )">5</text><text style="&st18;" transform="matrix(&st16;  137.69  406.03 )">4</text><text style="&st18;" transform="matrix(&st17;  174.78  468.41 )">W-B</text><text style="&st18;" transform="matrix(&st17;  174.78  655.38 )">W-B</text><text style="&st18;" transform="matrix(&st16;  168.5  434.91 )">10</text><text style="&st18;" transform="matrix(&st16;  329.07  611.12 )">2</text><text style="&st18;" transform="matrix(&st16;  337.47  611.12 )">C</text><text style="&st18;" transform="matrix(&st16;  334.15  621.32 )">DIA</text><text ewd:textID="5" style="&st18;" transform="matrix(&st16;  320.42  662.39 )">Occupant <tspan dy="6" x="0">Detection ECU</tspan></text><text style="&st18;" transform="matrix(&st16;  320.42  655.29 )">P14(C),W6(A)</text><text style="&st18;" transform="matrix(&st16;  274.2  621.32 )">D/G</text><text ewd:textID="3" style="&st18;" transform="matrix(&st16;  226.94  662.39 )">ABS and Traction <tspan dy="6" x="0">Actuator Assembly</tspan></text><text style="&st18;" transform="matrix(&st16;  226.94  655.29 )">A19</text><text style="&st18;" transform="matrix(&st16;  456.45  621.32 )">D</text><text ewd:textID="7" style="&st18;" transform="matrix(&st16;  439.4  662.39 )">Transponder Key <tspan dy="6" x="0">ECU Assembly</tspan></text><text style="&st18;" transform="matrix(&st16;  439.4  655.29 )">H32</text><text style="&st18;" transform="matrix(&st17;  395.74  291.15 )">SB</text><text style="&st18;" transform="matrix(&st16;  389.47  304.04 )">13</text><text style="&st18;" transform="matrix(&st16;  394.84  315.37 )">TC</text><text style="&st18;" transform="matrix(&st16;  261.68  500.92 )">22</text><text style="&st18;" transform="matrix(&st16;  325.13  500.92 )">2</text><text style="&st18;" transform="matrix(&st16;  325.13  551.91 )">3</text><text style="&st18;" transform="matrix(&st16;  329.07  602.05 )">2</text><text style="&st18;" transform="matrix(&st16;  337.61  602.05 )">A</text><text style="&st18;" transform="matrix(&st17;  336.25  533.5 )">BR</text><text style="&st18;" transform="matrix(&st17;  302.25  550.5 )">BR</text><text style="&st18;" transform="matrix(&st17;  276.76  548.02 )">P</text><text style="&st18;" transform="matrix(&st17;  455.23  548.02 )">B</text><text style="&st18;" transform="matrix(&st17;  336.25  575.99 )">BR</text><text style="&st18;" transform="matrix(&st17;  347.58  534.88 )">(*3)</text><text style="&st18;" transform="matrix(&st17;  347.58  577.37 )">(*3)</text><text style="&st18;" transform="matrix(&st17;  313.59  551.88 )">(*4)</text><text style="&st18;" transform="matrix(&st16;  270.49  609.99 )">10</text><text style="&st18;" transform="matrix(&st16;  452.13  609.99 )">9</text><text style="&st18;" transform="matrix(&st17;  455.23  386.2 )">L</text><text ewd:textID="1" style="&st18;" transform="matrix(&st16;  405.41  46.25 )">* 3 :w/ Power Seat</text><text ewd:textID="2" style="&st18;" transform="matrix(&st16;  405.41  54.75 )">* 4 :w/o Power Seat</text><text ewd:textID="4" style="&st18;" transform="matrix(&st17;  160.62  232.36 )">Junction <tspan dy="6" x="-0.01">Connector</tspan></text><text style="&st18;" transform="matrix(&st16;  280.23  186.47 )">11</text><text style="&st18;" transform="matrix(&st16;  333.63  186.47 )">5</text><text style="&st18;" transform="matrix(&st17;  174.77  289.84 )">W</text><text style="&st18;" transform="matrix(&st17;  140.78  288.82 )">V</text><text style="&st18;" transform="matrix(&st17;  344.75  212.33 )">B</text><text style="&st18;" transform="matrix(&st17;  344.75  165.73 )">R</text><text style="&st18;" transform="matrix(&st17;  395.74  166.61 )">W</text><text style="&st18;" transform="matrix(&st17;  455.23  165.24 )">L</text><text style="&st18;" transform="matrix(&st17;  293.75  166.61 )">W</text><text style="&st18;" transform="matrix(&st17;  293.75  213.36 )">W</text><text style="&st18;" transform="matrix(&st16;  392.64  145.96 )">3</text><text style="&st18;" transform="matrix(&st16;  448.96  145.96 )">10</text><text style="&st18;" transform="matrix(&st16;  288.05  134.07 )">TACH</text><text style="&st18;" transform="matrix(&st16;  343.85  134.07 )">TC</text><text style="&st18;" transform="matrix(&st16;  394.84  134.07 )">TC</text><text style="&st18;" transform="matrix(&st16;  453.62  134.07 )">SIL</text><text style="&st18;" transform="matrix(&st16;  283.39  144.26 )">15</text><text style="&st18;" transform="matrix(&st16;  295.12  144.26 )">A</text><text style="&st18;" transform="matrix(&st16;  334.39  144.26 )">16</text><text style="&st18;" transform="matrix(&st16;  346.11  144.26 )">A</text><text ewd:textID="6" style="&st18;" transform="matrix(&st16;  388.41  100.07 )">Tire Pressure Warning ECU</text><text style="&st18;" transform="matrix(&st16;  388.41  92.96 )">H40</text><text style="&st18;" transform="matrix(&st16;  286.43  100.07 )">ECM</text><text style="&st18;" transform="matrix(&st16;  286.43  92.96 )">A27(A)</text><text style="&st18;" transform="matrix(&st17;  234.26  386.98 )">G</text><text style="&st18;" transform="matrix(&st16;  227.99  366.92 )">12</text><text style="&st18;" transform="matrix(&st16;  233.51  355.03 )">TS</text><text style="&st18;" transform="matrix(&st16;  223.15  500.92 )">2</text><text style="&st18;" transform="matrix(&st16;  233.51  621.32 )">TS</text><text style="&st18;" transform="matrix(&st17;  234.26  549.05 )">W</text><text style="&st18;" transform="matrix(&st16;  231.17  609.99 )">7</text><text style="&st18;" transform="matrix(&st17;  234.26  480.46 )">G</text><text style="&st18;" transform="matrix(&st16;  345.92  611.12 )">(*4)</text><text style="&st18;" transform="matrix(&st16;  345.92  602.05 )">(*3)</text><text ewd:textID="4" style="&st18;" transform="matrix(&st17;  422.65  259.27 )">Junction <tspan dy="6" x="0">Connector</tspan></text><text style="&st18;" transform="matrix(&st17;  415.54  259.27 )">H118</text><text style="&st18;" transform="matrix(&st16;  388.69  264.94 )">20</text><text style="&st18;" transform="matrix(&st16;  338.47  236.06 )">21</text><text style="&st18;" transform="matrix(&st16;  388.69  236.06 )">22</text><text style="&st18;" transform="matrix(&st16;  329.98  414.53 )">14</text><text style="&st18;" transform="matrix(&st16;  389.47  414.53 )">15</text><text style="&st18;" transform="matrix(&st16;  448.96  414.53 )">13</text><text style="&st18;" transform="matrix(&st16;  329.98  443.41 )">17</text><text style="&st18;" transform="matrix(&st16;  448.96  443.41 )">12</text><text ewd:textID="4" style="&st18;" transform="matrix(&st17;  482.14  437.74 )">Junction <tspan dy="6" x="0">Connector</tspan></text><text style="&st18;" transform="matrix(&st17;  475.03  437.74 )">H118</text></svg>