﻿<?xml version="1.0" encoding="utf-8"?>
<!DOCTYPE svg PUBLIC "-//W3C//DTD SVG 1.0//EN" "http://www.w3.org/TR/2001/REC-SVG-20010904/DTD/svg10.dtd"[
	<!ENTITY ns_flows "http://ns.adobe.com/Flows/1.0/">
	<!ENTITY ns_svg "http://www.w3.org/2000/svg">
	<!ENTITY ns_xlink "http://www.w3.org/1999/xlink">
	<!ENTITY st0 "font-size:7px;font-family:'MS-PGothic';adobe-font-script:japanese;">
	<!ENTITY st1 "font-size:6px;font-family:'ArialMT';">
	<!-- White fill  -->
	<!ENTITY st2 "fill:#FFFFFF;stroke:#000000; stroke-width:1.41;stroke-linecap:round;stroke-linejoin:round;">
	<!-- Yellow fill  -->
	<!ENTITY st3 "fill:#FFFFCC;stroke:#FFFFCC; stroke-width:0.1;stroke-linecap:round;stroke-linejoin:round;">
	<!-- Gray fill  -->
	<!ENTITY st4 "fill:#CCCCCC;stroke:#CCCCCC; stroke-width:0.1;stroke-linecap:round;stroke-linejoin:round;">
	<!-- Light-blue fill -->
	<!ENTITY st5 "fill:#CCECF4;stroke:#000000; stroke-width:1.133;stroke-linecap:round;stroke-linejoin:round;">
	<!ENTITY st6 "fill:none;stroke-linecap:butt; stroke-linejoin:round;">
	<!ENTITY st7 "fill:none;stroke:#000000;stroke-linecap:round;stroke-linejoin:round;">
	<!ENTITY st8 "enable-background:new    ;">
	<!-- Black fill -->
	<!ENTITY st9 "fill:#000000;stroke:#000000; stroke-linecap:round;stroke-linejoin:round;">
	<!-- SRS note   -->
	<!ENTITY st10 "font-size:9px;font-family:'ArialMT';">
	<!ENTITY st11 "font-size:9px;font-family:'Svg Symbol';">
	<!ENTITY st12 "font-size:6px;font-family:'Svg Symbol';">
	<!ENTITY st13 "fill:none;stroke:#ff0000;stroke-linecap:round;stroke-linejoin:round;">
	<!-- Yellow fill  -->
	<!ENTITY st14 "fill:#FFFF00;stroke:#FFFF00; stroke-width:0.1;stroke-linecap:round;stroke-linejoin:round;">
	<!ENTITY st15 "font-size:6px;font-family:'MS-PGothic';adobe-font-script:japanese;">
	<!ENTITY st16 "1.00 0.00 0.00 1.00">
	<!ENTITY st17 "0.00 -1.00 1.00 0.00">
	<!ENTITY st18 "font-size:6px;font-family:'Arial';">
	<!ENTITY st19 "font-size:9px;font-family:'Arial';">
	<!ENTITY st20 "font-size:6px;font-family:'MS-PGothic','MS PGothic';adobe-font-script:japanese;">
	<!ENTITY st21 "font-size:7px;font-family:'MS-PGothic','MS PGothic';adobe-font-script:japanese;">
	<!ATTLIST svg
		xmlns:ewd CDATA #FIXED "http://shcl.co.jp/ewd"
		xmlns:a CDATA #FIXED "http://ns.adobe.com/AdobeSVGViewerExtensions/3.0/"
		ewd:ver CDATA #IMPLIED
	>
	<!ATTLIST a
		ewd:lineID CDATA #IMPLIED
		ewd:groupID CDATA #IMPLIED
		ewd:figtype CDATA #IMPLIED
		ewd:code CDATA #IMPLIED
		ewd:figID CDATA #IMPLIED
		ewd:pinNo CDATA #IMPLIED
		ewd:comment CDATA #IMPLIED >
	<!ATTLIST g
		ewd:lineID CDATA #IMPLIED
		ewd:groupID CDATA #IMPLIED
		ewd:figtype CDATA #IMPLIED
		ewd:code CDATA #IMPLIED
		ewd:figID CDATA #IMPLIED
		ewd:pinNo CDATA #IMPLIED
		ewd:comment CDATA #IMPLIED >
	<!ATTLIST text
		ewd:textID CDATA #IMPLIED >
	<!ATTLIST title
		ewd:textID CDATA #IMPLIED >
]>
<!-- Generator: Shintec Hozumi YS   -->
<svg onload="call_execInitLoadProc_svg('system')" style="overflow:visible;  enable-background:new 0 0 7725.917 710.000" viewBox="0 0 7725.917 710.000" height="710.000" width="7725.917" xml:space="preserve" ewd:ver="L2.1.2.9" xmlns="&ns_svg;" xmlns:a="http://ns.adobe.com/AdobeSVGViewerExtensions/3.0/" xmlns:ewd="http://shcl.co.jp/ewd" xmlns:xlink="&ns_xlink;">
<path d=" M 5600.56,  392.72  L 5668.55,  392.72  L 5668.55,  350.23  L 5592.07,  350.23  L 5592.07,  384.22 " style="stroke:#000000;stroke-width: 0.85 ;&st7;stroke-dasharray:3, 1.5;" /><path d=" M 5838.52,  188.75  L 5838.52,  197.25 " style="stroke-width: 0.85 ;&st7; " /><path d=" M 5838.52,  163.26  L 5838.52,  171.76 " style="stroke-width: 0.85 ;&st7; " /><path d=" M 5745.04,  188.75  L 5745.04,  197.25 " style="stroke-width: 0.85 ;&st7; " /><path d=" M 5745.04,  163.26  L 5745.04,  171.76 " style="stroke-width: 0.85 ;&st7; " /><path d=" M 5660.05,  435.21  L 5651.56,  435.21 " style="stroke-width: 1.42 ;&st7; " /><path d=" M 5626.06,  435.21  L 5617.56,  435.21 " style="stroke-width: 1.42 ;&st7; " /><path d=" M 5558.07,  435.21  L 5549.57,  435.21 " style="stroke-width: 1.42 ;&st7; " /><path d=" M 5524.08,  435.21  L 5515.58,  435.21 " style="stroke-width: 1.42 ;&st7; " /><path d=" M 5600.56,  389.19  L 5595.59,  384.22 " style="stroke-width: 1.42 ;&st7; " /><path d=" M 5583.57,  396.25  L 5588.54,  401.22 " style="stroke-width: 1.42 ;&st7; " /><path d=" M 5595.59,  401.22  L 5600.56,  396.25 " style="stroke-width: 1.42 ;&st7; " /><path d=" M 5588.54,  384.22  L 5583.57,  389.19 " style="stroke-width: 1.42 ;&st7; " /><path d=" M 5507.08,  346.70  L 5502.11,  341.73 " style="stroke-width: 1.42 ;&st7; " /><path d=" M 5502.11,  358.73  L 5507.08,  353.76 " style="stroke-width: 1.42 ;&st7; " /><path d=" M 5932.01,  188.75  L 5932.01,  197.25 " style="stroke-width: 0.85 ;&st7; " /><path d=" M 5932.01,  163.26  L 5932.01,  171.76 " style="stroke-width: 0.85 ;&st7; " /><path d=" M 5650.36,  485.20  L 5650.09,  485.67  L 5650.00,  486.20  L 5650.09,  486.74  L 5650.36,  487.21  L 5650.77,  487.55  L 5651.28,  487.74  L 5651.82,  487.74  L 5652.33,  487.55  L 5652.75,  487.21  L 5653.02,  486.74  L 5653.11,  486.20  L 5653.02,  485.67  L 5652.75,  485.20  L 5652.33,  484.86  L 5651.82,  484.67  L 5651.28,  484.67  L 5650.77,  484.86  L 5650.36,  485.20  L 5650.75,  485.91  L 5650.75,  486.50  L 5651.13,  486.94  L 5651.70,  487.04  L 5652.20,  486.75  L 5652.40,  486.20  L 5652.20,  485.66  L 5651.70,  485.37  L 5651.13,  485.47  L 5651.55,  486.20 " style="stroke-width: 0.85 ;&st7; " /><path d=" M 5638.81,  501.08  L 5630.31,  501.08  L 5630.31,  505.33  L 5638.81,  505.33  L 5638.81,  501.08 " style="stroke-width: 0.85 ;&st7; " /><path d=" M 5626.06,  528.70  L 5626.06,  477.71  L 5660.05,  477.71  L 5660.05,  528.70  L 5626.06,  528.70 " style="stroke-width: 1.42 ;&st7; " /><path d=" M 5650.36,  519.20  L 5650.09,  519.67  L 5650.00,  520.20  L 5650.09,  520.73  L 5650.36,  521.20  L 5650.77,  521.55  L 5651.28,  521.73  L 5651.82,  521.73  L 5652.33,  521.55  L 5652.75,  521.20  L 5653.02,  520.73  L 5653.11,  520.20  L 5653.02,  519.67  L 5652.75,  519.20  L 5652.33,  518.85  L 5651.82,  518.66  L 5651.28,  518.66  L 5650.77,  518.85  L 5650.36,  519.20  L 5650.75,  519.91  L 5650.75,  520.49  L 5651.13,  520.94  L 5651.70,  521.03  L 5652.20,  520.75  L 5652.40,  520.20  L 5652.20,  519.65  L 5651.70,  519.36  L 5651.13,  519.46  L 5651.55,  520.20 " style="stroke-width: 0.85 ;&st7; " /><path d=" M 5651.55,  520.20  L 5651.55,  528.70 " style="stroke-width: 0.85 ;&st7; " /><path d=" M 5847.02,  197.25  L 5847.02,  163.26  L 5830.02,  163.26  L 5830.02,  197.25  L 5847.02,  197.25 " style="stroke-width: 1.42 ;&st7; " /><path d=" M 5753.54,  197.25  L 5753.54,  163.26  L 5736.54,  163.26  L 5736.54,  197.25  L 5753.54,  197.25 " style="stroke-width: 1.42 ;&st7; " /><path d=" M 5651.55,  477.71  L 5651.55,  486.20 " style="stroke-width: 0.85 ;&st7; " /><path d=" M 5634.56,  509.58  L 5634.56,  520.20  L 5651.55,  520.20 " style="stroke-width: 0.85 ;&st7; " /><path d=" M 5634.56,  486.20  L 5634.56,  496.83 " style="stroke-width: 0.85 ;&st7; " /><path d=" M 5651.55,  486.20  L 5634.56,  486.20 " style="stroke-width: 0.85 ;&st7; " /><path d=" M 5651.55,  520.20  L 5651.55,  511.70  L 5648.72,  510.28  L 5654.39,  507.45  L 5648.72,  504.62  L 5654.39,  501.78  L 5648.72,  498.95  L 5654.39,  496.12  L 5651.55,  494.70  L 5651.55,  486.20 " style="stroke-width: 0.85 ;&st7; " /><path d=" M 5630.31,  496.83  L 5638.81,  496.83 " style="stroke-width: 0.85 ;&st7; " /><path d=" M 5630.31,  509.58  L 5638.81,  509.58 " style="stroke-width: 0.85 ;&st7; " /><path d=" M 5548.38,  485.20  L 5548.11,  485.67  L 5548.01,  486.20  L 5548.11,  486.74  L 5548.38,  487.21  L 5548.79,  487.55  L 5549.30,  487.74  L 5549.84,  487.74  L 5550.35,  487.55  L 5550.76,  487.21  L 5551.03,  486.74  L 5551.13,  486.20  L 5551.03,  485.67  L 5550.76,  485.20  L 5550.35,  484.86  L 5549.84,  484.67  L 5549.30,  484.67  L 5548.79,  484.86  L 5548.38,  485.20  L 5548.77,  485.91  L 5548.77,  486.50  L 5549.15,  486.94  L 5549.72,  487.04  L 5550.22,  486.75  L 5550.42,  486.20  L 5550.22,  485.66  L 5549.72,  485.37  L 5549.15,  485.47  L 5549.57,  486.20 " style="stroke-width: 0.85 ;&st7; " /><path d=" M 5536.82,  501.08  L 5528.32,  501.08  L 5528.32,  505.33  L 5536.82,  505.33  L 5536.82,  501.08 " style="stroke-width: 0.85 ;&st7; " /><path d=" M 5524.07,  528.70  L 5524.07,  477.71  L 5558.07,  477.71  L 5558.07,  528.70  L 5524.07,  528.70 " style="stroke-width: 1.42 ;&st7; " /><path d=" M 5548.38,  519.20  L 5548.11,  519.67  L 5548.01,  520.20  L 5548.11,  520.73  L 5548.38,  521.20  L 5548.79,  521.55  L 5549.30,  521.73  L 5549.84,  521.73  L 5550.35,  521.55  L 5550.76,  521.20  L 5551.03,  520.73  L 5551.13,  520.20  L 5551.03,  519.67  L 5550.76,  519.20  L 5550.35,  518.85  L 5549.84,  518.66  L 5549.30,  518.66  L 5548.79,  518.85  L 5548.38,  519.20  L 5548.77,  519.91  L 5548.77,  520.49  L 5549.15,  520.94  L 5549.72,  521.03  L 5550.22,  520.75  L 5550.42,  520.20  L 5550.22,  519.65  L 5549.72,  519.36  L 5549.15,  519.46  L 5549.57,  520.20 " style="stroke-width: 0.85 ;&st7; " /><path d=" M 5549.57,  520.20  L 5549.57,  528.70 " style="stroke-width: 0.85 ;&st7; " /><path d=" M 5549.57,  477.71  L 5549.57,  486.20 " style="stroke-width: 0.85 ;&st7; " /><path d=" M 5532.57,  509.58  L 5532.57,  520.20  L 5549.57,  520.20 " style="stroke-width: 0.85 ;&st7; " /><path d=" M 5532.57,  486.20  L 5532.57,  496.83 " style="stroke-width: 0.85 ;&st7; " /><path d=" M 5549.57,  486.20  L 5532.57,  486.20 " style="stroke-width: 0.85 ;&st7; " /><path d=" M 5549.57,  520.20  L 5549.57,  511.70  L 5546.74,  510.28  L 5552.40,  507.45  L 5546.74,  504.62  L 5552.40,  501.78  L 5546.74,  498.95  L 5552.40,  496.12  L 5549.57,  494.70  L 5549.57,  486.20 " style="stroke-width: 0.85 ;&st7; " /><path d=" M 5528.32,  496.83  L 5536.82,  496.83 " style="stroke-width: 0.85 ;&st7; " /><path d=" M 5528.32,  509.58  L 5536.82,  509.58 " style="stroke-width: 0.85 ;&st7; " /><path d=" M 5655.80,  440.88  L 5651.55,  436.63  L 5647.30,  440.88 " style="stroke-width: 1.42 ;&st7; " /><path d=" M 5655.80,  444.28  L 5651.55,  440.03  L 5647.30,  444.28 " style="stroke-width: 1.42 ;&st7; " /><path d=" M 5621.81,  440.88  L 5617.56,  436.63  L 5613.31,  440.88 " style="stroke-width: 1.42 ;&st7; " /><path d=" M 5621.81,  444.28  L 5617.56,  440.03  L 5613.31,  444.28 " style="stroke-width: 1.42 ;&st7; " /><path d=" M 5553.82,  444.28  L 5549.57,  440.03  L 5545.32,  444.28 " style="stroke-width: 1.42 ;&st7; " /><path d=" M 5553.82,  440.88  L 5549.57,  436.63  L 5545.32,  440.88 " style="stroke-width: 1.42 ;&st7; " /><path d=" M 5519.83,  444.28  L 5515.58,  440.03  L 5511.33,  444.28 " style="stroke-width: 1.42 ;&st7; " /><path d=" M 5519.83,  440.88  L 5515.58,  436.63  L 5511.33,  440.88 " style="stroke-width: 1.42 ;&st7; " /><path d=" M 5957.50,  697.25  L 5957.50,  701.50 " style="stroke-width: 0.85 ;&st7; " /><path d=" M 5949.00,  701.50  L 5966.00,  701.50 " style="stroke-width: 0.85 ;&st7; " /><path d=" M 5953.25,  704.33  L 5961.75,  704.33 " style="stroke-width: 0.85 ;&st7; " /><path d=" M 5954.67,  707.17  L 5960.33,  707.17 " style="stroke-width: 0.85 ;&st7; " /><path d=" M 5956.09,  710.00  L 5958.92,  710.00 " style="stroke-width: 0.85 ;&st7; " /><path d=" M 5770.53,  697.25  L 5770.53,  701.50 " style="stroke-width: 0.85 ;&st7; " /><path d=" M 5762.03,  701.50  L 5779.03,  701.50 " style="stroke-width: 0.85 ;&st7; " /><path d=" M 5766.28,  704.33  L 5774.78,  704.33 " style="stroke-width: 0.85 ;&st7; " /><path d=" M 5767.70,  707.17  L 5773.37,  707.17 " style="stroke-width: 0.85 ;&st7; " /><path d=" M 5769.12,  710.00  L 5771.95,  710.00 " style="stroke-width: 0.85 ;&st7; " /><path d=" M 5872.52,  697.25  L 5872.52,  701.50 " style="stroke-width: 0.85 ;&st7; " /><path d=" M 5864.02,  701.50  L 5881.01,  701.50 " style="stroke-width: 0.85 ;&st7; " /><path d=" M 5868.27,  704.33  L 5876.77,  704.33 " style="stroke-width: 0.85 ;&st7; " /><path d=" M 5869.68,  707.17  L 5875.35,  707.17 " style="stroke-width: 0.85 ;&st7; " /><path d=" M 5871.10,  710.00  L 5873.93,  710.00 " style="stroke-width: 0.85 ;&st7; " /><path d=" M 5940.50,  197.25  L 5940.50,  163.26  L 5923.51,  163.26  L 5923.51,  197.25  L 5940.50,  197.25 " style="stroke-width: 1.42 ;&st7; " /><path d=" M 5974.50,  477.71  L 5974.50,  494.70  L 5991.50,  494.70  L 5991.50,  477.71  L 5974.50,  477.71 " style="stroke-width: 1.42 ;&st7; " /><path d=" M 5983.00,  477.71  L 5983.00,  494.70 " style="stroke-width: 0.85 ;&st7; " /><path d=" M 5742.51,  177.78  C 5743.88   179.17  5746.12   179.20  5747.52   177.83 " style="stroke-width: 0.85 ;&st7; " /><path d=" M 5747.52,  177.83  C 5748.92   176.46  5748.94   174.22  5747.57   172.82 " style="stroke-width: 0.85 ;&st7; " /><path d=" M 5747.57,  172.82  C 5746.88   172.11  5746.03   171.76  5745.04   171.76 " style="stroke-width: 0.85 ;&st7; " /><path d=" M 5742.51,  182.73  C 5743.88   184.13  5746.12   184.15  5747.52   182.78 " style="stroke-width: 0.85 ;&st7; " /><path d=" M 5747.52,  182.78  C 5748.92   181.42  5748.94   179.17  5747.57   177.78 " style="stroke-width: 0.85 ;&st7; " /><path d=" M 5747.57,  177.78  C 5746.20   176.38  5743.96   176.36  5742.56   177.73 " style="stroke-width: 0.85 ;&st7; " /><path d=" M 5742.56,  177.73  C 5742.54   177.74  5742.53   177.76  5742.51   177.78 " style="stroke-width: 0.85 ;&st7; " /><path d=" M 5745.04,  188.75  C 5747.00   188.75  5748.58   187.17  5748.58   185.21 " style="stroke-width: 0.85 ;&st7; " /><path d=" M 5748.58,  185.21  C 5748.58   183.26  5747.00   181.67  5745.04   181.67 " style="stroke-width: 0.85 ;&st7; " /><path d=" M 5745.04,  181.67  C 5744.05   181.67  5743.20   182.03  5742.51   182.73 " style="stroke-width: 0.85 ;&st7; " /><path d=" M 5835.99,  177.78  C 5837.36   179.17  5839.61   179.20  5841.00   177.83 " style="stroke-width: 0.85 ;&st7; " /><path d=" M 5841.00,  177.83  C 5842.40   176.46  5842.42   174.22  5841.05   172.82 " style="stroke-width: 0.85 ;&st7; " /><path d=" M 5841.05,  172.82  C 5840.36   172.11  5839.52   171.76  5838.52   171.76 " style="stroke-width: 0.85 ;&st7; " /><path d=" M 5835.99,  182.73  C 5837.36   184.13  5839.61   184.15  5841.00   182.78 " style="stroke-width: 0.85 ;&st7; " /><path d=" M 5841.00,  182.78  C 5842.40   181.42  5842.42   179.17  5841.05   177.78 " style="stroke-width: 0.85 ;&st7; " /><path d=" M 5841.05,  177.78  C 5839.69   176.38  5837.44   176.36  5836.05   177.73 " style="stroke-width: 0.85 ;&st7; " /><path d=" M 5836.05,  177.73  C 5836.03   177.74  5836.01   177.76  5835.99   177.78 " style="stroke-width: 0.85 ;&st7; " /><path d=" M 5838.52,  188.75  C 5840.48   188.75  5842.07   187.17  5842.07   185.21 " style="stroke-width: 0.85 ;&st7; " /><path d=" M 5842.07,  185.21  C 5842.07   183.26  5840.48   181.67  5838.52   181.67 " style="stroke-width: 0.85 ;&st7; " /><path d=" M 5838.52,  181.67  C 5837.53   181.67  5836.69   182.03  5836.00   182.73 " style="stroke-width: 0.85 ;&st7; " /><path d=" M 5749.57,  260.71  C 5749.57   258.21  5747.54   256.18  5745.04   256.18 " style="stroke-width: 1.42 ;&st7; " /><path d=" M 5745.04,  256.18  C 5742.54   256.18  5740.51   258.21  5740.51   260.71 " style="stroke-width: 1.42 ;&st7; " /><path d=" M 5740.51,  260.71  C 5740.51   263.21  5742.54   265.24  5745.04   265.24 " style="stroke-width: 1.42 ;&st7; " /><path d=" M 5745.04,  265.24  C 5747.54   265.24  5749.57   263.21  5749.57   260.71 " style="stroke-width: 1.42 ;&st7; " /><path d=" M 5843.06,  260.71  C 5843.06   258.21  5841.03   256.18  5838.52   256.18 " style="stroke-width: 1.42 ;&st7; " /><path d=" M 5838.52,  256.18  C 5836.02   256.18  5833.99   258.21  5833.99   260.71 " style="stroke-width: 1.42 ;&st7; " /><path d=" M 5833.99,  260.71  C 5833.99   263.21  5836.02   265.24  5838.52   265.24 " style="stroke-width: 1.42 ;&st7; " /><path d=" M 5838.52,  265.24  C 5841.03   265.24  5843.06   263.21  5843.06   260.71 " style="stroke-width: 1.42 ;&st7; " /><path d=" M 5800.56,  260.71  C 5800.56   258.21  5798.53   256.18  5796.03   256.18 " style="stroke-width: 1.42 ;&st7; " /><path d=" M 5796.03,  256.18  C 5793.53   256.18  5791.50   258.21  5791.50   260.71 " style="stroke-width: 1.42 ;&st7; " /><path d=" M 5791.50,  260.71  C 5791.50   263.21  5793.53   265.24  5796.03   265.24 " style="stroke-width: 1.42 ;&st7; " /><path d=" M 5796.03,  265.24  C 5798.53   265.24  5800.56   263.21  5800.56   260.71 " style="stroke-width: 1.42 ;&st7; " /><path d=" M 5894.05,  260.71  C 5894.05   258.21  5892.02   256.18  5889.52   256.18 " style="stroke-width: 1.42 ;&st7; " /><path d=" M 5889.52,  256.18  C 5887.01   256.18  5884.98   258.21  5884.98   260.71 " style="stroke-width: 1.42 ;&st7; " /><path d=" M 5884.98,  260.71  C 5884.98   263.21  5887.01   265.24  5889.52   265.24 " style="stroke-width: 1.42 ;&st7; " /><path d=" M 5889.52,  265.24  C 5892.02   265.24  5894.05   263.21  5894.05   260.71 " style="stroke-width: 1.42 ;&st7; " /><path d=" M 5528.61,  260.71  C 5528.61   258.21  5526.58   256.18  5524.08   256.18 " style="stroke-width: 1.42 ;&st7; " /><path d=" M 5524.08,  256.18  C 5521.57   256.18  5519.54   258.21  5519.54   260.71 " style="stroke-width: 1.42 ;&st7; " /><path d=" M 5519.54,  260.71  C 5519.54   263.21  5521.57   265.24  5524.08   265.24 " style="stroke-width: 1.42 ;&st7; " /><path d=" M 5524.08,  265.24  C 5526.58   265.24  5528.61   263.21  5528.61   260.71 " style="stroke-width: 1.42 ;&st7; " /><path d=" M 5596.60,  260.71  C 5596.60   258.21  5594.57   256.18  5592.07   256.18 " style="stroke-width: 1.42 ;&st7; " /><path d=" M 5592.07,  256.18  C 5589.56   256.18  5587.53   258.21  5587.53   260.71 " style="stroke-width: 1.42 ;&st7; " /><path d=" M 5587.53,  260.71  C 5587.53   263.21  5589.56   265.24  5592.07   265.24 " style="stroke-width: 1.42 ;&st7; " /><path d=" M 5592.07,  265.24  C 5594.57   265.24  5596.60   263.21  5596.60   260.71 " style="stroke-width: 1.42 ;&st7; " /><path d=" M 5562.60,  260.71  C 5562.60   258.21  5560.57   256.18  5558.07   256.18 " style="stroke-width: 1.42 ;&st7; " /><path d=" M 5558.07,  256.18  C 5555.57   256.18  5553.54   258.21  5553.54   260.71 " style="stroke-width: 1.42 ;&st7; " /><path d=" M 5553.54,  260.71  C 5553.54   263.21  5555.57   265.24  5558.07   265.24 " style="stroke-width: 1.42 ;&st7; " /><path d=" M 5558.07,  265.24  C 5560.57   265.24  5562.60   263.21  5562.60   260.71 " style="stroke-width: 1.42 ;&st7; " /><path d=" M 5664.59,  260.71  C 5664.59   258.21  5662.56   256.18  5660.05   256.18 " style="stroke-width: 1.42 ;&st7; " /><path d=" M 5660.05,  256.18  C 5657.55   256.18  5655.52   258.21  5655.52   260.71 " style="stroke-width: 1.42 ;&st7; " /><path d=" M 5655.52,  260.71  C 5655.52   263.21  5657.55   265.24  5660.05   265.24 " style="stroke-width: 1.42 ;&st7; " /><path d=" M 5660.05,  265.24  C 5662.56   265.24  5664.59   263.21  5664.59   260.71 " style="stroke-width: 1.42 ;&st7; " /><path d=" M 5630.59,  260.71  C 5630.59   258.21  5628.56   256.18  5626.06   256.18 " style="stroke-width: 1.42 ;&st7; " /><path d=" M 5626.06,  256.18  C 5623.56   256.18  5621.53   258.21  5621.53   260.71 " style="stroke-width: 1.42 ;&st7; " /><path d=" M 5621.53,  260.71  C 5621.53   263.21  5623.56   265.24  5626.06   265.24 " style="stroke-width: 1.42 ;&st7; " /><path d=" M 5626.06,  265.24  C 5628.56   265.24  5630.59   263.21  5630.59   260.71 " style="stroke-width: 1.42 ;&st7; " /><path d=" M 5554.11,  329.26  C 5554.11   326.76  5552.08   324.73  5549.57   324.73 " style="stroke-width: 1.42 ;&st7; " /><path d=" M 5549.57,  324.73  C 5547.07   324.73  5545.04   326.76  5545.04   329.26 " style="stroke-width: 1.42 ;&st7; " /><path d=" M 5545.04,  329.26  C 5545.04   331.77  5547.07   333.80  5549.57   333.80 " style="stroke-width: 1.42 ;&st7; " /><path d=" M 5549.57,  333.80  C 5552.08   333.80  5554.11   331.77  5554.11   329.26 " style="stroke-width: 1.42 ;&st7; " /><path d=" M 5656.09,  329.26  C 5656.09   326.76  5654.06   324.73  5651.56   324.73 " style="stroke-width: 1.42 ;&st7; " /><path d=" M 5651.56,  324.73  C 5649.05   324.73  5647.02   326.76  5647.02   329.26 " style="stroke-width: 1.42 ;&st7; " /><path d=" M 5647.02,  329.26  C 5647.02   331.77  5649.05   333.80  5651.56   333.80 " style="stroke-width: 1.42 ;&st7; " /><path d=" M 5651.56,  333.80  C 5654.06   333.80  5656.09   331.77  5656.09   329.26 " style="stroke-width: 1.42 ;&st7; " /><path d=" M 5520.11,  329.26  C 5520.11   326.76  5518.08   324.73  5515.58   324.73 " style="stroke-width: 1.42 ;&st7; " /><path d=" M 5515.58,  324.73  C 5513.08   324.73  5511.05   326.76  5511.05   329.26 " style="stroke-width: 1.42 ;&st7; " /><path d=" M 5511.05,  329.26  C 5511.05   331.77  5513.08   333.80  5515.58   333.80 " style="stroke-width: 1.42 ;&st7; " /><path d=" M 5515.58,  333.80  C 5518.08   333.80  5520.11   331.77  5520.11   329.26 " style="stroke-width: 1.42 ;&st7; " /><path d=" M 5622.09,  329.26  C 5622.09   326.76  5620.06   324.73  5617.56   324.73 " style="stroke-width: 1.42 ;&st7; " /><path d=" M 5617.56,  324.73  C 5615.06   324.73  5613.03   326.76  5613.03   329.26 " style="stroke-width: 1.42 ;&st7; " /><path d=" M 5613.03,  329.26  C 5613.03   331.77  5615.06   333.80  5617.56   333.80 " style="stroke-width: 1.42 ;&st7; " /><path d=" M 5617.56,  333.80  C 5620.06   333.80  5622.09   331.77  5622.09   329.26 " style="stroke-width: 1.42 ;&st7; " /><path d=" M 5911.05,  329.26  C 5911.05   326.76  5909.02   324.73  5906.51   324.73 " style="stroke-width: 1.42 ;&st7; " /><path d=" M 5906.51,  324.73  C 5904.01   324.73  5901.98   326.76  5901.98   329.26 " style="stroke-width: 1.42 ;&st7; " /><path d=" M 5901.98,  329.26  C 5901.98   331.77  5904.01   333.80  5906.51   333.80 " style="stroke-width: 1.42 ;&st7; " /><path d=" M 5906.51,  333.80  C 5909.02   333.80  5911.05   331.77  5911.05   329.26 " style="stroke-width: 1.42 ;&st7; " /><path d=" M 5936.54,  329.26  C 5936.54   326.76  5934.51   324.73  5932.01   324.73 " style="stroke-width: 1.42 ;&st7; " /><path d=" M 5932.01,  324.73  C 5929.51   324.73  5927.48   326.76  5927.48   329.26 " style="stroke-width: 1.42 ;&st7; " /><path d=" M 5927.48,  329.26  C 5927.48   331.77  5929.51   333.80  5932.01   333.80 " style="stroke-width: 1.42 ;&st7; " /><path d=" M 5932.01,  333.80  C 5934.51   333.80  5936.54   331.77  5936.54   329.26 " style="stroke-width: 1.42 ;&st7; " /><path d=" M 5877.05,  329.26  C 5877.05   326.76  5875.02   324.73  5872.52   324.73 " style="stroke-width: 1.42 ;&st7; " /><path d=" M 5872.52,  324.73  C 5870.02   324.73  5867.99   326.76  5867.99   329.26 " style="stroke-width: 1.42 ;&st7; " /><path d=" M 5867.99,  329.26  C 5867.99   331.77  5870.02   333.80  5872.52   333.80 " style="stroke-width: 1.42 ;&st7; " /><path d=" M 5872.52,  333.80  C 5875.02   333.80  5877.05   331.77  5877.05   329.26 " style="stroke-width: 1.42 ;&st7; " /><path d=" M 5741.07,  329.26  C 5741.07   326.76  5739.04   324.73  5736.54   324.73 " style="stroke-width: 1.42 ;&st7; " /><path d=" M 5736.54,  324.73  C 5734.04   324.73  5732.01   326.76  5732.01   329.26 " style="stroke-width: 1.42 ;&st7; " /><path d=" M 5732.01,  329.26  C 5732.01   331.77  5734.04   333.80  5736.54   333.80 " style="stroke-width: 1.42 ;&st7; " /><path d=" M 5736.54,  333.80  C 5739.04   333.80  5741.07   331.77  5741.07   329.26 " style="stroke-width: 1.42 ;&st7; " /><path d=" M 5843.06,  329.26  C 5843.06   326.76  5841.03   324.73  5838.52   324.73 " style="stroke-width: 1.42 ;&st7; " /><path d=" M 5838.52,  324.73  C 5836.02   324.73  5833.99   326.76  5833.99   329.26 " style="stroke-width: 1.42 ;&st7; " /><path d=" M 5833.99,  329.26  C 5833.99   331.77  5836.02   333.80  5838.52   333.80 " style="stroke-width: 1.42 ;&st7; " /><path d=" M 5838.52,  333.80  C 5841.03   333.80  5843.06   331.77  5843.06   329.26 " style="stroke-width: 1.42 ;&st7; " /><path d=" M 5775.07,  329.26  C 5775.07   326.76  5773.04   324.73  5770.54   324.73 " style="stroke-width: 1.42 ;&st7; " /><path d=" M 5770.54,  324.73  C 5768.03   324.73  5766.00   326.76  5766.00   329.26 " style="stroke-width: 1.42 ;&st7; " /><path d=" M 5766.00,  329.26  C 5766.00   331.77  5768.03   333.80  5770.54   333.80 " style="stroke-width: 1.42 ;&st7; " /><path d=" M 5770.54,  333.80  C 5773.04   333.80  5775.07   331.77  5775.07   329.26 " style="stroke-width: 1.42 ;&st7; " /><path d=" M 5809.06,  329.26  C 5809.06   326.76  5807.03   324.73  5804.53   324.73 " style="stroke-width: 1.42 ;&st7; " /><path d=" M 5804.53,  324.73  C 5802.03   324.73  5800.00   326.76  5800.00   329.26 " style="stroke-width: 1.42 ;&st7; " /><path d=" M 5800.00,  329.26  C 5800.00   331.77  5802.03   333.80  5804.53   333.80 " style="stroke-width: 1.42 ;&st7; " /><path d=" M 5804.53,  333.80  C 5807.03   333.80  5809.06   331.77  5809.06   329.26 " style="stroke-width: 1.42 ;&st7; " /><path d=" M 5962.04,  329.26  C 5962.04   326.76  5960.01   324.73  5957.50   324.73 " style="stroke-width: 1.42 ;&st7; " /><path d=" M 5957.50,  324.73  C 5955.00   324.73  5952.97   326.76  5952.97   329.26 " style="stroke-width: 1.42 ;&st7; " /><path d=" M 5952.97,  329.26  C 5952.97   331.77  5955.00   333.80  5957.50   333.80 " style="stroke-width: 1.42 ;&st7; " /><path d=" M 5957.50,  333.80  C 5960.01   333.80  5962.04   331.77  5962.04   329.26 " style="stroke-width: 1.42 ;&st7; " /><path d=" M 5929.48,  177.78  C 5930.85   179.17  5933.09   179.20  5934.49   177.83 " style="stroke-width: 0.85 ;&st7; " /><path d=" M 5934.49,  177.83  C 5935.88   176.46  5935.91   174.22  5934.54   172.82 " style="stroke-width: 0.85 ;&st7; " /><path d=" M 5934.54,  172.82  C 5933.85   172.11  5933.00   171.76  5932.01   171.76 " style="stroke-width: 0.85 ;&st7; " /><path d=" M 5929.48,  182.73  C 5930.85   184.13  5933.09   184.15  5934.49   182.78 " style="stroke-width: 0.85 ;&st7; " /><path d=" M 5934.49,  182.78  C 5935.88   181.42  5935.91   179.17  5934.54   177.78 " style="stroke-width: 0.85 ;&st7; " /><path d=" M 5934.54,  177.78  C 5933.17   176.38  5930.93   176.36  5929.53   177.73 " style="stroke-width: 0.85 ;&st7; " /><path d=" M 5929.53,  177.73  C 5929.51   177.74  5929.50   177.76  5929.48   177.78 " style="stroke-width: 0.85 ;&st7; " /><path d=" M 5932.01,  188.75  C 5933.96   188.75  5935.55   187.17  5935.55   185.21 " style="stroke-width: 0.85 ;&st7; " /><path d=" M 5935.55,  185.21  C 5935.55   183.26  5933.96   181.67  5932.01   181.67 " style="stroke-width: 0.85 ;&st7; " /><path d=" M 5932.01,  181.67  C 5931.02   181.67  5930.17   182.03  5929.48   182.73 " style="stroke-width: 0.85 ;&st7; " /><path d=" M 5936.54,  260.71  C 5936.54   258.21  5934.51   256.18  5932.01   256.18 " style="stroke-width: 1.42 ;&st7; " /><path d=" M 5932.01,  256.18  C 5929.51   256.18  5927.48   258.21  5927.48   260.71 " style="stroke-width: 1.42 ;&st7; " /><path d=" M 5927.48,  260.71  C 5927.48   263.21  5929.51   265.24  5932.01   265.24 " style="stroke-width: 1.42 ;&st7; " /><path d=" M 5932.01,  265.24  C 5934.51   265.24  5936.54   263.21  5936.54   260.71 " style="stroke-width: 1.42 ;&st7; " /><path d=" M 5987.53,  260.71  C 5987.53   258.21  5985.50   256.18  5983.00   256.18 " style="stroke-width: 1.42 ;&st7; " /><path d=" M 5983.00,  256.18  C 5980.50   256.18  5978.47   258.21  5978.47   260.71 " style="stroke-width: 1.42 ;&st7; " /><path d=" M 5978.47,  260.71  C 5978.47   263.21  5980.50   265.24  5983.00   265.24 " style="stroke-width: 1.42 ;&st7; " /><path d=" M 5983.00,  265.24  C 5985.50   265.24  5987.53   263.21  5987.53   260.71 " style="stroke-width: 1.42 ;&st7; " /><path d=" M 5987.53,  329.26  C 5987.53   326.76  5985.50   324.73  5983.00   324.73 " style="stroke-width: 1.42 ;&st7; " /><path d=" M 5983.00,  324.73  C 5980.50   324.73  5978.47   326.76  5978.47   329.26 " style="stroke-width: 1.42 ;&st7; " /><path d=" M 5978.47,  329.26  C 5978.47   331.77  5980.50   333.80  5983.00   333.80 " style="stroke-width: 1.42 ;&st7; " /><path d=" M 5983.00,  333.80  C 5985.50   333.80  5987.53   331.77  5987.53   329.26 " style="stroke-width: 1.42 ;&st7; " /><text style="&st18;" transform="matrix(&st16;  5651.08  142.56 )">EPA2</text><text style="&st18;" transform="matrix(&st16;  5619.07  142.56 )">EPA</text><text style="&st18;" transform="matrix(&st16;  5582.95  142.56 )">VCP2</text><text style="&st18;" transform="matrix(&st16;  5548.6  142.56 )">VCPA</text><text style="&st18;" transform="matrix(&st16;  5515.11  142.56 )">VPA2</text><text style="&st18;" transform="matrix(&st17;  5656.36  210.55 )">BR</text><text style="&st18;" transform="matrix(&st17;  5622.36  210.41 )">BE</text><text style="&st18;" transform="matrix(&st17;  5588.37  208.08 )">V</text><text style="&st18;" transform="matrix(&st17;  5554.38  208.08 )">B</text><text style="&st18;" transform="matrix(&st17;  5520.38  210.48 )">LG</text><text style="&st18;" transform="matrix(&st16;  5653.27  154.45 )">2</text><text style="&st18;" transform="matrix(&st16;  5619.27  154.45 )">5</text><text style="&st18;" transform="matrix(&st16;  5586.05  154.45 )">1</text><text style="&st18;" transform="matrix(&st16;  5551.28  154.45 )">4</text><text style="&st18;" transform="matrix(&st16;  5517.29  154.45 )">3</text><text style="&st18;" transform="matrix(&st16;  5521.75  262.68 )">A</text><text style="&st18;" transform="matrix(&st16;  5509.27  262.68 )">56</text><text style="&st18;" transform="matrix(&st16;  5515.11  272.88 )">VPA2</text><text style="&st18;" transform="matrix(&st16;  5577.26  262.68 )">59</text><text style="&st18;" transform="matrix(&st16;  5555.74  262.68 )">A</text><text style="&st18;" transform="matrix(&st16;  5548.6  272.88 )">VCPA</text><text style="&st18;" transform="matrix(&st16;  5582.95  272.88 )">VCP2</text><text style="&st18;" transform="matrix(&st16;  5543.27  262.68 )">57</text><text style="&st18;" transform="matrix(&st16;  5589.73  262.68 )">A</text><text style="&st18;" transform="matrix(&st16;  5645.25  262.68 )">60</text><text style="&st18;" transform="matrix(&st16;  5651.08  272.88 )">EPA2</text><text style="&st18;" transform="matrix(&st16;  5657.72  262.68 )">A</text><text style="&st18;" transform="matrix(&st16;  5619.07  272.88 )">EPA</text><text style="&st18;" transform="matrix(&st16;  5611.26  262.68 )">58</text><text style="&st18;" transform="matrix(&st16;  5623.73  262.68 )">A</text><text style="&st18;" transform="matrix(&st17;  5834.83  237.57 )">L-B</text><text style="&st18;" transform="matrix(&st16;  5739.03  205.45 )">1</text><text style="&st18;" transform="matrix(&st16;  5738.25  159.57 )">2</text><text style="&st18;" transform="matrix(&st17;  5792.34  237.57 )">B-L</text><text style="&st18;" transform="matrix(&st16;  5832.51  205.45 )">1</text><text style="&st18;" transform="matrix(&st16;  5831.74  159.57 )">2</text><text style="&st18;" transform="matrix(&st17;  5741.34  233.58 )">B</text><text style="&st18;" transform="matrix(&st17;  5761.15  199.78 )">D26</text><text style="&st18;" transform="matrix(&st16;  5742.71  262.68 )">B</text><text style="&st18;" transform="matrix(&st16;  5730.24  262.68 )">58</text><text style="&st18;" transform="matrix(&st16;  5880.3  272.88 )">OC2-</text><text style="&st18;" transform="matrix(&st16;  5836.19  262.68 )">B</text><text style="&st18;" transform="matrix(&st16;  5823.72  262.68 )">52</text><text style="&st18;" transform="matrix(&st16;  5829.31  272.88 )">OC2+</text><text style="&st18;" transform="matrix(&st16;  5787.2  272.88 )">OC1-</text><text style="&st18;" transform="matrix(&st16;  5736.21  272.88 )">OC1+</text><text style="&st18;" transform="matrix(&st16;  5793.7  262.68 )">B</text><text style="&st18;" transform="matrix(&st16;  5781.23  262.68 )">57</text><text style="&st18;" transform="matrix(&st17;  5854.63  199.78 )">D27</text><text style="&st18;" transform="matrix(&st16;  5887.18  262.68 )">B</text><text style="&st18;" transform="matrix(&st16;  5875.49  262.68 )">51</text><text style="&st18;" transform="matrix(&st17;  5885.82  238.06 )">R-B</text><text ewd:textID="22" style="&st18;" transform="matrix(&st17;  5861.74  199.78 )">Cam Timing Oil Control Valve <tspan dy="6" x="0">(Bank 2 Intake Side)</tspan></text><text ewd:textID="20" style="&st18;" transform="matrix(&st17;  5768.26  199.78 )">Cam Timing Oil Control Valve <tspan dy="6" x="0">(Bank 1 Intake Side)</tspan></text><text style="&st18;" transform="matrix(&st16;  5645.54  474.02 )">1</text><text style="&st18;" transform="matrix(&st17;  5545.88  454.96 )">G</text><text style="&st18;" transform="matrix(&st17;  5613.87  455.56 )">W</text><text style="&st18;" transform="matrix(&st17;  5613.87  373.95 )">R</text><text style="&st18;" transform="matrix(&st17;  5545.88  373.8 )">B</text><text style="&st18;" transform="matrix(&st17;  5511.88  454.68 )">R</text><text style="&st18;" transform="matrix(&st17;  5647.86  454.54 )">B</text><text style="&st18;" transform="matrix(&st17;  5511.88  374.83 )">W</text><text style="&st18;" transform="matrix(&st17;  5588.37  377.27 )">(*1)</text><text style="&st18;" transform="matrix(&st16;  5943.65  299.79 )">ECM</text><text style="&st18;" transform="matrix(&st16;  5943.65  292.68 )">A27(A),D56(B)</text><text ewd:textID="1" style="&st18;" transform="matrix(&st16;  5598.04  37.75 )">* 1 :Shielded</text><text style="&st18;" transform="matrix(&st17;  5928.31  621.38 )">W-B</text><text style="&st18;" transform="matrix(&st17;  5902.82  621.38 )">W-B</text><text style="&st18;" transform="matrix(&st17;  5868.82  621.38 )">W-B</text><text style="&st18;" transform="matrix(&st17;  5928.31  366.43 )">W-B</text><text style="&st18;" transform="matrix(&st17;  5902.82  366.43 )">W-B</text><text style="&st18;" transform="matrix(&st17;  5868.82  366.43 )">W-B</text><text style="&st18;" transform="matrix(&st16;  5732.62  321.03 )">E1</text><text style="&st18;" transform="matrix(&st16;  5904.18  331.23 )">B</text><text style="&st18;" transform="matrix(&st16;  5891.71  331.23 )">23</text><text style="&st18;" transform="matrix(&st16;  5929.68  331.23 )">B</text><text style="&st18;" transform="matrix(&st16;  5917.98  331.23 )">21</text><text style="&st18;" transform="matrix(&st16;  5870.19  331.23 )">B</text><text style="&st18;" transform="matrix(&st16;  5857.71  331.23 )">43</text><text style="&st18;" transform="matrix(&st16;  5722.51  331.23 )">81</text><text style="&st18;" transform="matrix(&st16;  5734.21  331.23 )">B</text><text style="&st18;" transform="matrix(&st17;  5800.83  618.49 )">BR</text><text style="&st18;" transform="matrix(&st17;  5800.83  363.53 )">BR</text><text style="&st18;" transform="matrix(&st16;  5866.62  321.03 )">E01</text><text style="&st18;" transform="matrix(&st16;  5900.23  321.03 )">E04</text><text style="&st18;" transform="matrix(&st16;  5925.72  321.03 )">E05</text><text style="&st18;" transform="matrix(&st17;  5732.85  618.49 )">BR</text><text style="&st18;" transform="matrix(&st17;  5732.85  363.53 )">BR</text><text style="&st18;" transform="matrix(&st16;  5802.2  331.23 )">B</text><text style="&st18;" transform="matrix(&st16;  5789.73  331.23 )">42</text><text style="&st18;" transform="matrix(&st16;  5798.24  321.03 )">E02</text><text style="&st18;" transform="matrix(&st17;  5834.83  621.38 )">W-B</text><text style="&st18;" transform="matrix(&st17;  5766.84  621.38 )">W-B</text><text style="&st18;" transform="matrix(&st17;  5834.83  366.43 )">W-B</text><text style="&st18;" transform="matrix(&st17;  5766.84  366.43 )">W-B</text><text style="&st18;" transform="matrix(&st16;  5836.19  331.23 )">B</text><text style="&st18;" transform="matrix(&st16;  5823.72  331.23 )">46</text><text style="&st18;" transform="matrix(&st16;  5768.2  331.23 )">B</text><text style="&st18;" transform="matrix(&st16;  5755.73  331.23 )">82</text><text style="&st18;" transform="matrix(&st16;  5761.74  321.03 )">ME01</text><text style="&st18;" transform="matrix(&st16;  5832.24  321.03 )">E03</text><text style="&st18;" transform="matrix(&st16;  5813.83  652.48 )">W-B</text><text style="&st18;" transform="matrix(&st17;  5953.81  366.43 )">W-B</text><text style="&st18;" transform="matrix(&st16;  5955.17  331.23 )">A</text><text style="&st18;" transform="matrix(&st16;  5943.48  331.23 )">31</text><text style="&st18;" transform="matrix(&st16;  5952.7  321.03 )">EC</text><text style="&st18;" transform="matrix(&st17;  5953.81  621.38 )">W-B</text><text style="&st18;" transform="matrix(&st16;  5926.0  205.45 )">1</text><text style="&st18;" transform="matrix(&st16;  5925.22  159.57 )">2</text><text style="&st18;" transform="matrix(&st17;  5979.31  237.57 )">L-B</text><text style="&st18;" transform="matrix(&st17;  5928.31  238.59 )">L-W</text><text style="&st18;" transform="matrix(&st17;  5948.12  199.78 )">D28</text><text style="&st18;" transform="matrix(&st16;  5929.68  262.68 )">B</text><text style="&st18;" transform="matrix(&st16;  5917.2  262.68 )">56</text><text style="&st18;" transform="matrix(&st16;  5974.31  272.88 )">OE1-</text><text style="&st18;" transform="matrix(&st16;  5923.32  272.88 )">OE1+</text><text style="&st18;" transform="matrix(&st16;  5980.67  262.68 )">B</text><text style="&st18;" transform="matrix(&st16;  5968.2  262.68 )">55</text><text ewd:textID="19" style="&st18;" transform="matrix(&st17;  5955.23  199.78 )">Cam Timing Oil Control Valve <tspan dy="6" x="0">(Bank 1 Exhaust Side)</tspan></text><text style="&st18;" transform="matrix(&st17;  5647.86  374.23 )">G</text><text style="&st18;" transform="matrix(&st16;  5500.77  331.23 )">96</text><text style="&st18;" transform="matrix(&st16;  5513.25  331.23 )">B</text><text style="&st18;" transform="matrix(&st16;  5506.47  321.03 )">KNK3</text><text style="&st18;" transform="matrix(&st16;  5600.36  331.23 )">119</text><text style="&st18;" transform="matrix(&st16;  5615.23  331.23 )">B</text><text style="&st18;" transform="matrix(&st16;  5608.45  321.03 )">KNK4</text><text style="&st18;" transform="matrix(&st16;  5547.24  331.23 )">B</text><text style="&st18;" transform="matrix(&st16;  5534.77  331.23 )">95</text><text style="&st18;" transform="matrix(&st16;  5540.46  321.03 )">EKN3</text><text style="&st18;" transform="matrix(&st16;  5642.44  321.03 )">EKN4</text><text style="&st18;" transform="matrix(&st16;  5649.22  331.23 )">B</text><text style="&st18;" transform="matrix(&st16;  5634.35  331.23 )">118</text><text style="&st18;" transform="matrix(&st16;  5644.77  536.89 )">2</text><text style="&st18;" transform="matrix(&st16;  5543.56  474.02 )">1</text><text style="&st18;" transform="matrix(&st16;  5542.78  536.89 )">2</text><text style="&st18;" transform="matrix(&st17;  5565.68  531.22 )">b3</text><text ewd:textID="55" style="&st18;" transform="matrix(&st17;  5572.79  531.22 )">Knock Control Sensor <tspan dy="6" x="0">(Bank 1 Sensor 2)</tspan></text><text style="&st18;" transform="matrix(&st17;  5667.67  531.22 )">b4</text><text ewd:textID="57" style="&st18;" transform="matrix(&st17;  5674.77  531.22 )">Knock Control Sensor <tspan dy="6" x="0">(Bank 2 Sensor 2)</tspan></text><text style="&st18;" transform="matrix(&st16;  5636.74  432.93 )">7</text><text style="&st18;" transform="matrix(&st16;  5602.75  432.93 )">8</text><text style="&st18;" transform="matrix(&st16;  5534.76  432.93 )">3</text><text style="&st18;" transform="matrix(&st16;  5500.76  432.93 )">4</text><text style="&st18;" transform="matrix(&st17;  5588.37  423.02 )">BR</text><text style="&st18;" transform="matrix(&st17;  5999.11  497.23 )">A46</text><text style="&st18;" transform="matrix(&st16;  5973.03  502.9 )">12</text><text style="&st18;" transform="matrix(&st16;  5973.03  474.02 )">10</text><text style="&st18;" transform="matrix(&st17;  5979.31  366.43 )">W-B</text><text style="&st18;" transform="matrix(&st16;  5980.67  331.23 )">A</text><text style="&st18;" transform="matrix(&st16;  5972.15  331.23 )">4</text><text style="&st18;" transform="matrix(&st16;  5974.84  321.03 )">ADJ1</text><text style="&st18;" transform="matrix(&st17;  5979.31  621.38 )">W-B</text><text style="&st18;" transform="matrix(&st17;  5990.64  368.86 )">(2WD)</text><text style="&st18;" transform="matrix(&st17;  5990.64  623.82 )">(2WD)</text></svg>