﻿<?xml version="1.0" encoding="utf-8"?>
<!DOCTYPE svg PUBLIC "-//W3C//DTD SVG 1.0//EN" "http://www.w3.org/TR/2001/REC-SVG-20010904/DTD/svg10.dtd"[
	<!ENTITY ns_flows "http://ns.adobe.com/Flows/1.0/">
	<!ENTITY ns_svg "http://www.w3.org/2000/svg">
	<!ENTITY ns_xlink "http://www.w3.org/1999/xlink">
	<!ENTITY st0 "font-size:7px;font-family:'MS-PGothic';adobe-font-script:japanese;">
	<!ENTITY st1 "font-size:6px;font-family:'ArialMT';">
	<!-- White fill  -->
	<!ENTITY st2 "fill:#FFFFFF;stroke:#000000; stroke-width:1.41;stroke-linecap:round;stroke-linejoin:round;">
	<!-- Yellow fill  -->
	<!ENTITY st3 "fill:#FFFFCC;stroke:#FFFFCC; stroke-width:0.1;stroke-linecap:round;stroke-linejoin:round;">
	<!-- Gray fill  -->
	<!ENTITY st4 "fill:#CCCCCC;stroke:#CCCCCC; stroke-width:0.1;stroke-linecap:round;stroke-linejoin:round;">
	<!-- Light-blue fill -->
	<!ENTITY st5 "fill:#CCECF4;stroke:#000000; stroke-width:1.133;stroke-linecap:round;stroke-linejoin:round;">
	<!ENTITY st6 "fill:none;stroke-linecap:butt; stroke-linejoin:round;">
	<!ENTITY st7 "fill:none;stroke:#000000;stroke-linecap:round;stroke-linejoin:round;">
	<!ENTITY st8 "enable-background:new    ;">
	<!-- Black fill -->
	<!ENTITY st9 "fill:#000000;stroke:#000000; stroke-linecap:round;stroke-linejoin:round;">
	<!-- SRS note   -->
	<!ENTITY st10 "font-size:9px;font-family:'ArialMT';">
	<!ENTITY st11 "font-size:9px;font-family:'Svg Symbol';">
	<!ENTITY st12 "font-size:6px;font-family:'Svg Symbol';">
	<!ENTITY st13 "fill:none;stroke:#ff0000;stroke-linecap:round;stroke-linejoin:round;">
	<!-- Yellow fill  -->
	<!ENTITY st14 "fill:#FFFF00;stroke:#FFFF00; stroke-width:0.1;stroke-linecap:round;stroke-linejoin:round;">
	<!ENTITY st15 "font-size:6px;font-family:'MS-PGothic';adobe-font-script:japanese;">
	<!ENTITY st16 "1.00 0.00 0.00 1.00">
	<!ENTITY st17 "0.00 -1.00 1.00 0.00">
	<!ENTITY st18 "font-size:6px;font-family:'Arial';">
	<!ENTITY st19 "font-size:9px;font-family:'Arial';">
	<!ENTITY st20 "font-size:6px;font-family:'MS-PGothic','MS PGothic';adobe-font-script:japanese;">
	<!ENTITY st21 "font-size:7px;font-family:'MS-PGothic','MS PGothic';adobe-font-script:japanese;">
	<!ATTLIST svg
		xmlns:ewd CDATA #FIXED "http://shcl.co.jp/ewd"
		xmlns:a CDATA #FIXED "http://ns.adobe.com/AdobeSVGViewerExtensions/3.0/"
		ewd:ver CDATA #IMPLIED
	>
	<!ATTLIST a
		ewd:lineID CDATA #IMPLIED
		ewd:groupID CDATA #IMPLIED
		ewd:figtype CDATA #IMPLIED
		ewd:code CDATA #IMPLIED
		ewd:figID CDATA #IMPLIED
		ewd:pinNo CDATA #IMPLIED
		ewd:comment CDATA #IMPLIED >
	<!ATTLIST g
		ewd:lineID CDATA #IMPLIED
		ewd:groupID CDATA #IMPLIED
		ewd:figtype CDATA #IMPLIED
		ewd:code CDATA #IMPLIED
		ewd:figID CDATA #IMPLIED
		ewd:pinNo CDATA #IMPLIED
		ewd:comment CDATA #IMPLIED >
	<!ATTLIST text
		ewd:textID CDATA #IMPLIED >
	<!ATTLIST title
		ewd:textID CDATA #IMPLIED >
]>
<!-- Generator: Shintec Hozumi YS   -->
<svg onload="call_execInitLoadProc_svg('system')" style="overflow:visible;  enable-background:new 0 0 5180.884 710.000" viewBox="0 0 5180.884 710.000" height="710.000" width="5180.884" xml:space="preserve" ewd:ver="L2.1.2.9" xmlns="&ns_svg;" xmlns:a="http://ns.adobe.com/AdobeSVGViewerExtensions/3.0/" xmlns:ewd="http://shcl.co.jp/ewd" xmlns:xlink="&ns_xlink;">
<path d=" M 3875.35,  622.18  L 3875.35,  626.43 " style="stroke-width: 1.42 ;&st7; " /><path d=" M 3824.36,  651.93  L 3824.36,  656.18 " style="stroke-width: 1.42 ;&st7; " /><path d=" M 3832.86,  618.65  L 3827.89,  613.68 " style="stroke-width: 1.42 ;&st7; " /><path d=" M 3815.86,  625.71  L 3820.83,  630.68 " style="stroke-width: 1.42 ;&st7; " /><path d=" M 3827.89,  630.68  L 3832.86,  625.71 " style="stroke-width: 1.42 ;&st7; " /><path d=" M 3820.83,  613.68  L 3815.86,  618.65 " style="stroke-width: 1.42 ;&st7; " /><path d=" M 3832.86,  576.16  L 3827.89,  571.19 " style="stroke-width: 1.42 ;&st7; " /><path d=" M 3815.86,  583.22  L 3820.83,  588.19 " style="stroke-width: 1.42 ;&st7; " /><path d=" M 3827.89,  588.19  L 3832.86,  583.22 " style="stroke-width: 1.42 ;&st7; " /><path d=" M 3820.83,  571.19  L 3815.86,  576.16 " style="stroke-width: 1.42 ;&st7; " /><path d=" M 3832.86,  474.18  L 3827.89,  469.21 " style="stroke-width: 1.42 ;&st7; " /><path d=" M 3815.86,  481.24  L 3820.83,  486.20 " style="stroke-width: 1.42 ;&st7; " /><path d=" M 3827.89,  486.20  L 3832.86,  481.24 " style="stroke-width: 1.42 ;&st7; " /><path d=" M 3820.83,  469.21  L 3815.86,  474.18 " style="stroke-width: 1.42 ;&st7; " /><path d=" M 3832.86,  440.18  L 3827.89,  435.21 " style="stroke-width: 1.42 ;&st7; " /><path d=" M 3815.86,  447.24  L 3820.83,  452.21 " style="stroke-width: 1.42 ;&st7; " /><path d=" M 3827.89,  452.21  L 3832.86,  447.24 " style="stroke-width: 1.42 ;&st7; " /><path d=" M 3820.83,  435.21  L 3815.86,  440.18 " style="stroke-width: 1.42 ;&st7; " /><path d=" M 3832.86,  389.19  L 3827.89,  384.22 " style="stroke-width: 1.42 ;&st7; " /><path d=" M 3815.86,  396.25  L 3820.83,  401.22 " style="stroke-width: 1.42 ;&st7; " /><path d=" M 3827.89,  401.22  L 3832.86,  396.25 " style="stroke-width: 1.42 ;&st7; " /><path d=" M 3820.83,  384.22  L 3815.86,  389.19 " style="stroke-width: 1.42 ;&st7; " /><path d=" M 3832.86,  355.20  L 3827.89,  350.23 " style="stroke-width: 1.42 ;&st7; " /><path d=" M 3815.86,  362.26  L 3820.83,  367.22 " style="stroke-width: 1.42 ;&st7; " /><path d=" M 3827.89,  367.22  L 3832.86,  362.26 " style="stroke-width: 1.42 ;&st7; " /><path d=" M 3820.83,  350.23  L 3815.86,  355.20 " style="stroke-width: 1.42 ;&st7; " /><path d=" M 3764.87,  542.17  L 3759.90,  537.20 " style="stroke-width: 1.42 ;&st7; " /><path d=" M 3747.87,  549.22  L 3752.85,  554.19 " style="stroke-width: 1.42 ;&st7; " /><path d=" M 3759.90,  554.19  L 3764.87,  549.22 " style="stroke-width: 1.42 ;&st7; " /><path d=" M 3752.85,  537.20  L 3747.87,  542.17 " style="stroke-width: 1.42 ;&st7; " /><path d=" M 3977.34,  507.45  L 3977.34,  511.70 " style="stroke-width: 1.42 ;&st7; " /><path d=" M 3977.34,  371.47  L 3977.34,  375.72 " style="stroke-width: 1.42 ;&st7; " /><path d=" M 3820.83,  248.24  L 3815.86,  253.22 " style="stroke-width: 1.42 ;&st7; " /><path d=" M 3827.89,  265.24  L 3832.86,  260.27 " style="stroke-width: 1.42 ;&st7; " /><path d=" M 3815.86,  260.27  L 3820.83,  265.24 " style="stroke-width: 1.42 ;&st7; " /><path d=" M 3832.86,  253.22  L 3827.89,  248.24 " style="stroke-width: 1.42 ;&st7; " /><path d=" M 3820.83,  214.25  L 3815.86,  219.22 " style="stroke-width: 1.42 ;&st7; " /><path d=" M 3827.89,  231.25  L 3832.86,  226.28 " style="stroke-width: 1.42 ;&st7; " /><path d=" M 3815.86,  226.28  L 3820.83,  231.25 " style="stroke-width: 1.42 ;&st7; " /><path d=" M 3832.86,  219.22  L 3827.89,  214.25 " style="stroke-width: 1.42 ;&st7; " /><path d=" M 3820.83,  180.26  L 3815.86,  185.23 " style="stroke-width: 1.42 ;&st7; " /><path d=" M 3827.89,  197.25  L 3832.86,  192.28 " style="stroke-width: 1.42 ;&st7; " /><path d=" M 3815.86,  192.28  L 3820.83,  197.25 " style="stroke-width: 1.42 ;&st7; " /><path d=" M 3832.86,  185.23  L 3827.89,  180.26 " style="stroke-width: 1.42 ;&st7; " /><path d=" M 3977.34,  184.50  L 3977.34,  188.75 " style="stroke-width: 1.42 ;&st7; " /><path d=" M 3968.84,  282.24  L 3968.84,  286.49 " style="stroke-width: 1.42 ;&st7; " /><path d=" M 3764.87,  324.73  L 3764.87,  328.98 " style="stroke-width: 1.42 ;&st7; " /><path d=" M 3764.87,  358.73  L 3764.87,  362.97 " style="stroke-width: 1.42 ;&st7; " /><path d=" M 3909.35,  188.75  L 3926.34,  188.75 " style="stroke-width: 0.85 ;&st7; " /><path d=" M 3986.40,  193.00  L 3982.15,  188.75  L 3986.40,  184.50 " style="stroke-width: 1.42 ;&st7; " /><path d=" M 3983.00,  193.00  L 3978.75,  188.75  L 3983.00,  184.50 " style="stroke-width: 1.42 ;&st7; " /><path d=" M 3917.84,  188.75  L 3917.84,  477.71 " style="stroke-width: 0.85 ;&st7; " /><path d=" M 3535.41,  656.18  L 3535.41,  690.17  L 3620.39,  690.17  L 3620.39,  656.18  L 3535.41,  656.18 " style="stroke-width: 1.42 ;&st7; " /><path d=" M 3535.41,  503.20  L 3535.41,  537.20  L 3620.39,  537.20  L 3620.39,  503.20  L 3535.41,  503.20 " style="stroke-width: 1.42 ;&st7; " /><path d=" M 3535.41,  460.71  L 3535.41,  494.70  L 3620.39,  494.70  L 3620.39,  460.71  L 3535.41,  460.71 " style="stroke-width: 1.42 ;&st7; " /><path d=" M 3535.41,  341.73  L 3535.41,  367.22  L 3620.39,  367.22  L 3620.39,  341.73  L 3535.41,  341.73 " style="stroke-width: 1.42 ;&st7; " /><path d=" M 3535.41,  299.24  L 3535.41,  324.73  L 3620.39,  324.73  L 3620.39,  299.24  L 3535.41,  299.24 " style="stroke-width: 1.42 ;&st7; " /><path d=" M 3535.41,  231.25  L 3535.41,  256.74  L 3620.39,  256.74  L 3620.39,  231.25  L 3535.41,  231.25 " style="stroke-width: 1.42 ;&st7; " /><path d=" M 3535.41,  265.24  L 3535.41,  290.74  L 3620.39,  290.74  L 3620.39,  265.24  L 3535.41,  265.24 " style="stroke-width: 1.42 ;&st7; " /><path d=" M 3535.41,  426.71  L 3535.41,  452.21  L 3620.39,  452.21  L 3620.39,  426.71  L 3535.41,  426.71 " style="stroke-width: 1.42 ;&st7; " /><path d=" M 3535.41,  375.72  L 3535.41,  409.72  L 3620.39,  409.72  L 3620.39,  375.72  L 3535.41,  375.72 " style="stroke-width: 1.42 ;&st7; " /><path d=" M 3637.39,  316.23  L 3637.39,  375.72  L 3722.38,  375.72  L 3722.38,  316.23  L 3637.39,  316.23 " style="stroke-width: 1.42 ;&st7; " /><path d=" M 3637.39,  384.22  L 3637.39,  409.72  L 3722.38,  409.72  L 3722.38,  384.22  L 3637.39,  384.22 " style="stroke-width: 1.42 ;&st7; " /><path d=" M 3637.39,  435.21  L 3637.39,  494.70  L 3722.38,  494.70  L 3722.38,  435.21  L 3637.39,  435.21 " style="stroke-width: 1.42 ;&st7; " /><path d=" M 3866.29,  617.93  L 3870.53,  622.18  L 3866.29,  626.43 " style="stroke-width: 1.42 ;&st7; " /><path d=" M 3637.39,  647.68  L 3637.39,  673.17  L 3722.38,  673.17  L 3722.38,  647.68  L 3637.39,  647.68 " style="stroke-width: 1.42 ;&st7; " /><path d=" M 3869.69,  617.93  L 3873.93,  622.18  L 3869.69,  626.43 " style="stroke-width: 1.42 ;&st7; " /><path d=" M 3934.84,  697.25  L 3934.84,  701.50 " style="stroke-width: 0.85 ;&st7; " /><path d=" M 3926.34,  701.50  L 3943.34,  701.50 " style="stroke-width: 0.85 ;&st7; " /><path d=" M 3930.59,  704.33  L 3939.09,  704.33 " style="stroke-width: 0.85 ;&st7; " /><path d=" M 3932.01,  707.17  L 3937.67,  707.17 " style="stroke-width: 0.85 ;&st7; " /><path d=" M 3933.42,  710.00  L 3936.26,  710.00 " style="stroke-width: 0.85 ;&st7; " /><path d=" M 3637.39,  571.19  L 3637.39,  605.18  L 3722.38,  605.18  L 3722.38,  571.19  L 3637.39,  571.19 " style="stroke-width: 1.42 ;&st7; " /><path d=" M 3637.39,  613.68  L 3637.39,  639.18  L 3722.38,  639.18  L 3722.38,  613.68  L 3637.39,  613.68 " style="stroke-width: 1.42 ;&st7; " /><path d=" M 3833.42,  660.42  L 3829.18,  656.18  L 3833.42,  651.93 " style="stroke-width: 1.42 ;&st7; " /><path d=" M 3830.03,  660.42  L 3825.78,  656.18  L 3830.03,  651.93 " style="stroke-width: 1.42 ;&st7; " /><path d=" M 3637.39,  537.20  L 3637.39,  562.69  L 3722.38,  562.69  L 3722.38,  537.20  L 3637.39,  537.20 " style="stroke-width: 1.42 ;&st7; " /><path d=" M 3916.65,  187.75  L 3916.38,  188.22  L 3916.29,  188.75  L 3916.38,  189.29  L 3916.65,  189.76  L 3917.06,  190.10  L 3917.57,  190.29  L 3918.11,  190.29  L 3918.62,  190.10  L 3919.04,  189.76  L 3919.31,  189.29  L 3919.40,  188.75  L 3919.31,  188.22  L 3919.04,  187.75  L 3918.62,  187.41  L 3918.11,  187.22  L 3917.57,  187.22  L 3917.06,  187.41  L 3916.65,  187.75  L 3917.04,  188.46  L 3917.04,  189.05  L 3917.42,  189.49  L 3917.99,  189.59  L 3918.50,  189.30  L 3918.69,  188.75  L 3918.50,  188.21  L 3917.99,  187.92  L 3917.42,  188.02  L 3917.84,  188.75 " style="stroke-width: 0.85 ;&st7; " /><path d=" M 3916.65,  476.70  L 3916.38,  477.17  L 3916.29,  477.71  L 3916.38,  478.24  L 3916.65,  478.71  L 3917.06,  479.05  L 3917.57,  479.24  L 3918.11,  479.24  L 3918.62,  479.05  L 3919.04,  478.71  L 3919.31,  478.24  L 3919.40,  477.71  L 3919.31,  477.17  L 3919.04,  476.70  L 3918.62,  476.36  L 3918.11,  476.17  L 3917.57,  476.17  L 3917.06,  476.36  L 3916.65,  476.70  L 3917.04,  477.41  L 3917.04,  478.00  L 3917.42,  478.44  L 3917.99,  478.54  L 3918.50,  478.25  L 3918.69,  477.71  L 3918.50,  477.16  L 3917.99,  476.87  L 3917.42,  476.97  L 3917.84,  477.71 " style="stroke-width: 0.85 ;&st7; " /><path d=" M 3637.39,  503.20  L 3637.39,  528.70  L 3722.38,  528.70  L 3722.38,  503.20  L 3637.39,  503.20 " style="stroke-width: 1.42 ;&st7; " /><path d=" M 3917.84,  188.75  L 3917.84,  180.26 " style="stroke-width: 0.85 ;&st7; " /><path d=" M 3917.84,  282.24  L 3926.34,  282.24 " style="stroke-width: 0.85 ;&st7; " /><path d=" M 3637.39,  282.24  L 3637.39,  307.73  L 3722.38,  307.73  L 3722.38,  282.24  L 3637.39,  282.24 " style="stroke-width: 1.42 ;&st7; " /><path d=" M 3637.39,  248.24  L 3637.39,  273.74  L 3722.38,  273.74  L 3722.38,  248.24  L 3637.39,  248.24 " style="stroke-width: 1.42 ;&st7; " /><path d=" M 3637.39,  214.25  L 3637.39,  239.75  L 3722.38,  239.75  L 3722.38,  214.25  L 3637.39,  214.25 " style="stroke-width: 1.42 ;&st7; " /><path d=" M 3637.39,  180.26  L 3637.39,  205.75  L 3722.38,  205.75  L 3722.38,  180.26  L 3637.39,  180.26 " style="stroke-width: 1.42 ;&st7; " /><path d=" M 3637.39,  146.26  L 3637.39,  171.76  L 3722.38,  171.76  L 3722.38,  146.26  L 3637.39,  146.26 " style="stroke-width: 1.42 ;&st7; " /><path d=" M 3909.35,  477.71  L 3926.34,  477.71 " style="stroke-width: 0.85 ;&st7; " /><path d=" M 3997.16,  651.93  L 4001.41,  656.18  L 3997.16,  660.42 " style="stroke-width: 1.42 ;&st7; " /><path d=" M 3993.76,  651.93  L 3998.01,  656.18  L 3993.76,  660.42 " style="stroke-width: 1.42 ;&st7; " /><path d=" M 3926.34,  180.26  L 3926.34,  486.20  L 3909.35,  486.20  L 3909.35,  180.26  L 3926.34,  180.26 " style="stroke-width: 1.42 ;&st7; " /><path d=" M 3916.65,  408.71  L 3916.38,  409.18  L 3916.29,  409.72  L 3916.38,  410.25  L 3916.65,  410.72  L 3917.06,  411.07  L 3917.57,  411.25  L 3918.11,  411.25  L 3918.62,  411.07  L 3919.04,  410.72  L 3919.31,  410.25  L 3919.40,  409.72  L 3919.31,  409.18  L 3919.04,  408.71  L 3918.62,  408.37  L 3918.11,  408.18  L 3917.57,  408.18  L 3917.06,  408.37  L 3916.65,  408.71  L 3917.04,  409.43  L 3917.04,  410.01  L 3917.42,  410.45  L 3917.99,  410.55  L 3918.50,  410.26  L 3918.69,  409.72  L 3918.50,  409.17  L 3917.99,  408.88  L 3917.42,  408.98  L 3917.84,  409.72 " style="stroke-width: 0.85 ;&st7; " /><path d=" M 3926.34,  409.72  L 3917.84,  409.72 " style="stroke-width: 0.85 ;&st7; " /><path d=" M 3926.34,  375.72  L 3917.84,  375.72 " style="stroke-width: 0.85 ;&st7; " /><path d=" M 3916.65,  374.72  L 3916.38,  375.19  L 3916.29,  375.72  L 3916.38,  376.26  L 3916.65,  376.73  L 3917.06,  377.07  L 3917.57,  377.26  L 3918.11,  377.26  L 3918.62,  377.07  L 3919.04,  376.73  L 3919.31,  376.26  L 3919.40,  375.72  L 3919.31,  375.19  L 3919.04,  374.72  L 3918.62,  374.37  L 3918.11,  374.19  L 3917.57,  374.19  L 3917.06,  374.37  L 3916.65,  374.72  L 3917.04,  375.43  L 3917.04,  376.01  L 3917.42,  376.46  L 3917.99,  376.56  L 3918.50,  376.27  L 3918.69,  375.72  L 3918.50,  375.18  L 3917.99,  374.89  L 3917.42,  374.99  L 3917.84,  375.72 " style="stroke-width: 0.85 ;&st7; " /><path d=" M 3916.65,  281.24  L 3916.38,  281.71  L 3916.29,  282.24  L 3916.38,  282.77  L 3916.65,  283.24  L 3917.06,  283.59  L 3917.57,  283.77  L 3918.11,  283.77  L 3918.62,  283.59  L 3919.04,  283.24  L 3919.31,  282.77  L 3919.40,  282.24  L 3919.31,  281.71  L 3919.04,  281.24  L 3918.62,  280.89  L 3918.11,  280.70  L 3917.57,  280.70  L 3917.06,  280.89  L 3916.65,  281.24  L 3917.04,  281.95  L 3917.04,  282.53  L 3917.42,  282.97  L 3917.99,  283.07  L 3918.50,  282.79  L 3918.69,  282.24  L 3918.50,  281.69  L 3917.99,  281.40  L 3917.42,  281.50  L 3917.84,  282.24 " style="stroke-width: 0.85 ;&st7; " /><path d=" M 3917.84,  552.78  L 3917.84,  557.03 " style="stroke-width: 0.85 ;&st7; " /><path d=" M 3909.35,  557.03  L 3926.34,  557.03 " style="stroke-width: 0.85 ;&st7; " /><path d=" M 3913.59,  559.86  L 3922.09,  559.86 " style="stroke-width: 0.85 ;&st7; " /><path d=" M 3915.01,  562.69  L 3920.68,  562.69 " style="stroke-width: 0.85 ;&st7; " /><path d=" M 3916.43,  565.52  L 3919.26,  565.52 " style="stroke-width: 0.85 ;&st7; " /><path d=" M 3917.84,  486.20  L 3917.84,  537.20 " style="stroke-width: 0.85 ;&st7; " /><path d=" M 3986.40,  515.95  L 3982.15,  511.70  L 3986.40,  507.45 " style="stroke-width: 1.42 ;&st7; " /><path d=" M 3983.00,  515.95  L 3978.75,  511.70  L 3983.00,  507.45 " style="stroke-width: 1.42 ;&st7; " /><path d=" M 3983.00,  379.97  L 3978.75,  375.72  L 3983.00,  371.47 " style="stroke-width: 1.42 ;&st7; " /><path d=" M 3986.40,  379.97  L 3982.15,  375.72  L 3986.40,  371.47 " style="stroke-width: 1.42 ;&st7; " /><path d=" M 3959.77,  277.99  L 3964.02,  282.24  L 3959.77,  286.49 " style="stroke-width: 1.42 ;&st7; " /><path d=" M 3963.17,  277.99  L 3967.42,  282.24  L 3963.17,  286.49 " style="stroke-width: 1.42 ;&st7; " /><path d=" M 3917.84,  486.20  L 3917.84,  477.71 " style="stroke-width: 0.85 ;&st7; " /><path d=" M 3759.20,  320.48  L 3763.45,  324.73  L 3759.20,  328.98 " style="stroke-width: 1.42 ;&st7; " /><path d=" M 3755.80,  320.48  L 3760.05,  324.73  L 3755.80,  328.98 " style="stroke-width: 1.42 ;&st7; " /><path d=" M 3759.20,  354.48  L 3763.45,  358.73  L 3759.20,  362.97 " style="stroke-width: 1.42 ;&st7; " /><path d=" M 3755.80,  354.48  L 3760.05,  358.73  L 3755.80,  362.97 " style="stroke-width: 1.42 ;&st7; " /><path d=" M 3637.39,   78.27  L 3637.39,  137.76  L 3722.38,  137.76  L 3722.38,   78.27  L 3637.39,   78.27 " style="stroke-width: 1.42 ;&st7; " /><path d=" M 3637.39,   44.28  L 3637.39,   69.77  L 3722.38,   69.77  L 3722.38,   44.28  L 3637.39,   44.28 " style="stroke-width: 1.42 ;&st7; " /><path d=" M 3849.86,   44.28  L 3849.86,  129.26  L 3866.85,  129.26  L 3866.85,   44.28  L 3849.86,   44.28 " style="stroke-width: 1.42 ;&st7; " /><path d=" M 3849.86,   52.78  L 3858.35,   52.78  L 3858.35,  129.26 " style="stroke-width: 0.85 ;&st7; " /><path d=" M 3849.86,   86.77  L 3858.35,   86.77 " style="stroke-width: 0.85 ;&st7; " /><path d=" M 3849.86,  120.77  L 3858.35,  120.77 " style="stroke-width: 0.85 ;&st7; " /><path d=" M 3857.16,   85.77  L 3856.89,   86.24  L 3856.80,   86.77  L 3856.89,   87.30  L 3857.16,   87.77  L 3857.57,   88.12  L 3858.08,   88.31  L 3858.62,   88.31  L 3859.13,   88.12  L 3859.55,   87.77  L 3859.82,   87.30  L 3859.91,   86.77  L 3859.82,   86.24  L 3859.55,   85.77  L 3859.13,   85.42  L 3858.62,   85.24  L 3858.08,   85.24  L 3857.57,   85.42  L 3857.16,   85.77  L 3857.55,   86.48  L 3857.55,   87.06  L 3857.93,   87.51  L 3858.50,   87.61  L 3859.01,   87.32  L 3859.20,   86.77  L 3859.01,   86.22  L 3858.50,   85.94  L 3857.93,   86.03  L 3858.35,   86.77 " style="stroke-width: 0.85 ;&st7; " /><path d=" M 3857.16,  119.76  L 3856.89,  120.23  L 3856.80,  120.77  L 3856.89,  121.30  L 3857.16,  121.77  L 3857.57,  122.11  L 3858.08,  122.30  L 3858.62,  122.30  L 3859.13,  122.11  L 3859.55,  121.77  L 3859.82,  121.30  L 3859.91,  120.77  L 3859.82,  120.23  L 3859.55,  119.76  L 3859.13,  119.42  L 3858.62,  119.23  L 3858.08,  119.23  L 3857.57,  119.42  L 3857.16,  119.76  L 3857.55,  120.47  L 3857.55,  121.06  L 3857.93,  121.50  L 3858.50,  121.60  L 3859.01,  121.31  L 3859.20,  120.77  L 3859.01,  120.22  L 3858.50,  119.93  L 3857.93,  120.03  L 3858.35,  120.77 " style="stroke-width: 0.85 ;&st7; " /><text ewd:textID="51" style="&st18;" transform="matrix(&st16;  3562.63  476.84 )">Center Power <tspan dy="6" x="0">Point Socket </tspan><tspan dy="6" x="0">Assembly</tspan></text><text style="&st18;" transform="matrix(&st16;  3562.63  469.74 )">S2</text><text style="&st18;" transform="matrix(&st16;  3537.39  471.18 )">(E)</text><text ewd:textID="49" style="&st18;" transform="matrix(&st16;  3562.63  247.38 )">Center Airbag <tspan dy="6" x="0">Sensor Assembly</tspan></text><text style="&st18;" transform="matrix(&st16;  3562.63  240.27 )">H56</text><text ewd:textID="30" style="&st18;" transform="matrix(&st16;  3562.63  357.86 )">A/C Amplifier <tspan dy="6" x="0">Assembly</tspan></text><text style="&st18;" transform="matrix(&st16;  3562.63  350.76 )">H24</text><text style="&st18;" transform="matrix(&st16;  3537.39  352.2 )">(GND)</text><text ewd:textID="116" style="&st18;" transform="matrix(&st16;  3562.63  315.37 )">Integration Control <tspan dy="6" x="0">and Panel Assembly</tspan></text><text style="&st18;" transform="matrix(&st16;  3537.39  241.71 )">(E2)</text><text style="&st18;" transform="matrix(&st16;  3562.63  308.26 )">H45</text><text style="&st18;" transform="matrix(&st16;  3537.39  309.7 )">(GND)</text><text ewd:textID="187" style="&st18;" transform="matrix(&st16;  3562.63  281.37 )">Transponder Key <tspan dy="6" x="0">ECU Assembly</tspan></text><text style="&st18;" transform="matrix(&st16;  3562.63  274.27 )">H32</text><text style="&st18;" transform="matrix(&st16;  3537.39  275.71 )">(GND)</text><text style="&st18;" transform="matrix(&st16;  3502.21  236.05 )">W-B</text><text style="&st18;" transform="matrix(&st16;  3502.21  270.04 )">W-B</text><text style="&st18;" transform="matrix(&st16;  3502.21  304.04 )">W-B</text><text style="&st18;" transform="matrix(&st16;  3502.21  346.53 )">W-B</text><text style="&st18;" transform="matrix(&st16;  3502.21  465.51 )">W-B</text><text style="&st18;" transform="matrix(&st16;  3502.21  508.0 )">W-B</text><text ewd:textID="77" style="&st18;" transform="matrix(&st16;  3562.63  391.86 )">Front Power <tspan dy="6" x="0">Point Socket </tspan><tspan dy="6" x="0">Assembly</tspan></text><text style="&st18;" transform="matrix(&st16;  3562.63  384.75 )">H51</text><text style="&st18;" transform="matrix(&st16;  3537.39  386.19 )">(E)</text><text style="&st18;" transform="matrix(&st16;  3502.21  380.52 )">W-B</text><text style="&st18;" transform="matrix(&st16;  3707.11  326.7 )">(E2)</text><text ewd:textID="170" style="&st18;" transform="matrix(&st16;  3639.12  332.37 )">Seat Variable Cushion <tspan dy="6" x="0">Switch LH</tspan></text><text style="&st18;" transform="matrix(&st16;  3639.12  325.26 )">z14</text><text style="&st18;" transform="matrix(&st16;  3711.07  360.69 )">(E)</text><text style="&st18;" transform="matrix(&st16;  3711.07  394.69 )">(E)</text><text ewd:textID="79" style="&st18;" transform="matrix(&st16;  3639.12  400.35 )">Front Power Seat <tspan dy="6" x="0">Switch LH</tspan></text><text style="&st18;" transform="matrix(&st16;  3639.12  393.25 )">X3</text><text style="&st18;" transform="matrix(&st16;  3880.67  614.94 )">11</text><text style="&st18;" transform="matrix(&st16;  3711.07  445.68 )">(E)</text><text ewd:textID="75" style="&st18;" transform="matrix(&st16;  3639.12  451.35 )">Front Lumbar Power <tspan dy="6" x="0">Seat Switch LH</tspan></text><text style="&st18;" transform="matrix(&st16;  3639.12  444.24 )">X1</text><text style="&st18;" transform="matrix(&st16;  3707.11  479.67 )">(E2)</text><text style="&st18;" transform="matrix(&st16;  3711.07  658.14 )">(E)</text><text ewd:textID="152" style="&st18;" transform="matrix(&st16;  3639.12  663.81 )">Rear Door with Motor <tspan dy="6" x="0">Lock Assembly LH</tspan></text><text style="&st18;" transform="matrix(&st16;  3639.12  656.7 )">N11</text><text style="&st18;" transform="matrix(&st16;  3639.12  622.71 )">X12</text><text ewd:textID="84" style="&st18;" transform="matrix(&st16;  3639.12  629.82 )">Front Seat Heater <tspan dy="6" x="0">Control Sub-Assembly LH</tspan></text><text style="&st18;" transform="matrix(&st16;  3711.07  624.15 )">(E)</text><text style="&st18;" transform="matrix(&st16;  3700.33  581.66 )">(GND)</text><text ewd:textID="78" style="&st18;" transform="matrix(&st16;  3639.12  587.32 )">Front Power Seat <tspan dy="6" x="0">ECU and </tspan><tspan dy="6" x="0">Switch LH</tspan></text><text style="&st18;" transform="matrix(&st16;  3639.12  580.22 )">X10</text><text style="&st18;" transform="matrix(&st16;  3813.88  648.94 )">4</text><text style="&st18;" transform="matrix(&st16;  3731.67  321.03 )">W-B</text><text style="&st18;" transform="matrix(&st16;  3859.15  652.48 )">W-B</text><text style="&st18;" transform="matrix(&st17;  3820.67  383.42 )">W-B</text><text style="&st18;" transform="matrix(&st16;  3897.4  618.48 )">W-B</text><text style="&st18;" transform="matrix(&st16;  3842.16  618.48 )">W-B</text><text style="&st18;" transform="matrix(&st17;  3820.67  425.92 )">W-B</text><text style="&st18;" transform="matrix(&st16;  3757.17  652.48 )">W-B</text><text style="&st18;" transform="matrix(&st16;  3731.67  355.03 )">W-B</text><text style="&st18;" transform="matrix(&st16;  3757.17  618.48 )">W-B</text><text style="&st18;" transform="matrix(&st17;  3820.67  468.41 )">W-B</text><text style="&st18;" transform="matrix(&st16;  3757.17  575.99 )">W-B</text><text style="&st18;" transform="matrix(&st16;  3757.17  474.01 )">W-B</text><text style="&st18;" transform="matrix(&st17;  3820.67  536.4 )">W-B</text><text style="&st18;" transform="matrix(&st16;  3757.17  440.01 )">W-B</text><text style="&st18;" transform="matrix(&st16;  3757.17  389.02 )">W-B</text><text style="&st18;" transform="matrix(&st17;  3820.67  608.63 )">W-B</text><text ewd:textID="72" style="&st18;" transform="matrix(&st16;  3562.63  672.31 )">Front Blower <tspan dy="6" x="0">with Fan Motor </tspan><tspan dy="6" x="0">Sub-Assembly</tspan></text><text style="&st18;" transform="matrix(&st16;  3562.63  665.2 )">H41</text><text style="&st18;" transform="matrix(&st16;  3537.39  666.64 )">(GND)</text><text ewd:textID="50" style="&st18;" transform="matrix(&st16;  3562.63  519.33 )">Center Power <tspan dy="6" x="0">Outlet Socket </tspan><tspan dy="6" x="0">Assembly</tspan></text><text style="&st18;" transform="matrix(&st16;  3562.63  512.23 )">S3</text><text style="&st18;" transform="matrix(&st16;  3537.39  513.67 )">(E)</text><text ewd:textID="147" style="&st18;" transform="matrix(&st16;  3562.63  442.85 )">Rear A/C Control <tspan dy="6" x="0">Assembly</tspan></text><text style="&st18;" transform="matrix(&st16;  3562.63  435.74 )">S4</text><text style="&st18;" transform="matrix(&st16;  3537.39  437.18 )">(E)</text><text style="&st18;" transform="matrix(&st16;  3502.21  431.52 )">W-B</text><text style="&st18;" transform="matrix(&st16;  3990.88  185.06 )">W-B</text><text style="&st18;" transform="matrix(&st16;  3975.75  275.0 )">1</text><text style="&st18;" transform="matrix(&st16;  3929.18  278.55 )">3</text><text style="&st18;" transform="matrix(&st16;  3939.89  278.54 )">W-B</text><text style="&st18;" transform="matrix(&st16;  3973.88  652.48 )">W-B</text><text style="&st18;" transform="matrix(&st16;  3756.71  587.32 )">(*24)</text><text style="&st18;" transform="matrix(&st16;  3731.6  332.37 )">(*17)</text><text style="&st18;" transform="matrix(&st16;  3731.6  366.36 )">(*17)</text><text style="&st18;" transform="matrix(&st16;  3757.1  400.35 )">(*16)</text><text style="&st18;" transform="matrix(&st16;  3700.33  513.67 )">(GND)</text><text ewd:textID="168" style="&st18;" transform="matrix(&st16;  3639.12  519.33 )">Seat Cushion Climate <tspan dy="6" x="0">Control Blower LH</tspan></text><text style="&st18;" transform="matrix(&st16;  3639.12  512.23 )">X13</text><text style="&st18;" transform="matrix(&st16;  3727.43  508.0 )">W-B</text><text style="&st18;" transform="matrix(&st16;  3700.33  547.66 )">(GND)</text><text ewd:textID="166" style="&st18;" transform="matrix(&st16;  3639.12  553.33 )">Seat Back Climate <tspan dy="6" x="0">Control Blower LH</tspan></text><text style="&st18;" transform="matrix(&st16;  3639.12  546.22 )">X14</text><text style="&st18;" transform="matrix(&st16;  3727.43  542.0 )">W-B</text><text style="&st18;" transform="matrix(&st16;  3769.92  542.0 )">W-B</text><text style="&st18;" transform="matrix(&st16;  3727.36  519.33 )">(*18)</text><text style="&st18;" transform="matrix(&st16;  3727.36  553.33 )">(*18)</text><text style="&st18;" transform="matrix(&st16;  3769.85  553.33 )">(*18)</text><text style="&st18;" transform="matrix(&st17;  3898.54  395.24 )">O40</text><text ewd:textID="118" style="&st18;" transform="matrix(&st17;  3905.65  395.24 )">Junction Connector</text><text style="&st18;" transform="matrix(&st16;  3982.38  474.01 )">W-B</text><text style="&st18;" transform="matrix(&st16;  3939.89  372.03 )">W-B</text><text style="&st18;" transform="matrix(&st16;  3982.38  406.02 )">W-B</text><text style="&st18;" transform="matrix(&st16;  3929.18  372.03 )">5</text><text style="&st18;" transform="matrix(&st16;  3929.18  406.03 )">4</text><text style="&st18;" transform="matrix(&st16;  3929.18  474.02 )">7</text><text style="&st18;" transform="matrix(&st16;  3939.89  508.0 )">W-B</text><text style="&st18;" transform="matrix(&st16;  3965.27  504.46 )">10</text><text style="&st18;" transform="matrix(&st16;  3897.4  584.49 )">W-B</text><text style="&st18;" transform="matrix(&st16;  3902.56  474.02 )">8</text><text style="&st18;" transform="matrix(&st16;  3983.9  417.35 )">(*9)</text><text style="&st18;" transform="matrix(&st16;  3966.86  368.48 )">2</text><text style="&st18;" transform="matrix(&st16;  3711.07  156.73 )">(E)</text><text ewd:textID="151" style="&st18;" transform="matrix(&st16;  3639.12  162.39 )">Rear Combination Light <tspan dy="6" x="0">Assembly RH</tspan></text><text style="&st18;" transform="matrix(&st16;  3639.12  155.29 )">O22</text><text style="&st18;" transform="matrix(&st16;  3711.07  190.72 )">(E)</text><text ewd:textID="150" style="&st18;" transform="matrix(&st16;  3639.12  196.39 )">Rear Combination Light <tspan dy="6" x="0">Assembly LH</tspan></text><text style="&st18;" transform="matrix(&st16;  3639.12  189.28 )">O23</text><text style="&st18;" transform="matrix(&st16;  3711.07  224.72 )">(E)</text><text ewd:textID="151" style="&st18;" transform="matrix(&st16;  3639.12  230.38 )">Rear Combination Light <tspan dy="6" x="0">Assembly RH</tspan></text><text style="&st18;" transform="matrix(&st16;  3711.07  258.71 )">(E)</text><text ewd:textID="154" style="&st18;" transform="matrix(&st16;  3639.12  264.38 )">Rear Power Point <tspan dy="6" x="0">Socket Assembly</tspan></text><text style="&st18;" transform="matrix(&st16;  3639.12  257.27 )">O38</text><text style="&st18;" transform="matrix(&st16;  3711.07  292.71 )">(E)</text><text ewd:textID="150" style="&st18;" transform="matrix(&st16;  3639.12  298.37 )">Rear Combination <tspan dy="6" x="0">Light Assembly LH</tspan></text><text style="&st18;" transform="matrix(&st16;  3639.12  291.27 )">O21</text><text style="&st18;" transform="matrix(&st17;  3820.67  247.45 )">W-B</text><text style="&st18;" transform="matrix(&st17;  3820.67  213.45 )">W-B</text><text style="&st18;" transform="matrix(&st16;  3757.17  287.04 )">W-B</text><text style="&st18;" transform="matrix(&st16;  3757.17  253.05 )">W-B</text><text style="&st18;" transform="matrix(&st16;  3757.17  219.05 )">W-B</text><text style="&st18;" transform="matrix(&st16;  3757.17  185.06 )">W-B</text><text style="&st18;" transform="matrix(&st16;  3757.17  151.06 )">W-B</text><text style="&st18;" transform="matrix(&st16;  3859.15  185.06 )">W-B</text><text style="&st18;" transform="matrix(&st16;  3639.12  223.28 )">O20</text><text style="&st18;" transform="matrix(&st16;  3902.56  185.06 )">2</text><text style="&st18;" transform="matrix(&st16;  3929.18  185.06 )">6</text><text style="&st18;" transform="matrix(&st16;  3939.89  185.06 )">W-B</text><text style="&st18;" transform="matrix(&st16;  3966.86  181.52 )">5</text><text style="&st18;" transform="matrix(&st17;  3832.0  383.49 )">(*17)</text><text style="&st18;" transform="matrix(&st17;  3832.0  432.45 )">(*16,*17)</text><text style="&st18;" transform="matrix(&st16;  3911.83  176.57 )">1</text><text style="&st18;" transform="matrix(&st17;  3914.15  111.47 )">W-B</text><text style="&st18;" transform="matrix(&st16;  3503.73  519.33 )">(*3)</text><text style="&st18;" transform="matrix(&st16;  3791.17  321.03 )">W-B</text><text style="&st18;" transform="matrix(&st16;  3791.17  355.03 )">W-B</text><text style="&st18;" transform="matrix(&st16;  3791.09  366.36 )">(*17)</text><text style="&st18;" transform="matrix(&st16;  3791.09  332.37 )">(*17)</text><text style="&st18;" transform="matrix(&st16;  3771.39  317.49 )">3</text><text style="&st18;" transform="matrix(&st16;  3771.39  351.49 )">2</text><text style="&st18;" transform="matrix(&st16;  3982.38  440.01 )">W-B</text><text style="&st18;" transform="matrix(&st16;  3983.9  451.35 )">(*5)</text><text style="&st18;" transform="matrix(&st16;  3983.9  485.34 )">(*4)</text><text style="&st18;" transform="matrix(&st16;  3696.38  88.74 )">(LGND)</text><text ewd:textID="45" style="&st18;" transform="matrix(&st16;  3639.12  94.41 )">Blind Spot Monitor <tspan dy="6" x="0">Sensor LH</tspan></text><text style="&st18;" transform="matrix(&st16;  3639.12  87.3 )">O46</text><text style="&st18;" transform="matrix(&st16;  3696.66  122.73 )">(BLGD)</text><text style="&st18;" transform="matrix(&st16;  3700.33  54.75 )">(GND)</text><text ewd:textID="119" style="&st18;" transform="matrix(&st16;  3639.12  60.41 )">Junction Terminal</text><text style="&st18;" transform="matrix(&st16;  3639.12  53.3 )">O49</text><text style="&st18;" transform="matrix(&st16;  3843.07  49.09 )">2</text><text style="&st18;" transform="matrix(&st16;  3843.07  83.08 )">3</text><text style="&st18;" transform="matrix(&st16;  3843.07  117.08 )">4</text><text style="&st18;" transform="matrix(&st16;  3852.34  137.46 )">1</text><text style="&st18;" transform="matrix(&st16;  3757.17  49.08 )">W-B</text><text style="&st18;" transform="matrix(&st16;  3749.86  60.41 )">(*32,*35)</text><text style="&st18;" transform="matrix(&st16;  3757.17  83.07 )">W-B</text><text style="&st18;" transform="matrix(&st16;  3756.71  94.41 )">(*32)</text><text style="&st18;" transform="matrix(&st16;  3757.17  117.07 )">W-B</text><text style="&st18;" transform="matrix(&st16;  3756.71  128.4 )">(*32)</text><text style="&st18;" transform="matrix(&st16;  3876.15  159.56 )">W-B</text><text style="&st18;" transform="matrix(&st16;  3868.84  170.89 )">(*32,*35)</text><text ewd:textID="118" style="&st18;" transform="matrix(&st16;  3847.33  34.63 )">Junction <tspan dy="6" x="0">Connector</tspan></text><text style="&st18;" transform="matrix(&st16;  3847.33  27.53 )">O47</text></svg>