﻿<?xml version="1.0" encoding="utf-8"?>
<!DOCTYPE svg PUBLIC "-//W3C//DTD SVG 1.0//EN" "http://www.w3.org/TR/2001/REC-SVG-20010904/DTD/svg10.dtd"[
	<!ENTITY ns_flows "http://ns.adobe.com/Flows/1.0/">
	<!ENTITY ns_svg "http://www.w3.org/2000/svg">
	<!ENTITY ns_xlink "http://www.w3.org/1999/xlink">
	<!ENTITY st0 "font-size:7px;font-family:'MS-PGothic';adobe-font-script:japanese;">
	<!ENTITY st1 "font-size:6px;font-family:'ArialMT';">
	<!-- White fill  -->
	<!ENTITY st2 "fill:#FFFFFF;stroke:#000000; stroke-width:1.41;stroke-linecap:round;stroke-linejoin:round;">
	<!-- Yellow fill  -->
	<!ENTITY st3 "fill:#FFFFCC;stroke:#FFFFCC; stroke-width:0.1;stroke-linecap:round;stroke-linejoin:round;">
	<!-- Gray fill  -->
	<!ENTITY st4 "fill:#CCCCCC;stroke:#CCCCCC; stroke-width:0.1;stroke-linecap:round;stroke-linejoin:round;">
	<!-- Light-blue fill -->
	<!ENTITY st5 "fill:#CCECF4;stroke:#000000; stroke-width:1.133;stroke-linecap:round;stroke-linejoin:round;">
	<!ENTITY st6 "fill:none;stroke-linecap:butt; stroke-linejoin:round;">
	<!ENTITY st7 "fill:none;stroke:#000000;stroke-linecap:round;stroke-linejoin:round;">
	<!ENTITY st8 "enable-background:new    ;">
	<!-- Black fill -->
	<!ENTITY st9 "fill:#000000;stroke:#000000; stroke-linecap:round;stroke-linejoin:round;">
	<!-- SRS note   -->
	<!ENTITY st10 "font-size:9px;font-family:'ArialMT';">
	<!ENTITY st11 "font-size:9px;font-family:'Svg Symbol';">
	<!ENTITY st12 "font-size:6px;font-family:'Svg Symbol';">
	<!ENTITY st13 "fill:none;stroke:#ff0000;stroke-linecap:round;stroke-linejoin:round;">
	<!-- Yellow fill  -->
	<!ENTITY st14 "fill:#FFFF00;stroke:#FFFF00; stroke-width:0.1;stroke-linecap:round;stroke-linejoin:round;">
	<!ENTITY st15 "font-size:6px;font-family:'MS-PGothic';adobe-font-script:japanese;">
	<!ENTITY st16 "1.00 0.00 0.00 1.00">
	<!ENTITY st17 "0.00 -1.00 1.00 0.00">
	<!ENTITY st18 "font-size:6px;font-family:'Arial';">
	<!ENTITY st19 "font-size:9px;font-family:'Arial';">
	<!ENTITY st20 "font-size:6px;font-family:'MS-PGothic','MS PGothic';adobe-font-script:japanese;">
	<!ENTITY st21 "font-size:7px;font-family:'MS-PGothic','MS PGothic';adobe-font-script:japanese;">
	<!ATTLIST svg
		xmlns:ewd CDATA #FIXED "http://shcl.co.jp/ewd"
		xmlns:a CDATA #FIXED "http://ns.adobe.com/AdobeSVGViewerExtensions/3.0/"
		ewd:ver CDATA #IMPLIED
	>
	<!ATTLIST a
		ewd:lineID CDATA #IMPLIED
		ewd:groupID CDATA #IMPLIED
		ewd:figtype CDATA #IMPLIED
		ewd:code CDATA #IMPLIED
		ewd:figID CDATA #IMPLIED
		ewd:pinNo CDATA #IMPLIED
		ewd:comment CDATA #IMPLIED >
	<!ATTLIST g
		ewd:lineID CDATA #IMPLIED
		ewd:groupID CDATA #IMPLIED
		ewd:figtype CDATA #IMPLIED
		ewd:code CDATA #IMPLIED
		ewd:figID CDATA #IMPLIED
		ewd:pinNo CDATA #IMPLIED
		ewd:comment CDATA #IMPLIED >
	<!ATTLIST text
		ewd:textID CDATA #IMPLIED >
	<!ATTLIST title
		ewd:textID CDATA #IMPLIED >
]>
<!-- Generator: Shintec Hozumi YS   -->
<svg onload="call_execInitLoadProc_svg('system')" style="overflow:visible;  enable-background:new 0 0 4122.520 710.000" viewBox="0 0 4122.520 710.000" height="710.000" width="4122.520" xml:space="preserve" ewd:ver="L2.1.2.9" xmlns="&ns_svg;" xmlns:a="http://ns.adobe.com/AdobeSVGViewerExtensions/3.0/" xmlns:ewd="http://shcl.co.jp/ewd" xmlns:xlink="&ns_xlink;">
<path d=" M  756.37,  443.71  L  764.87,  443.71 " style="stroke-width: 1.42 ;&st7; " /><path d=" M  773.37,  214.25  L  764.87,  214.25 " style="stroke-width: 1.42 ;&st7; " /><path d=" M  565.16,  350.23  L  556.66,  350.23 " style="stroke-width: 0.85 ;&st7; " /><path d=" M  573.64,  340.56  L  566.28,  344.81 " style="stroke-width: 0.85 ;&st7; " /><path d=" M  568.28,  348.28  L  575.64,  344.03 " style="stroke-width: 0.85 ;&st7; " /><path d=" M  633.14,  350.23  L  624.65,  350.23 " style="stroke-width: 0.85 ;&st7; " /><path d=" M  641.63,  340.56  L  634.27,  344.81 " style="stroke-width: 0.85 ;&st7; " /><path d=" M  636.27,  348.28  L  643.63,  344.03 " style="stroke-width: 0.85 ;&st7; " /><path d=" M  701.13,  350.23  L  692.63,  350.23 " style="stroke-width: 0.85 ;&st7; " /><path d=" M  709.61,  340.56  L  702.25,  344.81 " style="stroke-width: 0.85 ;&st7; " /><path d=" M  704.26,  348.28  L  711.62,  344.03 " style="stroke-width: 0.85 ;&st7; " /><path d=" M  769.12,  350.23  L  760.62,  350.23 " style="stroke-width: 0.85 ;&st7; " /><path d=" M  777.60,  340.56  L  770.24,  344.81 " style="stroke-width: 0.85 ;&st7; " /><path d=" M  772.25,  348.28  L  779.61,  344.03 " style="stroke-width: 0.85 ;&st7; " /><path d=" M  854.11,  350.23  L  845.61,  350.23 " style="stroke-width: 0.85 ;&st7; " /><path d=" M  862.59,  340.56  L  855.23,  344.81 " style="stroke-width: 0.85 ;&st7; " /><path d=" M  857.23,  348.28  L  864.59,  344.03 " style="stroke-width: 0.85 ;&st7; " /><path d=" M  956.09,  350.23  L  947.59,  350.23 " style="stroke-width: 0.85 ;&st7; " /><path d=" M  964.57,  340.56  L  957.21,  344.81 " style="stroke-width: 0.85 ;&st7; " /><path d=" M  959.22,  348.28  L  966.58,  344.03 " style="stroke-width: 0.85 ;&st7; " /><path d=" M  637.39,  253.22  L  632.42,  248.24 " style="stroke-width: 1.42 ;&st7; " /><path d=" M  620.40,  260.27  L  625.37,  265.24 " style="stroke-width: 1.42 ;&st7; " /><path d=" M  632.42,  265.24  L  637.39,  260.27 " style="stroke-width: 1.42 ;&st7; " /><path d=" M  625.37,  248.24  L  620.40,  253.22 " style="stroke-width: 1.42 ;&st7; " /><path d=" M  705.38,  253.22  L  700.41,  248.24 " style="stroke-width: 1.42 ;&st7; " /><path d=" M  688.38,  260.27  L  693.35,  265.24 " style="stroke-width: 1.42 ;&st7; " /><path d=" M  700.41,  265.24  L  705.38,  260.27 " style="stroke-width: 1.42 ;&st7; " /><path d=" M  693.35,  248.24  L  688.38,  253.22 " style="stroke-width: 1.42 ;&st7; " /><path d=" M  773.37,  253.22  L  768.40,  248.24 " style="stroke-width: 1.42 ;&st7; " /><path d=" M  756.37,  260.27  L  761.34,  265.24 " style="stroke-width: 1.42 ;&st7; " /><path d=" M  768.40,  265.24  L  773.37,  260.27 " style="stroke-width: 1.42 ;&st7; " /><path d=" M  761.34,  248.24  L  756.37,  253.22 " style="stroke-width: 1.42 ;&st7; " /><path d=" M  637.39,  406.19  L  632.42,  401.22 " style="stroke-width: 1.42 ;&st7; " /><path d=" M  620.40,  413.25  L  625.37,  418.22 " style="stroke-width: 1.42 ;&st7; " /><path d=" M  632.42,  418.22  L  637.39,  413.25 " style="stroke-width: 1.42 ;&st7; " /><path d=" M  625.37,  401.22  L  620.40,  406.19 " style="stroke-width: 1.42 ;&st7; " /><path d=" M  705.38,  406.19  L  700.41,  401.22 " style="stroke-width: 1.42 ;&st7; " /><path d=" M  688.38,  413.25  L  693.35,  418.22 " style="stroke-width: 1.42 ;&st7; " /><path d=" M  700.41,  418.22  L  705.38,  413.25 " style="stroke-width: 1.42 ;&st7; " /><path d=" M  693.35,  401.22  L  688.38,  406.19 " style="stroke-width: 1.42 ;&st7; " /><path d=" M  773.37,  406.19  L  768.40,  401.22 " style="stroke-width: 1.42 ;&st7; " /><path d=" M  756.37,  413.25  L  761.34,  418.22 " style="stroke-width: 1.42 ;&st7; " /><path d=" M  768.40,  418.22  L  773.37,  413.25 " style="stroke-width: 1.42 ;&st7; " /><path d=" M  761.34,  401.22  L  756.37,  406.19 " style="stroke-width: 1.42 ;&st7; " /><path d=" M  966.58,  344.03  L  964.24,  347.07  L  962.78,  344.53  L  966.58,  344.03  L  965.29,  344.77  L  964.31,  346.05  L  963.69,  344.98  L  965.29,  344.77  L  964.65,  345.14  L  964.34,  345.55  L  964.15,  345.21  L  964.65,  345.14 " style="stroke-width: 0.85 ;&st7; " /><path d=" M  964.57,  340.56  L  962.24,  343.60  L  960.77,  341.06  L  964.57,  340.56  L  963.29,  341.30  L  962.31,  342.59  L  961.69,  341.51  L  963.29,  341.30  L  962.65,  341.67  L  962.34,  342.08  L  962.14,  341.74  L  962.65,  341.67 " style="stroke-width: 0.85 ;&st7; " /><path d=" M  951.84,  350.23  L  946.17,  341.73  L  957.51,  341.73  L  951.84,  350.23 " style="stroke-width: 0.28 ;&st9;" /><path d=" M  951.84,  324.73  L  951.84,  367.22 " style="stroke-width: 0.85 ;&st7; " /><path d=" M  934.84,  324.73  L  934.84,  367.22  L  977.34,  367.22  L  977.34,  324.73  L  934.84,  324.73 " style="stroke-width: 1.42 ;&st7; " /><path d=" M  864.59,  344.03  L  862.26,  347.07  L  860.79,  344.53  L  864.59,  344.03  L  863.31,  344.77  L  862.33,  346.05  L  861.71,  344.98  L  863.31,  344.77  L  862.67,  345.14  L  862.36,  345.55  L  862.17,  345.21  L  862.67,  345.14 " style="stroke-width: 0.85 ;&st7; " /><path d=" M  862.59,  340.56  L  860.26,  343.60  L  858.79,  341.06  L  862.59,  340.56  L  861.31,  341.30  L  860.32,  342.59  L  859.70,  341.51  L  861.31,  341.30  L  860.67,  341.67  L  860.36,  342.08  L  860.16,  341.74  L  860.67,  341.67 " style="stroke-width: 0.85 ;&st7; " /><path d=" M  849.86,  350.23  L  844.19,  341.73  L  855.52,  341.73  L  849.86,  350.23 " style="stroke-width: 0.28 ;&st9;" /><path d=" M  832.86,  324.73  L  832.86,  367.22  L  875.35,  367.22  L  875.35,  324.73  L  832.86,  324.73 " style="stroke-width: 1.42 ;&st7; " /><path d=" M  849.86,  367.22  L  849.86,  324.73 " style="stroke-width: 0.85 ;&st7; " /><path d=" M  779.61,  344.03  L  777.27,  347.07  L  775.81,  344.53  L  779.61,  344.03  L  778.33,  344.77  L  777.34,  346.05  L  776.72,  344.98  L  778.33,  344.77  L  777.68,  345.14  L  777.37,  345.55  L  777.18,  345.21  L  777.68,  345.14 " style="stroke-width: 0.85 ;&st7; " /><path d=" M  777.61,  340.56  L  775.27,  343.60  L  773.80,  341.06  L  777.61,  340.56  L  776.32,  341.30  L  775.34,  342.59  L  774.72,  341.51  L  776.32,  341.30  L  775.68,  341.67  L  775.37,  342.08  L  775.17,  341.74  L  775.68,  341.67 " style="stroke-width: 0.85 ;&st7; " /><path d=" M  764.87,  350.23  L  759.21,  341.73  L  770.54,  341.73  L  764.87,  350.23 " style="stroke-width: 0.28 ;&st9;" /><path d=" M  711.62,  344.03  L  709.29,  347.07  L  707.82,  344.53  L  711.62,  344.03  L  710.34,  344.77  L  709.35,  346.05  L  708.73,  344.98  L  710.34,  344.77  L  709.70,  345.14  L  709.38,  345.55  L  709.19,  345.21  L  709.70,  345.14 " style="stroke-width: 0.85 ;&st7; " /><path d=" M  709.62,  340.56  L  707.28,  343.60  L  705.82,  341.06  L  709.62,  340.56  L  708.33,  341.30  L  707.35,  342.59  L  706.73,  341.51  L  708.33,  341.30  L  707.69,  341.67  L  707.38,  342.08  L  707.19,  341.74  L  707.69,  341.67 " style="stroke-width: 0.85 ;&st7; " /><path d=" M  696.88,  350.23  L  691.22,  341.73  L  702.55,  341.73  L  696.88,  350.23 " style="stroke-width: 0.28 ;&st9;" /><path d=" M  643.63,  344.03  L  641.30,  347.07  L  639.83,  344.53  L  643.63,  344.03  L  642.35,  344.77  L  641.36,  346.05  L  640.74,  344.98  L  642.35,  344.77  L  641.71,  345.14  L  641.40,  345.55  L  641.20,  345.21  L  641.71,  345.14 " style="stroke-width: 0.85 ;&st7; " /><path d=" M  641.63,  340.56  L  639.29,  343.60  L  637.83,  341.06  L  641.63,  340.56  L  640.35,  341.30  L  639.36,  342.59  L  638.74,  341.51  L  640.35,  341.30  L  639.70,  341.67  L  639.39,  342.08  L  639.20,  341.74  L  639.70,  341.67 " style="stroke-width: 0.85 ;&st7; " /><path d=" M  628.89,  350.23  L  623.23,  341.73  L  634.56,  341.73  L  628.89,  350.23 " style="stroke-width: 0.28 ;&st9;" /><path d=" M  575.64,  344.03  L  573.31,  347.07  L  571.84,  344.53  L  575.64,  344.03  L  574.36,  344.77  L  573.38,  346.05  L  572.76,  344.98  L  574.36,  344.77  L  573.72,  345.14  L  573.41,  345.55  L  573.21,  345.21  L  573.72,  345.14 " style="stroke-width: 0.85 ;&st7; " /><path d=" M  573.64,  340.56  L  571.31,  343.60  L  569.84,  341.06  L  573.64,  340.56  L  572.36,  341.30  L  571.37,  342.59  L  570.75,  341.51  L  572.36,  341.30  L  571.72,  341.67  L  571.40,  342.08  L  571.21,  341.74  L  571.72,  341.67 " style="stroke-width: 0.85 ;&st7; " /><path d=" M  560.91,  350.23  L  555.24,  341.73  L  566.57,  341.73  L  560.91,  350.23 " style="stroke-width: 0.28 ;&st9;" /><path d=" M  769.12,  219.92  L  764.87,  215.67  L  760.62,  219.92 " style="stroke-width: 1.42 ;&st7; " /><path d=" M  769.12,  223.31  L  764.87,  219.07  L  760.62,  223.31 " style="stroke-width: 1.42 ;&st7; " /><path d=" M  769.12,  438.05  L  764.87,  442.29  L  760.62,  438.05 " style="stroke-width: 1.42 ;&st7; " /><path d=" M  760.62,  434.65  L  764.87,  438.90  L  769.12,  434.65 " style="stroke-width: 1.42 ;&st7; " /><path d=" M  560.91,  324.73  L  560.91,  367.22 " style="stroke-width: 0.85 ;&st7; " /><path d=" M  628.89,  367.22  L  628.89,  324.73 " style="stroke-width: 0.85 ;&st7; " /><path d=" M  747.87,  324.73  L  747.87,  367.22  L  790.37,  367.22  L  790.37,  324.73  L  747.87,  324.73 " style="stroke-width: 1.42 ;&st7; " /><path d=" M  679.89,  324.73  L  679.89,  367.22  L  722.38,  367.22  L  722.38,  324.73  L  679.89,  324.73 " style="stroke-width: 1.42 ;&st7; " /><path d=" M  764.87,  367.22  L  764.87,  324.73 " style="stroke-width: 0.85 ;&st7; " /><path d=" M  696.88,  324.73  L  696.88,  367.22 " style="stroke-width: 0.85 ;&st7; " /><path d=" M  611.90,  324.73  L  611.90,  367.22  L  654.39,  367.22  L  654.39,  324.73  L  611.90,  324.73 " style="stroke-width: 1.42 ;&st7; " /><path d=" M  543.91,  324.73  L  543.91,  367.22  L  586.40,  367.22  L  586.40,  324.73  L  543.91,  324.73 " style="stroke-width: 1.42 ;&st7; " /><path d=" M  756.37,  486.20  L 1699.72,  486.20  L 1699.72,  503.20  L  756.37,  503.20  L  756.37,  486.20 " style="stroke-width: 1.42 ;&st7; " /><path d=" M  951.84,  171.76  L  951.84,  163.26 " style="stroke-width: 0.85 ;&st7; " /><path d=" M  950.65,  162.26  L  950.38,  162.73  L  950.28,  163.26  L  950.38,  163.79  L  950.65,  164.26  L  951.06,  164.61  L  951.57,  164.79  L  952.11,  164.79  L  952.62,  164.61  L  953.03,  164.26  L  953.31,  163.79  L  953.40,  163.26  L  953.31,  162.73  L  953.03,  162.26  L  952.62,  161.91  L  952.11,  161.72  L  951.57,  161.72  L  951.06,  161.91  L  950.65,  162.26  L  951.04,  162.97  L  951.04,  163.55  L  951.42,  163.99  L  951.99,  164.09  L  952.49,  163.80  L  952.69,  163.26  L  952.49,  162.71  L  951.99,  162.42  L  951.42,  162.52  L  951.84,  163.26 " style="stroke-width: 0.85 ;&st7; " /><path d=" M  849.86,  171.76  L  849.86,  163.26 " style="stroke-width: 0.85 ;&st7; " /><path d=" M  848.67,  162.26  L  848.39,  162.73  L  848.30,  163.26  L  848.39,  163.79  L  848.67,  164.26  L  849.08,  164.61  L  849.59,  164.79  L  850.13,  164.79  L  850.64,  164.61  L  851.05,  164.26  L  851.32,  163.79  L  851.42,  163.26  L  851.32,  162.73  L  851.05,  162.26  L  850.64,  161.91  L  850.13,  161.72  L  849.59,  161.72  L  849.08,  161.91  L  848.67,  162.26  L  849.06,  162.97  L  849.06,  163.55  L  849.43,  163.99  L  850.00,  164.09  L  850.51,  163.80  L  850.71,  163.26  L  850.51,  162.71  L  850.00,  162.42  L  849.43,  162.52  L  849.86,  163.26 " style="stroke-width: 0.85 ;&st7; " /><path d=" M  764.87,  171.76  L  764.87,  163.26 " style="stroke-width: 0.85 ;&st7; " /><path d=" M  763.68,  162.26  L  763.41,  162.73  L  763.31,  163.26  L  763.41,  163.79  L  763.68,  164.26  L  764.09,  164.61  L  764.60,  164.79  L  765.14,  164.79  L  765.65,  164.61  L  766.06,  164.26  L  766.34,  163.79  L  766.43,  163.26  L  766.34,  162.73  L  766.06,  162.26  L  765.65,  161.91  L  765.14,  161.72  L  764.60,  161.72  L  764.09,  161.91  L  763.68,  162.26  L  764.07,  162.97  L  764.07,  163.55  L  764.45,  163.99  L  765.02,  164.09  L  765.52,  163.80  L  765.72,  163.26  L  765.52,  162.71  L  765.02,  162.42  L  764.45,  162.52  L  764.87,  163.26 " style="stroke-width: 0.85 ;&st7; " /><path d=" M  951.84,  486.20  L  951.84,  503.20 " style="stroke-width: 0.85 ;&st7; " /><path d=" M  950.65,  493.70  L  950.38,  494.17  L  950.28,  494.70  L  950.38,  495.24  L  950.65,  495.71  L  951.06,  496.05  L  951.57,  496.24  L  952.11,  496.24  L  952.62,  496.05  L  953.03,  495.71  L  953.31,  495.24  L  953.40,  494.70  L  953.31,  494.17  L  953.03,  493.70  L  952.62,  493.35  L  952.11,  493.17  L  951.57,  493.17  L  951.06,  493.35  L  950.65,  493.70  L  951.04,  494.41  L  951.04,  494.99  L  951.42,  495.44  L  951.99,  495.54  L  952.49,  495.25  L  952.69,  494.70  L  952.49,  494.16  L  951.99,  493.87  L  951.42,  493.97  L  951.84,  494.70 " style="stroke-width: 0.85 ;&st7; " /><path d=" M  764.87,  503.20  L  764.87,  486.20 " style="stroke-width: 0.85 ;&st7; " /><path d=" M  763.68,  493.70  L  763.41,  494.17  L  763.31,  494.70  L  763.41,  495.24  L  763.68,  495.71  L  764.09,  496.05  L  764.60,  496.24  L  765.14,  496.24  L  765.65,  496.05  L  766.06,  495.71  L  766.34,  495.24  L  766.43,  494.70  L  766.34,  494.17  L  766.06,  493.70  L  765.65,  493.35  L  765.14,  493.17  L  764.60,  493.17  L  764.09,  493.35  L  763.68,  493.70  L  764.07,  494.41  L  764.07,  494.99  L  764.45,  495.44  L  765.02,  495.54  L  765.52,  495.25  L  765.72,  494.70  L  765.52,  494.16  L  765.02,  493.87  L  764.45,  493.97  L  764.87,  494.70 " style="stroke-width: 0.85 ;&st7; " /><path d=" M  849.86,  486.20  L  849.86,  494.70 " style="stroke-width: 0.85 ;&st7; " /><path d=" M  848.67,  493.70  L  848.39,  494.17  L  848.30,  494.70  L  848.39,  495.24  L  848.67,  495.71  L  849.08,  496.05  L  849.59,  496.24  L  850.13,  496.24  L  850.64,  496.05  L  851.05,  495.71  L  851.32,  495.24  L  851.42,  494.70  L  851.32,  494.17  L  851.05,  493.70  L  850.64,  493.35  L  850.13,  493.17  L  849.59,  493.17  L  849.08,  493.35  L  848.67,  493.70  L  849.06,  494.41  L  849.06,  494.99  L  849.43,  495.44  L  850.00,  495.54  L  850.51,  495.25  L  850.71,  494.70  L  850.51,  494.16  L  850.00,  493.87  L  849.43,  493.97  L  849.86,  494.70 " style="stroke-width: 0.85 ;&st7; " /><path d=" M  764.87,  494.70  L 1215.30,  494.70 " style="stroke-width: 0.85 ;&st7; " /><text style="&st18;" transform="matrix(&st16;  945.05  179.95 )">9</text><text style="&st18;" transform="matrix(&st16;  843.07  179.95 )">6</text><text style="&st18;" transform="matrix(&st16;  754.9  179.95 )">10</text><text style="&st18;" transform="matrix(&st16;  758.08  482.51 )">7</text><text style="&st18;" transform="matrix(&st16;  945.05  511.39 )">3</text><text style="&st18;" transform="matrix(&st16;  843.07  482.51 )">8</text><text style="&st18;" transform="matrix(&st16;  945.05  482.51 )">6</text><text ewd:textID="37" style="&st18;" transform="matrix(&st16;  847.33  517.92 )">Junction Connector</text><text style="&st18;" transform="matrix(&st16;  847.33  510.81 )">H124</text><text style="&st18;" transform="matrix(&st16;  758.08  511.39 )">2</text><text ewd:textID="37" style="&st18;" transform="matrix(&st16;  660.36  151.06 )">Junction Connector</text><text style="&st18;" transform="matrix(&st16;  660.36  143.96 )">H123</text><text style="&st18;" transform="matrix(&st16;  541.44  542.0 )">R</text><text style="&st18;" transform="matrix(&st17;  761.18  531.17 )">R</text><text style="&st18;" transform="matrix(&st17;  557.21  305.82 )">P</text><text style="&st18;" transform="matrix(&st17;  594.01  369.75 )">J1</text><text style="&st18;" transform="matrix(&st16;  554.12  375.42 )">3</text><text style="&st18;" transform="matrix(&st16;  622.11  375.42 )">6</text><text style="&st18;" transform="matrix(&st17;  662.0  369.75 )">J2</text><text style="&st18;" transform="matrix(&st17;  625.2  305.82 )">P</text><text ewd:textID="24" style="&st18;" transform="matrix(&st17;  669.11  369.75 )">Drive Monitor Switch</text><text style="&st18;" transform="matrix(&st16;  622.88  321.04 )">1</text><text style="&st18;" transform="matrix(&st16;  690.09  321.04 )">3</text><text ewd:textID="28" style="&st18;" transform="matrix(&st17;  737.1  369.75 )">Hazard Warning Signal <tspan dy="6" x="0">Switch Assembly</tspan></text><text style="&st18;" transform="matrix(&st17;  693.19  305.82 )">P</text><text style="&st18;" transform="matrix(&st17;  729.99  369.75 )">J3</text><text style="&st18;" transform="matrix(&st17;  797.98  369.75 )">J7</text><text style="&st18;" transform="matrix(&st17;  761.18  305.82 )">P</text><text ewd:textID="36" style="&st18;" transform="matrix(&st17;  805.09  369.75 )">Interior Dome Light Switch Assembly</text><text style="&st18;" transform="matrix(&st16;  758.08  375.42 )">4</text><text style="&st18;" transform="matrix(&st16;  758.86  321.04 )">1</text><text style="&st18;" transform="matrix(&st16;  690.09  375.42 )">2</text><text ewd:textID="18" style="&st18;" transform="matrix(&st17;  601.12  369.75 )">4 Wheel Drive <tspan dy="6" x="0">Control Switch</tspan></text><text style="&st18;" transform="matrix(&st16;  554.89  321.04 )">1</text><text style="&st18;" transform="matrix(&st17;  761.18  242.08 )">P</text><text style="&st18;" transform="matrix(&st17;  761.18  195.76 )">G</text><text style="&st18;" transform="matrix(&st17;  557.21  391.83 )">W</text><text style="&st18;" transform="matrix(&st17;  625.2  391.83 )">W</text><text style="&st18;" transform="matrix(&st17;  693.19  391.83 )">W</text><text style="&st18;" transform="matrix(&st17;  761.18  391.83 )">W</text><text style="&st18;" transform="matrix(&st17;  761.18  430.07 )">W</text><text style="&st18;" transform="matrix(&st17;  761.18  472.56 )">W</text><text style="&st18;" transform="matrix(&st17;  948.15  550.36 )">BE</text><text style="&st18;" transform="matrix(&st16;  736.02  406.02 )">W</text><text style="&st18;" transform="matrix(&st16;  659.53  406.02 )">W</text><text style="&st18;" transform="matrix(&st16;  746.88  449.93 )">12</text><text style="&st18;" transform="matrix(&st16;  660.56  253.05 )">P</text><text style="&st18;" transform="matrix(&st16;  728.55  253.05 )">P</text><text style="&st18;" transform="matrix(&st16;  746.1  211.97 )">22</text><text style="&st18;" transform="matrix(&st16;  563.74  363.53 )">ILL-</text><text style="&st18;" transform="matrix(&st16;  631.73  363.53 )">ILL-</text><text style="&st18;" transform="matrix(&st16;  699.72  363.53 )">ILL-</text><text style="&st18;" transform="matrix(&st16;  767.71  363.53 )">ILL-</text><text style="&st18;" transform="matrix(&st16;  563.74  332.92 )">ILL+</text><text style="&st18;" transform="matrix(&st16;  631.73  332.92 )">ILL+</text><text style="&st18;" transform="matrix(&st16;  699.72  332.92 )">ILL+</text><text style="&st18;" transform="matrix(&st16;  767.71  332.92 )">ILL+</text><text style="&st18;" transform="matrix(&st16;  843.07  321.04 )">3</text><text style="&st18;" transform="matrix(&st16;  843.07  375.42 )">2</text><text ewd:textID="46" style="&st18;" transform="matrix(&st17;  890.07  369.75 )">Pattern Select Switch Assembly</text><text style="&st18;" transform="matrix(&st17;  846.16  276.49 )">G</text><text style="&st18;" transform="matrix(&st16;  852.69  363.53 )">ILL-</text><text style="&st18;" transform="matrix(&st17;  882.96  369.75 )">H30</text><text style="&st18;" transform="matrix(&st17;  846.16  420.55 )">Y</text><text style="&st18;" transform="matrix(&st16;  852.69  332.92 )">ILL+</text><text ewd:textID="21" style="&st18;" transform="matrix(&st17;  992.05  369.75 )">Back Door Power Window Regulator <tspan dy="6" x="0">Switch Assembly</tspan></text><text style="&st18;" transform="matrix(&st17;  984.95  369.75 )">H9</text><text style="&st18;" transform="matrix(&st17;  948.14  276.07 )">P</text><text style="&st18;" transform="matrix(&st17;  948.14  420.55 )">V</text><text style="&st18;" transform="matrix(&st16;  945.83  375.42 )">1</text><text style="&st18;" transform="matrix(&st16;  945.05  321.04 )">8</text><text style="&st18;" transform="matrix(&st16;  954.67  332.92 )">ILL+</text><text style="&st18;" transform="matrix(&st16;  954.67  363.53 )">ILL-</text></svg>