﻿<?xml version="1.0" encoding="UTF-8"?>
<!DOCTYPE svg PUBLIC "-//W3C//DTD SVG 1.0//EN" "http://www.w3.org/TR/2001/REC-SVG-20010904/DTD/svg10.dtd"[
	<!ENTITY ns_flows "http://ns.adobe.com/Flows/1.0/">
	<!ENTITY ns_svg "http://www.w3.org/2000/svg">
	<!ENTITY ns_xlink "http://www.w3.org/1999/xlink">
	<!ENTITY st0 "font-size:7px;font-family:'MS-PGothic';adobe-font-script:japanese;">
	<!ENTITY st1 "font-size:6px;font-family:'ArialMT';">
	<!-- White fill  -->
	<!ENTITY st2 "fill:#FFFFFF;stroke:#000000; stroke-width:1.41;stroke-linecap:round;stroke-linejoin:round;">
	<!-- Yellow fill  -->
	<!ENTITY st3 "fill:#FFFFCC;stroke:#FFFFCC; stroke-width:0.1;stroke-linecap:round;stroke-linejoin:round;">
	<!-- Gray fill  -->
	<!ENTITY st4 "fill:#CCCCCC;stroke:#CCCCCC; stroke-width:0.1;stroke-linecap:round;stroke-linejoin:round;">
	<!-- Light-blue fill -->
	<!ENTITY st5 "fill:#CCECF4;stroke:#000000; stroke-width:1.133;stroke-linecap:round;stroke-linejoin:round;">
	<!ENTITY st6 "fill:none;stroke-linecap:butt; stroke-linejoin:round;">
	<!ENTITY st7 "fill:none;stroke:#000000;stroke-linecap:round;stroke-linejoin:round;">
	<!ENTITY st8 "enable-background:new    ;">
	<!-- Black fill -->
	<!ENTITY st9 "fill:#000000;stroke:#000000; stroke-linecap:round;stroke-linejoin:round;">
	<!-- SRS note   -->
	<!ENTITY st10 "font-size:9px;font-family:'ArialMT';">
	<!ENTITY st11 "font-size:9px;font-family:'Svg Symbol';">
	<!ENTITY st12 "font-size:6px;font-family:'Svg Symbol';">
	<!ENTITY st13 "fill:none;stroke:#ff0000;stroke-linecap:round;stroke-linejoin:round;">
	<!-- Yellow fill  -->
	<!ENTITY st14 "fill:#FFFF00;stroke:#FFFF00; stroke-width:0.1;stroke-linecap:round;stroke-linejoin:round;">
	<!ENTITY st15 "font-size:6px;font-family:'MS-PGothic';adobe-font-script:japanese;">
	<!ENTITY st16 "1.00 0.00 0.00 1.00">
	<!ENTITY st17 "0.00 -1.00 1.00 0.00">
	<!ENTITY st18 "font-size:6px;font-family:'Arial';">
	<!ENTITY st19 "font-size:9px;font-family:'Arial';">
	<!ENTITY st20 "font-size:6px;font-family:'MS-PGothic','MS PGothic';adobe-font-script:japanese;">
	<!ENTITY st21 "font-size:7px;font-family:'MS-PGothic','MS PGothic';adobe-font-script:japanese;">
	<!ATTLIST svg
		xmlns:ewd CDATA #FIXED "http://shcl.co.jp/ewd"
		xmlns:a CDATA #FIXED "http://ns.adobe.com/AdobeSVGViewerExtensions/3.0/"
		ewd:ver CDATA #IMPLIED
	>
	<!ATTLIST a
		ewd:lineID CDATA #IMPLIED
		ewd:groupID CDATA #IMPLIED
		ewd:figtype CDATA #IMPLIED
		ewd:code CDATA #IMPLIED
		ewd:figID CDATA #IMPLIED
		ewd:pinNo CDATA #IMPLIED
		ewd:comment CDATA #IMPLIED >
	<!ATTLIST g
		ewd:lineID CDATA #IMPLIED
		ewd:groupID CDATA #IMPLIED
		ewd:figtype CDATA #IMPLIED
		ewd:code CDATA #IMPLIED
		ewd:figID CDATA #IMPLIED
		ewd:pinNo CDATA #IMPLIED
		ewd:comment CDATA #IMPLIED >
	<!ATTLIST text
		ewd:textID CDATA #IMPLIED >
	<!ATTLIST title
		ewd:textID CDATA #IMPLIED >
]>
<!-- Generator: Shintec Hozumi YS   -->
<svg onload="call_execInitLoadProc_svg('system')" style="overflow:visible;  enable-background:new 0 0 1033.117 710.000" viewBox="0 0 1033.117 710.000" height="710.000" width="1033.117" xml:space="preserve" ewd:ver="L2.1.2.9" xmlns="&ns_svg;" xmlns:a="http://ns.adobe.com/AdobeSVGViewerExtensions/3.0/" xmlns:ewd="http://shcl.co.jp/ewd" xmlns:xlink="&ns_xlink;">
	<script type="text/javascript" xlink:href="../../../../../system/js/ewd/fig/svgfig.js"/>
	<defs>
		<font horiz-adv-x="1229">
			<font-face font-family="Svg Symbol" units-per-em="2048" panose-1="5 5 1 2 1 7 6 2 5 7" ascent="2059" descent="450" alphabetic="0"/>
			<missing-glyph d="M 103,0 l 0,1280 1024,0 0,-1280 -1024,0 z m 32,32 l 960,0 0,1216 -960,0 0,-1216 z"/>
			<glyph unicode="&#xF057;" horiz-adv-x="1573" d="M 1517,0 l -567,0 24,279 q 141,59 207.5,168 66.5,109 66.5,306    0,272 -132.5,417.5 -132.5,145.5 -333.5,145.5 -194,0 -328,-147.5 -134,-147.5 -134,-401.5 0,-200 68.5,-319 68.5,-119     206.5,-169 l 25,-279 -564,0 0,279 35,0 q 3,-61 32,-83 45,-35 137,-35 l 270,0 0,70 q -210,61 -324.5,209 -114.5,148     -114.5,349 0,252 186.5,425 186.5,173 504.5,173 195,0 358.5,-73.5 163.5,-73.5 252,-214.5 88.5,-141 88.5,-310 0,-207     -121.5,-360.5 -121.5,-153.5 -317.5,-197.5 l -8,-70 275,0 q 92,0 128,28 36,28 42,90 l 38,0 0,-279 z"/>
		</font>
	</defs>
<g id="ewd_top">
	<a ewd:code="X5" ewd:figID="1" ewd:figtype="conn" style="cursor:pointer;">
		<path d=" M  301.70,  563.83  L  301.70,  563.83  L  301.70,  559.86  L  310.20,  559.86  L  310.20,  563.83  C  311.55   564.61   312.53   565.58   313.31   566.94  L  313.31,  566.94  C  315.66   571.00   314.27   576.20   310.20   578.55  L  310.20,  578.55  L  310.20,  582.52  L  301.70,  582.52  L  301.70,  578.55  C  300.35   577.77   299.37   576.79   298.59   575.44  L  298.59,  575.44  C  296.24   571.37   297.64   566.17   301.70   563.83 " style="&st5;"/>
		<title ewd:textID="10">Front Power Seat Slide Position Motor Assembly LH</title>
	</a>
	<a ewd:code="X6" ewd:figID="2" ewd:figtype="conn" style="cursor:pointer;">
		<path d=" M  420.68,  563.83  L  420.68,  563.83  L  420.68,  559.86  L  429.18,  559.86  L  429.18,  563.83  C  430.53   564.61   431.51   565.58   432.29   566.94  L  432.29,  566.94  C  434.64   571.00   433.25   576.20   429.18   578.55  L  429.18,  578.55  L  429.18,  582.52  L  420.68,  582.52  L  420.68,  578.55  C  419.33   577.77   418.35   576.79   417.57   575.44  L  417.57,  575.44  C  415.22   571.37   416.62   566.17   420.68   563.83 " style="&st5;"/>
		<title ewd:textID="12">Front Power Seat Vertical Position Motor Assembly LH</title>
	</a>
	<a ewd:code="X2" ewd:figID="3" ewd:figtype="conn" style="cursor:pointer;">
		<path d=" M  718.13,  563.83  L  718.13,  563.83  L  718.13,  559.86  L  726.63,  559.86  L  726.63,  563.83  C  727.98   564.61   728.96   565.58   729.74   566.94  L  729.74,  566.94  C  732.09   571.00   730.70   576.20   726.63   578.55  L  726.63,  578.55  L  726.63,  582.52  L  718.13,  582.52  L  718.13,  578.55  C  716.78   577.77   715.80   576.79   715.02   575.44  L  715.02,  575.44  C  712.67   571.37   714.07   566.17   718.13   563.83 " style="&st5;"/>
		<title ewd:textID="6">Front Lumbar Support Forward and Back Motor Assembly LH</title>
	</a>
	<a ewd:code="z14" ewd:figID="4" ewd:figtype="conn" style="cursor:pointer;">
		<path d=" M  849.86,  324.73  L  849.86,  418.22  L  960.34,  418.22  L  960.34,  324.73  L  849.86,  324.73 " style="&st5;"/>
		<title ewd:textID="17">Seat Variable Cushion Switch LH</title>
	</a>
	<a ewd:code="X8" ewd:figID="5" ewd:figtype="conn" style="cursor:pointer;">
		<path d=" M   38.24,  563.83  L   38.24,  563.83  L   38.24,  559.86  L   46.74,  559.86  L   46.75,  563.83  C   48.10   564.61    49.07   565.58    49.85   566.94  L   49.85,  566.94  C   52.20   571.00    50.81   576.20    46.75   578.55  L   46.74,  578.55  L   46.74,  582.52  L   38.24,  582.52  L   38.25,  578.55  C   36.89   577.77    35.92   576.79    35.13   575.44  L   35.13,  575.44  C   32.79   571.37    34.18   566.17    38.25   563.83 " style="&st5;"/>
		<title ewd:textID="9">Front Power Seat Reclining Position Motor Assembly LH</title>
	</a>
	<a ewd:code="X9" ewd:figID="6" ewd:figtype="conn" style="cursor:pointer;">
		<path d=" M  871.10,  563.83  L  871.10,  563.83  L  871.10,  559.86  L  879.60,  559.86  L  879.61,  563.83  C  880.96   564.61   881.93   565.58   882.71   566.94  L  882.71,  566.94  C  885.06   571.00   883.67   576.20   879.61   578.55  L  879.60,  578.55  L  879.60,  582.52  L  871.10,  582.52  L  871.11,  578.55  C  869.75   577.77   868.78   576.79   867.99   575.44  L  867.99,  575.44  C  865.65   571.37   867.04   566.17   871.11   563.83 " style="&st5;"/>
		<title ewd:textID="7">Front Power Seat Cushion Control Motor Assembly LH</title>
	</a>
	<a ewd:code="X7" ewd:figID="7" ewd:figtype="conn" style="cursor:pointer;">
		<path d=" M  174.22,  563.83  L  174.22,  563.83  L  174.22,  559.86  L  182.72,  559.86  L  182.72,  563.83  C  184.08   564.61   185.05   565.58   185.83   566.94  L  185.83,  566.94  C  188.18   571.00   186.79   576.20   182.72   578.55  L  182.72,  578.55  L  182.72,  582.52  L  174.22,  582.52  L  174.22,  578.55  C  172.87   577.77   171.89   576.79   171.11   575.44  L  171.11,  575.44  C  168.76   571.37   170.16   566.17   174.22   563.83 " style="&st5;"/>
		<title ewd:textID="8">Front Power Seat Lift Position Motor Assembly LH</title>
	</a>
	<a ewd:code="X1" ewd:figID="8" ewd:figtype="conn" style="cursor:pointer;">
		<path d=" M  696.88,  324.73  L  696.88,  418.22  L  807.37,  418.22  L  807.37,  324.73  L  696.88,  324.73 " style="&st5;"/>
		<title ewd:textID="5">Front Lumbar Power Seat Switch LH</title>
	</a>
	<a ewd:code="X3" ewd:figID="9" ewd:figtype="conn" style="cursor:pointer;">
		<path d=" M    0.00,  282.24  L    0.00,  418.22  L  603.40,  418.22  L  603.40,  282.24  L    0.00,  282.24 " style="&st5;"/>
		<title ewd:textID="11">Front Power Seat Switch LH</title>
	</a>
	<a ewd:code="DJB" ewd:figID="10" ewd:figtype="jb" style="cursor:pointer;">
		<path d=" M   17.00,   35.78  L   17.00,  103.77  L  101.98,  103.77  L  101.98,   35.78  L   17.00,   35.78 " style="&st4;"/>
	</a>
	<a ewd:code="FUSE78" ewd:figID="11" ewd:figtype="fuse" style="cursor:pointer;">
		<path d=" M   46.74,   78.27  L   46.74,   35.78  L   21.25,   35.78  L   21.25,   78.27  L   46.74,   78.27 " style="&st7;"/>
	</a>
	<a ewd:lineID="1" style="cursor:pointer;">
		<path d=" M   33.99,  222.75  L   33.99,  282.24 " style="stroke:#00A0C6;stroke-width: 5.10 ;&st6;"/>
	</a>
	<a ewd:lineID="2" style="cursor:pointer;">
		<path d=" M   33.99,  177.99  L   33.99,  205.75 " style="stroke:#00A0C6;stroke-width: 5.10 ;&st6;"/>
	</a>
	<a ewd:lineID="3" style="cursor:pointer;">
		<path d=" M   33.99,  163.26  L   33.99,  103.77 " style="stroke:#00A0C6;stroke-width: 5.10 ;&st6;"/>
	</a>
	<a ewd:lineID="4" style="cursor:pointer;">
		<path d=" M   40.01,  220.26  L   50.99,  231.25  L  790.37,  231.25  L  790.37,  324.73 " style="stroke:#00A0C6;stroke-width: 5.10 ;&st6;"/>
	</a>
	<a ewd:lineID="5" style="cursor:pointer;">
		<path d=" M  101.98,  418.22  L  101.98,  605.18  L   42.49,  605.18  L   42.49,  582.52 " style="stroke:#C3AF96;stroke-width: 5.10 ;&st6;"/>
	</a>
	<a ewd:lineID="6" style="cursor:pointer;">
		<path d=" M   42.49,  418.22  L   42.49,  559.86 " style="stroke:#000000;stroke-width: 5.10 ;&st6;"/>
	</a>
	<a ewd:lineID="7" style="cursor:pointer;">
		<path d=" M  815.86,  214.25  L   42.49,  214.25 " style="stroke:#00A0C6;stroke-width: 5.10 ;&st6;"/>
	</a>
	<a ewd:lineID="8" style="cursor:pointer;">
		<path d=" M  237.96,  418.22  L  237.96,  605.18  L  178.47,  605.18  L  178.47,  582.52 " style="stroke:#008837;stroke-width: 5.10 ;&st6;"/>
	</a>
	<a ewd:lineID="9" style="cursor:pointer;">
		<path d=" M  178.47,  418.22  L  178.47,  559.86 " style="stroke:#FFE600;stroke-width: 5.10 ;&st6;"/>
	</a>
	<a ewd:lineID="10" style="cursor:pointer;">
		<path d=" M  365.44,  418.22  L  365.44,  605.18  L  305.95,  605.18  L  305.95,  582.52 " style="stroke:#F668B2;stroke-width: 5.10 ;&st6;"/>
	</a>
	<a ewd:lineID="11" style="cursor:pointer;">
		<path d=" M  305.95,  418.22  L  305.95,  559.86 " style="stroke:#FF0000;stroke-width: 5.10 ;&st6;"/>
	</a>
	<a ewd:lineID="12" style="cursor:pointer;">
		<path d=" M  484.42,  418.22  L  484.42,  605.18  L  424.93,  605.18  L  424.93,  582.52 " style="stroke:#7FC97F;stroke-width: 5.10 ;&st6;"/>
	</a>
	<a ewd:lineID="13" style="cursor:pointer;">
		<path d=" M  424.93,  418.22  L  424.93,  559.86 " style="stroke:#000000;stroke-width: 5.10 ;&st6;"/>
		<path d=" M  424.93,  418.22  L  424.93,  559.86 " style="stroke:#FFFFFF;stroke-width: 4.53 ;&st6;"/>
	</a>
	<a ewd:lineID="14" style="cursor:pointer;">
		<path d=" M  586.40,  681.67  L  586.40,  588.19 " style="stroke:#000000;stroke-width: 5.10 ;&st6;"/>
		<path d=" M  586.40,  681.67  L  586.40,  588.19 " style="stroke:#FFFFFF;stroke-width: 4.53 ;&st6;"/>
		<path d=" M  586.40,  681.67  L  586.40,  588.19 " style="stroke:#000000;stroke-width: 1.13 ;&st6;"/>
	</a>
	<a ewd:lineID="15" style="cursor:pointer;">
		<path d=" M  586.40,  573.46  L  586.40,  511.70 " style="stroke:#000000;stroke-width: 5.10 ;&st6;"/>
		<path d=" M  586.40,  573.46  L  586.40,  511.70 " style="stroke:#FFFFFF;stroke-width: 4.53 ;&st6;"/>
		<path d=" M  586.40,  573.46  L  586.40,  511.70 " style="stroke:#000000;stroke-width: 1.13 ;&st6;"/>
	</a>
	<a ewd:lineID="16" style="cursor:pointer;">
		<path d=" M  586.40,  494.70  L  586.40,  418.22 " style="stroke:#000000;stroke-width: 5.10 ;&st6;"/>
		<path d=" M  586.40,  494.70  L  586.40,  418.22 " style="stroke:#FFFFFF;stroke-width: 4.53 ;&st6;"/>
		<path d=" M  586.40,  494.70  L  586.40,  418.22 " style="stroke:#000000;stroke-width: 1.13 ;&st6;"/>
	</a>
	<a ewd:lineID="17" style="cursor:pointer;">
		<path d=" M  594.90,  503.20  L  620.40,  503.20 " style="stroke:#000000;stroke-width: 5.10 ;&st6;"/>
		<path d=" M  594.90,  503.20  L  620.40,  503.20 " style="stroke:#FFFFFF;stroke-width: 4.53 ;&st6;"/>
		<path d=" M  594.90,  503.20  L  620.40,  503.20 " style="stroke:#000000;stroke-width: 1.13 ;&st6;"/>
	</a>
	<a ewd:lineID="18" style="cursor:pointer;">
		<path d=" M  628.89,  511.70  L  628.89,  656.18  L 1019.83,  656.18  L 1019.83,  214.25  L  968.84,  214.25 " style="stroke:#000000;stroke-width: 5.10 ;&st6;"/>
		<path d=" M  628.89,  511.70  L  628.89,  656.18  L 1019.83,  656.18  L 1019.83,  214.25  L  968.84,  214.25 " style="stroke:#FFFFFF;stroke-width: 4.53 ;&st6;"/>
		<path d=" M  628.89,  511.70  L  628.89,  656.18  L 1019.83,  656.18  L 1019.83,  214.25  L  968.84,  214.25 " style="stroke:#000000;stroke-width: 1.13 ;&st6;"/>
	</a>
	<a ewd:lineID="19" style="cursor:pointer;">
		<path d=" M  773.37,  324.73  L  773.37,  248.24  L  628.89,  248.24  L  628.89,  494.70 " style="stroke:#000000;stroke-width: 5.10 ;&st6;"/>
		<path d=" M  773.37,  324.73  L  773.37,  248.24  L  628.89,  248.24  L  628.89,  494.70 " style="stroke:#FFFFFF;stroke-width: 4.53 ;&st6;"/>
		<path d=" M  773.37,  324.73  L  773.37,  248.24  L  628.89,  248.24  L  628.89,  494.70 " style="stroke:#000000;stroke-width: 1.13 ;&st6;"/>
	</a>
	<a ewd:lineID="20" style="cursor:pointer;">
		<path d=" M  637.39,  503.20  L  662.89,  503.20 " style="stroke:#000000;stroke-width: 5.10 ;&st6;"/>
		<path d=" M  637.39,  503.20  L  662.89,  503.20 " style="stroke:#FFFFFF;stroke-width: 4.53 ;&st6;"/>
		<path d=" M  637.39,  503.20  L  662.89,  503.20 " style="stroke:#000000;stroke-width: 1.13 ;&st6;"/>
	</a>
	<a ewd:lineID="21" style="cursor:pointer;">
		<path d=" M  671.39,  511.70  L  671.39,  639.18  L  994.33,  639.18  L  994.33,  248.24  L  968.84,  248.24 " style="stroke:#000000;stroke-width: 5.10 ;&st6;"/>
		<path d=" M  671.39,  511.70  L  671.39,  639.18  L  994.33,  639.18  L  994.33,  248.24  L  968.84,  248.24 " style="stroke:#FFFFFF;stroke-width: 4.53 ;&st6;"/>
		<path d=" M  671.39,  511.70  L  671.39,  639.18  L  994.33,  639.18  L  994.33,  248.24  L  968.84,  248.24 " style="stroke:#000000;stroke-width: 1.13 ;&st6;"/>
	</a>
	<a ewd:lineID="22" style="cursor:pointer;">
		<path d=" M  730.88,  324.73  L  730.88,  265.24  L  671.39,  265.24  L  671.39,  494.70 " style="stroke:#000000;stroke-width: 5.10 ;&st6;"/>
		<path d=" M  730.88,  324.73  L  730.88,  265.24  L  671.39,  265.24  L  671.39,  494.70 " style="stroke:#FFFFFF;stroke-width: 4.53 ;&st6;"/>
		<path d=" M  730.88,  324.73  L  730.88,  265.24  L  671.39,  265.24  L  671.39,  494.70 " style="stroke:#000000;stroke-width: 1.13 ;&st6;"/>
	</a>
	<a ewd:lineID="23" style="cursor:pointer;">
		<path d=" M  781.87,  418.22  L  781.87,  605.18  L  722.38,  605.18  L  722.38,  582.52 " style="stroke:#C3AF96;stroke-width: 5.10 ;&st6;"/>
	</a>
	<a ewd:lineID="24" style="cursor:pointer;">
		<path d=" M  722.38,  418.22  L  722.38,  559.86 " style="stroke:#000000;stroke-width: 5.10 ;&st6;"/>
	</a>
	<a ewd:lineID="25" style="cursor:pointer;">
		<path d=" M  866.86,  324.73  L  866.86,  214.25  L  839.09,  214.25 " style="stroke:#7FC97F;stroke-width: 5.10 ;&st6;"/>
	</a>
	<a ewd:lineID="26" style="cursor:pointer;">
		<path d=" M  875.35,  582.52  L  875.35,  605.18  L  934.84,  605.18  L  934.84,  494.70 " style="stroke:#FF0000;stroke-width: 5.10 ;&st6;"/>
	</a>
	<a ewd:lineID="27" style="cursor:pointer;">
		<path d=" M  875.35,  559.86  L  875.35,  494.70 " style="stroke:#FFE600;stroke-width: 5.10 ;&st6;"/>
	</a>
	<a ewd:lineID="28" style="cursor:pointer;">
		<path d=" M  875.35,  479.69  L  875.35,  418.22 " style="stroke:#000000;stroke-width: 5.10 ;&st6;"/>
		<path d=" M  875.35,  479.69  L  875.35,  418.22 " style="stroke:#FFFFFF;stroke-width: 4.53 ;&st6;"/>
	</a>
	<a ewd:lineID="29" style="cursor:pointer;">
		<path d=" M  945.61,  214.25  L  883.85,  214.25  L  883.85,  324.73 " style="stroke:#000000;stroke-width: 5.10 ;&st6;"/>
		<path d=" M  945.61,  214.25  L  883.85,  214.25  L  883.85,  324.73 " style="stroke:#FFFFFF;stroke-width: 4.53 ;&st6;"/>
		<path d=" M  945.61,  214.25  L  883.85,  214.25  L  883.85,  324.73 " style="stroke:#000000;stroke-width: 1.13 ;&st6;"/>
	</a>
	<a ewd:lineID="30" style="cursor:pointer;">
		<path d=" M  945.61,  248.24  L  926.35,  248.24  L  926.35,  324.73 " style="stroke:#000000;stroke-width: 5.10 ;&st6;"/>
		<path d=" M  945.61,  248.24  L  926.35,  248.24  L  926.35,  324.73 " style="stroke:#FFFFFF;stroke-width: 4.53 ;&st6;"/>
		<path d=" M  945.61,  248.24  L  926.35,  248.24  L  926.35,  324.73 " style="stroke:#000000;stroke-width: 1.13 ;&st6;"/>
	</a>
	<a ewd:lineID="31" style="cursor:pointer;">
		<path d=" M  934.84,  479.97  L  934.84,  418.22 " style="stroke:#FFE600;stroke-width: 5.10 ;&st6;"/>
	</a>
	<path d=" M   36.12,  103.77  L   31.87,  103.77 " style="stroke-width: 1.42 ;&st7; "/>
	<path d=" M   36.12,   95.27  L   31.87,   95.27 " style="stroke-width: 1.42 ;&st7; "/>
	<path d=" M   33.99,   69.77  L   33.99,   95.27 " style="stroke-width: 0.85 ;&st7; "/>
	<path d=" M   42.49,  171.76  L   33.99,  171.76 " style="stroke-width: 1.42 ;&st7; "/>
	<path d=" M  476.44,  366.38  L  484.42,  381.39 " style="stroke-width: 1.42 ;&st7; "/>
	<path d=" M  492.92,  367.22  L  492.92,  358.73 " style="stroke-width: 0.85 ;&st7; "/>
	<path d=" M  475.92,  367.22  L  475.92,  358.73 " style="stroke-width: 0.85 ;&st7; "/>
	<path d=" M  484.42,  418.22  L  484.42,  384.22 " style="stroke-width: 0.85 ;&st7; "/>
	<path d=" M  432.91,  366.38  L  424.93,  381.39 " style="stroke-width: 1.42 ;&st7; "/>
	<path d=" M  433.43,  367.22  L  433.43,  333.23 " style="stroke-width: 0.85 ;&st7; "/>
	<path d=" M  416.43,  367.22  L  416.43,  299.24 " style="stroke-width: 0.85 ;&st7; "/>
	<path d=" M  424.93,  418.22  L  424.93,  384.22 " style="stroke-width: 0.85 ;&st7; "/>
	<path d=" M   38.24,  582.52  L   46.74,  582.52 " style="stroke-width: 1.42 ;&st7; "/>
	<path d=" M   38.24,  578.56  L   38.24,  582.52 " style="stroke-width: 1.42 ;&st7; "/>
	<path d=" M   46.74,  582.52  L   46.74,  578.56 " style="stroke-width: 1.42 ;&st7; "/>
	<path d=" M   38.24,  559.86  L   46.74,  559.86 " style="stroke-width: 1.42 ;&st7; "/>
	<path d=" M   38.24,  563.82  L   38.24,  559.86 " style="stroke-width: 1.42 ;&st7; "/>
	<path d=" M   46.74,  559.86  L   46.74,  563.82 " style="stroke-width: 1.42 ;&st7; "/>
	<path d=" M  313.93,  366.38  L  305.95,  381.39 " style="stroke-width: 1.42 ;&st7; "/>
	<path d=" M  314.45,  367.22  L  314.45,  316.23 " style="stroke-width: 0.85 ;&st7; "/>
	<path d=" M  297.45,  367.22  L  297.45,  299.24 " style="stroke-width: 0.85 ;&st7; "/>
	<path d=" M  305.95,  418.22  L  305.95,  384.22 " style="stroke-width: 0.85 ;&st7; "/>
	<path d=" M  186.45,  366.38  L  178.47,  381.39 " style="stroke-width: 1.42 ;&st7; "/>
	<path d=" M  186.97,  367.22  L  186.97,  358.73 " style="stroke-width: 0.85 ;&st7; "/>
	<path d=" M  429.18,  559.86  L  429.18,  563.82 " style="stroke-width: 1.42 ;&st7; "/>
	<path d=" M  420.68,  563.82  L  420.68,  559.86 " style="stroke-width: 1.42 ;&st7; "/>
	<path d=" M  420.68,  559.86  L  429.18,  559.86 " style="stroke-width: 1.42 ;&st7; "/>
	<path d=" M  429.18,  582.52  L  429.18,  578.56 " style="stroke-width: 1.42 ;&st7; "/>
	<path d=" M  420.68,  578.56  L  420.68,  582.52 " style="stroke-width: 1.42 ;&st7; "/>
	<path d=" M  420.68,  582.52  L  429.18,  582.52 " style="stroke-width: 1.42 ;&st7; "/>
	<path d=" M  169.97,  367.22  L  169.97,  299.24 " style="stroke-width: 0.85 ;&st7; "/>
	<path d=" M  178.47,  418.22  L  178.47,  384.22 " style="stroke-width: 0.85 ;&st7; "/>
	<path d=" M  301.70,  582.52  L  310.20,  582.52 " style="stroke-width: 1.42 ;&st7; "/>
	<path d=" M  301.70,  578.56  L  301.70,  582.52 " style="stroke-width: 1.42 ;&st7; "/>
	<path d=" M  310.20,  582.52  L  310.20,  578.56 " style="stroke-width: 1.42 ;&st7; "/>
	<path d=" M  301.70,  559.86  L  310.20,  559.86 " style="stroke-width: 1.42 ;&st7; "/>
	<path d=" M  301.70,  563.82  L  301.70,  559.86 " style="stroke-width: 1.42 ;&st7; "/>
	<path d=" M  310.20,  559.86  L  310.20,  563.82 " style="stroke-width: 1.42 ;&st7; "/>
	<path d=" M   33.99,  367.22  L   33.99,  282.24 " style="stroke-width: 0.85 ;&st7; "/>
	<path d=" M   50.47,  366.38  L   42.49,  381.39 " style="stroke-width: 1.42 ;&st7; "/>
	<path d=" M   42.49,  418.22  L   42.49,  384.22 " style="stroke-width: 0.85 ;&st7; "/>
	<path d=" M  781.87,  418.22  L  781.87,  392.72 " style="stroke-width: 0.85 ;&st7; "/>
	<path d=" M  773.37,  375.72  L  773.37,  367.22 " style="stroke-width: 0.85 ;&st7; "/>
	<path d=" M  790.37,  375.72  L  790.37,  358.73 " style="stroke-width: 0.85 ;&st7; "/>
	<path d=" M  773.89,  374.88  L  781.87,  389.89 " style="stroke-width: 1.42 ;&st7; "/>
	<path d=" M  722.38,  418.22  L  722.38,  392.72 " style="stroke-width: 0.85 ;&st7; "/>
	<path d=" M  713.88,  375.72  L  713.88,  358.73 " style="stroke-width: 0.85 ;&st7; "/>
	<path d=" M  730.88,  375.72  L  730.88,  367.22 " style="stroke-width: 0.85 ;&st7; "/>
	<path d=" M  730.36,  374.88  L  722.38,  389.89 " style="stroke-width: 1.42 ;&st7; "/>
	<path d=" M  365.44,  418.22  L  365.44,  384.22 " style="stroke-width: 0.85 ;&st7; "/>
	<path d=" M  356.94,  367.22  L  356.94,  316.23 " style="stroke-width: 0.85 ;&st7; "/>
	<path d=" M  373.94,  367.22  L  373.94,  299.24 " style="stroke-width: 0.85 ;&st7; "/>
	<path d=" M  357.46,  366.38  L  365.44,  381.39 " style="stroke-width: 1.42 ;&st7; "/>
	<path d=" M  237.96,  418.22  L  237.96,  384.22 " style="stroke-width: 0.85 ;&st7; "/>
	<path d=" M  229.46,  367.22  L  229.46,  358.73 " style="stroke-width: 0.85 ;&st7; "/>
	<path d=" M  246.46,  367.22  L  246.46,  299.24 " style="stroke-width: 0.85 ;&st7; "/>
	<path d=" M  229.98,  366.38  L  237.96,  381.39 " style="stroke-width: 1.42 ;&st7; "/>
	<path d=" M  101.98,  418.22  L  101.98,  384.22 " style="stroke-width: 0.85 ;&st7; "/>
	<path d=" M   93.48,  367.22  L   93.48,  316.23 " style="stroke-width: 0.85 ;&st7; "/>
	<path d=" M  110.48,  367.22  L  110.48,  299.24 " style="stroke-width: 0.85 ;&st7; "/>
	<path d=" M   94.00,  366.38  L  101.98,  381.39 " style="stroke-width: 1.42 ;&st7; "/>
	<path d=" M  577.90,  579.69  L  586.40,  579.69 " style="stroke-width: 1.42 ;&st7; "/>
	<path d=" M  718.13,  582.52  L  726.63,  582.52 " style="stroke-width: 1.42 ;&st7; "/>
	<path d=" M  718.13,  578.56  L  718.13,  582.52 " style="stroke-width: 1.42 ;&st7; "/>
	<path d=" M  726.63,  582.52  L  726.63,  578.56 " style="stroke-width: 1.42 ;&st7; "/>
	<path d=" M  718.13,  559.86  L  726.63,  559.86 " style="stroke-width: 1.42 ;&st7; "/>
	<path d=" M  718.13,  563.82  L  718.13,  559.86 " style="stroke-width: 1.42 ;&st7; "/>
	<path d=" M  726.63,  559.86  L  726.63,  563.82 " style="stroke-width: 1.42 ;&st7; "/>
	<path d=" M  182.72,  559.86  L  182.72,  563.82 " style="stroke-width: 1.42 ;&st7; "/>
	<path d=" M  174.22,  563.82  L  174.22,  559.86 " style="stroke-width: 1.42 ;&st7; "/>
	<path d=" M  174.22,  559.86  L  182.72,  559.86 " style="stroke-width: 1.42 ;&st7; "/>
	<path d=" M  182.72,  582.52  L  182.72,  578.56 " style="stroke-width: 1.42 ;&st7; "/>
	<path d=" M  174.22,  578.56  L  174.22,  582.52 " style="stroke-width: 1.42 ;&st7; "/>
	<path d=" M  174.22,  582.52  L  182.72,  582.52 " style="stroke-width: 1.42 ;&st7; "/>
	<path d=" M  879.60,  559.86  L  879.60,  563.82 " style="stroke-width: 1.42 ;&st7; "/>
	<path d=" M  871.10,  563.82  L  871.10,  559.86 " style="stroke-width: 1.42 ;&st7; "/>
	<path d=" M  871.10,  559.86  L  879.60,  559.86 " style="stroke-width: 1.42 ;&st7; "/>
	<path d=" M  879.60,  582.52  L  879.60,  578.56 " style="stroke-width: 1.42 ;&st7; "/>
	<path d=" M  871.10,  578.56  L  871.10,  582.52 " style="stroke-width: 1.42 ;&st7; "/>
	<path d=" M  871.10,  582.52  L  879.60,  582.52 " style="stroke-width: 1.42 ;&st7; "/>
	<path d=" M  883.33,  374.88  L  875.35,  389.89 " style="stroke-width: 1.42 ;&st7; "/>
	<path d=" M  883.85,  375.72  L  883.85,  367.22 " style="stroke-width: 0.85 ;&st7; "/>
	<path d=" M  866.86,  375.72  L  866.86,  358.73 " style="stroke-width: 0.85 ;&st7; "/>
	<path d=" M  875.35,  418.22  L  875.35,  392.72 " style="stroke-width: 0.85 ;&st7; "/>
	<path d=" M  926.86,  374.88  L  934.84,  389.89 " style="stroke-width: 1.42 ;&st7; "/>
	<path d=" M  943.34,  375.72  L  943.34,  358.73 " style="stroke-width: 0.85 ;&st7; "/>
	<path d=" M  926.35,  375.72  L  926.35,  367.22 " style="stroke-width: 0.85 ;&st7; "/>
	<path d=" M  934.84,  418.22  L  934.84,  392.72 " style="stroke-width: 0.85 ;&st7; "/>
	<path d=" M  594.90,  499.67  L  589.93,  494.70 " style="stroke-width: 1.42 ;&st7; "/>
	<path d=" M  577.90,  506.73  L  582.87,  511.70 " style="stroke-width: 1.42 ;&st7; "/>
	<path d=" M  589.93,  511.70  L  594.90,  506.73 " style="stroke-width: 1.42 ;&st7; "/>
	<path d=" M  582.87,  494.70  L  577.90,  499.67 " style="stroke-width: 1.42 ;&st7; "/>
	<path d=" M  637.39,  499.67  L  632.42,  494.70 " style="stroke-width: 1.42 ;&st7; "/>
	<path d=" M  620.40,  506.73  L  625.37,  511.70 " style="stroke-width: 1.42 ;&st7; "/>
	<path d=" M  632.42,  511.70  L  637.39,  506.73 " style="stroke-width: 1.42 ;&st7; "/>
	<path d=" M  625.37,  494.70  L  620.40,  499.67 " style="stroke-width: 1.42 ;&st7; "/>
	<path d=" M  679.89,  499.67  L  674.91,  494.70 " style="stroke-width: 1.42 ;&st7; "/>
	<path d=" M  662.89,  506.73  L  667.86,  511.70 " style="stroke-width: 1.42 ;&st7; "/>
	<path d=" M  674.91,  511.70  L  679.89,  506.73 " style="stroke-width: 1.42 ;&st7; "/>
	<path d=" M  667.86,  494.70  L  662.89,  499.67 " style="stroke-width: 1.42 ;&st7; "/>
	<path d=" M   42.49,  210.72  L   37.52,  205.75 " style="stroke-width: 1.42 ;&st7; "/>
	<path d=" M   25.50,  217.78  L   30.46,  222.75 " style="stroke-width: 1.42 ;&st7; "/>
	<path d=" M   37.52,  222.75  L   42.49,  217.78 " style="stroke-width: 1.42 ;&st7; "/>
	<path d=" M   30.46,  205.75  L   25.50,  210.72 " style="stroke-width: 1.42 ;&st7; "/>
	<path d=" M  866.86,  486.20  L  875.35,  486.20 " style="stroke-width: 1.42 ;&st7; "/>
	<path d=" M  926.35,  486.20  L  934.84,  486.20 " style="stroke-width: 1.42 ;&st7; "/>
	<path d=" M  951.84,  214.25  L  951.84,  218.50 " style="stroke-width: 1.42 ;&st7; "/>
	<path d=" M  951.84,  248.24  L  951.84,  252.49 " style="stroke-width: 1.42 ;&st7; "/>
	<path d=" M  832.86,  210.00  L  832.86,  214.25 " style="stroke-width: 1.42 ;&st7; "/>
	<path d=" M  849.86,  324.73  L  849.86,  418.22  L  960.34,  418.22  L  960.34,  324.73  L  849.86,  324.73 " style="stroke-width: 1.42 ;&st7; "/>
	<path d=" M  926.34,  367.22  L  926.34,  324.73 " style="stroke-width: 0.85 ;&st7; "/>
	<path d=" M  883.85,  367.22  L  883.85,  324.73 " style="stroke-width: 0.85 ;&st7; "/>
	<path d=" M  866.85,  324.73  L  866.85,  358.73  L  943.34,  358.73 " style="stroke-width: 0.85 ;&st7; "/>
	<path d=" M  865.66,  357.72  L  865.39,  358.19  L  865.30,  358.73  L  865.39,  359.26  L  865.66,  359.73  L  866.08,  360.07  L  866.58,  360.26  L  867.13,  360.26  L  867.63,  360.07  L  868.05,  359.73  L  868.32,  359.26  L  868.41,  358.73  L  868.32,  358.19  L  868.05,  357.72  L  867.63,  357.38  L  867.13,  357.19  L  866.58,  357.19  L  866.08,  357.38  L  865.66,  357.72  L  866.06,  358.43  L  866.06,  359.02  L  866.43,  359.46  L  867.00,  359.56  L  867.51,  359.27  L  867.70,  358.73  L  867.51,  358.18  L  867.00,  357.89  L  866.43,  357.99  L  866.85,  358.73 " style="stroke-width: 0.85 ;&st7; "/>
	<path d=" M  790.37,  358.73  L  790.37,  324.73 " style="stroke-width: 0.85 ;&st7; "/>
	<path d=" M  313.25,  315.23  L  312.98,  315.70  L  312.89,  316.23  L  312.98,  316.77  L  313.25,  317.24  L  313.67,  317.58  L  314.18,  317.77  L  314.72,  317.77  L  315.23,  317.58  L  315.64,  317.24  L  315.91,  316.77  L  316.01,  316.23  L  315.91,  315.70  L  315.64,  315.23  L  315.23,  314.88  L  314.72,  314.70  L  314.18,  314.70  L  313.67,  314.88  L  313.25,  315.23  L  313.65,  315.94  L  313.65,  316.52  L  314.02,  316.97  L  314.59,  317.07  L  315.10,  316.78  L  315.30,  316.23  L  315.10,  315.69  L  314.59,  315.40  L  314.02,  315.50  L  314.45,  316.23 " style="stroke-width: 0.85 ;&st7; "/>
	<path d=" M  296.26,  298.23  L  295.99,  298.70  L  295.89,  299.24  L  295.99,  299.77  L  296.26,  300.24  L  296.67,  300.58  L  297.18,  300.77  L  297.72,  300.77  L  298.23,  300.58  L  298.64,  300.24  L  298.91,  299.77  L  299.01,  299.24  L  298.91,  298.70  L  298.64,  298.23  L  298.23,  297.89  L  297.72,  297.70  L  297.18,  297.70  L  296.67,  297.89  L  296.26,  298.23  L  296.65,  298.94  L  296.65,  299.53  L  297.03,  299.97  L  297.60,  300.07  L  298.10,  299.78  L  298.30,  299.24  L  298.10,  298.69  L  297.60,  298.40  L  297.03,  298.50  L  297.45,  299.24 " style="stroke-width: 0.85 ;&st7; "/>
	<path d=" M  492.92,  358.73  L  492.92,  299.24  L   33.99,  299.24 " style="stroke-width: 0.85 ;&st7; "/>
	<path d=" M   41.30,  400.22  L   41.03,  400.69  L   40.93,  401.22  L   41.03,  401.75  L   41.30,  402.22  L   41.71,  402.57  L   42.22,  402.75  L   42.76,  402.75  L   43.27,  402.57  L   43.69,  402.22  L   43.96,  401.75  L   44.05,  401.22  L   43.96,  400.69  L   43.69,  400.22  L   43.27,  399.87  L   42.76,  399.68  L   42.22,  399.68  L   41.71,  399.87  L   41.30,  400.22  L   41.69,  400.93  L   41.69,  401.51  L   42.07,  401.95  L   42.64,  402.05  L   43.14,  401.77  L   43.34,  401.22  L   43.14,  400.67  L   42.64,  400.38  L   42.07,  400.48  L   42.49,  401.22 " style="stroke-width: 0.85 ;&st7; "/>
	<path d=" M  186.97,  358.73  L  186.97,  350.23 " style="stroke-width: 0.85 ;&st7; "/>
	<path d=" M  101.98,  401.22  L  135.98,  401.22  L  135.98,  333.23  L  475.92,  333.23  L  475.92,  358.73 " style="stroke-width: 0.85 ;&st7; "/>
	<path d=" M   42.49,  401.22  L   17.00,  401.22  L   17.00,  350.23  L  229.46,  350.23  L  229.46,  358.73 " style="stroke-width: 0.85 ;&st7; "/>
	<path d=" M  100.79,  400.22  L  100.52,  400.69  L  100.42,  401.22  L  100.52,  401.75  L  100.79,  402.22  L  101.20,  402.57  L  101.71,  402.75  L  102.25,  402.75  L  102.76,  402.57  L  103.18,  402.22  L  103.45,  401.75  L  103.54,  401.22  L  103.45,  400.69  L  103.18,  400.22  L  102.76,  399.87  L  102.25,  399.68  L  101.71,  399.68  L  101.20,  399.87  L  100.79,  400.22  L  101.18,  400.93  L  101.18,  401.51  L  101.56,  401.95  L  102.13,  402.05  L  102.63,  401.77  L  102.83,  401.22  L  102.63,  400.67  L  102.13,  400.38  L  101.56,  400.48  L  101.98,  401.22 " style="stroke-width: 0.85 ;&st7; "/>
	<path d=" M  415.24,  298.23  L  414.97,  298.70  L  414.87,  299.24  L  414.97,  299.77  L  415.24,  300.24  L  415.65,  300.58  L  416.16,  300.77  L  416.70,  300.77  L  417.21,  300.58  L  417.62,  300.24  L  417.89,  299.77  L  417.99,  299.24  L  417.89,  298.70  L  417.62,  298.23  L  417.21,  297.89  L  416.70,  297.70  L  416.16,  297.70  L  415.65,  297.89  L  415.24,  298.23  L  415.63,  298.94  L  415.63,  299.53  L  416.01,  299.97  L  416.58,  300.07  L  417.08,  299.78  L  417.28,  299.24  L  417.08,  298.69  L  416.58,  298.40  L  416.01,  298.50  L  416.43,  299.24 " style="stroke-width: 0.85 ;&st7; "/>
	<path d=" M  432.23,  332.23  L  431.96,  332.70  L  431.87,  333.23  L  431.96,  333.76  L  432.23,  334.23  L  432.65,  334.58  L  433.16,  334.77  L  433.70,  334.77  L  434.21,  334.58  L  434.62,  334.23  L  434.89,  333.76  L  434.99,  333.23  L  434.89,  332.70  L  434.62,  332.23  L  434.21,  331.88  L  433.70,  331.69  L  433.16,  331.69  L  432.65,  331.88  L  432.23,  332.23  L  432.63,  332.94  L  432.63,  333.52  L  433.00,  333.97  L  433.57,  334.07  L  434.08,  333.78  L  434.28,  333.23  L  434.08,  332.68  L  433.57,  332.39  L  433.00,  332.49  L  433.43,  333.23 " style="stroke-width: 0.85 ;&st7; "/>
	<path d=" M  372.74,  298.23  L  372.47,  298.70  L  372.38,  299.24  L  372.47,  299.77  L  372.74,  300.24  L  373.16,  300.58  L  373.67,  300.77  L  374.21,  300.77  L  374.72,  300.58  L  375.13,  300.24  L  375.40,  299.77  L  375.50,  299.24  L  375.40,  298.70  L  375.13,  298.23  L  374.72,  297.89  L  374.21,  297.70  L  373.67,  297.70  L  373.16,  297.89  L  372.74,  298.23  L  373.14,  298.94  L  373.14,  299.53  L  373.51,  299.97  L  374.08,  300.07  L  374.59,  299.78  L  374.79,  299.24  L  374.59,  298.69  L  374.08,  298.40  L  373.51,  298.50  L  373.94,  299.24 " style="stroke-width: 0.85 ;&st7; "/>
	<path d=" M  355.75,  315.23  L  355.48,  315.70  L  355.38,  316.23  L  355.48,  316.77  L  355.75,  317.24  L  356.16,  317.58  L  356.67,  317.77  L  357.21,  317.77  L  357.72,  317.58  L  358.13,  317.24  L  358.40,  316.77  L  358.50,  316.23  L  358.40,  315.70  L  358.13,  315.23  L  357.72,  314.88  L  357.21,  314.70  L  356.67,  314.70  L  356.16,  314.88  L  355.75,  315.23  L  356.14,  315.94  L  356.14,  316.52  L  356.52,  316.97  L  357.09,  317.07  L  357.59,  316.78  L  357.79,  316.23  L  357.59,  315.69  L  357.09,  315.40  L  356.52,  315.50  L  356.94,  316.23 " style="stroke-width: 0.85 ;&st7; "/>
	<path d=" M  790.37,  358.73  L  713.88,  358.73 " style="stroke-width: 0.85 ;&st7; "/>
	<path d=" M  730.88,  367.22  L  730.88,  324.73 " style="stroke-width: 0.85 ;&st7; "/>
	<path d=" M  773.37,  367.22  L  773.37,  324.73 " style="stroke-width: 0.85 ;&st7; "/>
	<path d=" M  185.78,  349.22  L  185.50,  349.69  L  185.41,  350.23  L  185.50,  350.76  L  185.78,  351.23  L  186.19,  351.58  L  186.70,  351.76  L  187.24,  351.76  L  187.75,  351.58  L  188.16,  351.23  L  188.43,  350.76  L  188.53,  350.23  L  188.43,  349.69  L  188.16,  349.22  L  187.75,  348.88  L  187.24,  348.69  L  186.70,  348.69  L  186.19,  348.88  L  185.78,  349.22  L  186.17,  349.94  L  186.17,  350.52  L  186.54,  350.96  L  187.12,  351.06  L  187.62,  350.77  L  187.82,  350.23  L  187.62,  349.68  L  187.12,  349.39  L  186.54,  349.49  L  186.97,  350.23 " style="stroke-width: 0.85 ;&st7; "/>
	<path d=" M   92.29,  315.23  L   92.02,  315.70  L   91.93,  316.23  L   92.02,  316.77  L   92.29,  317.24  L   92.71,  317.58  L   93.21,  317.77  L   93.76,  317.77  L   94.26,  317.58  L   94.68,  317.24  L   94.95,  316.77  L   95.04,  316.23  L   94.95,  315.70  L   94.68,  315.23  L   94.26,  314.88  L   93.76,  314.70  L   93.21,  314.70  L   92.71,  314.88  L   92.29,  315.23  L   92.69,  315.94  L   92.69,  316.52  L   93.06,  316.97  L   93.63,  317.07  L   94.14,  316.78  L   94.33,  316.23  L   94.14,  315.69  L   93.63,  315.40  L   93.06,  315.50  L   93.48,  316.23 " style="stroke-width: 0.85 ;&st7; "/>
	<path d=" M   50.99,  367.22  L   50.99,  316.23  L  586.40,  316.23  L  586.40,  418.22 " style="stroke-width: 0.85 ;&st7; "/>
	<path d=" M   32.80,  298.23  L   32.53,  298.70  L   32.44,  299.24  L   32.53,  299.77  L   32.80,  300.24  L   33.22,  300.58  L   33.72,  300.77  L   34.27,  300.77  L   34.77,  300.58  L   35.19,  300.24  L   35.46,  299.77  L   35.55,  299.24  L   35.46,  298.70  L   35.19,  298.23  L   34.77,  297.89  L   34.27,  297.70  L   33.72,  297.70  L   33.22,  297.89  L   32.80,  298.23  L   33.20,  298.94  L   33.20,  299.53  L   33.57,  299.97  L   34.14,  300.07  L   34.65,  299.78  L   34.84,  299.24  L   34.65,  298.69  L   34.14,  298.40  L   33.57,  298.50  L   33.99,  299.24 " style="stroke-width: 0.85 ;&st7; "/>
	<path d=" M  109.29,  298.23  L  109.02,  298.70  L  108.92,  299.24  L  109.02,  299.77  L  109.29,  300.24  L  109.70,  300.58  L  110.21,  300.77  L  110.75,  300.77  L  111.26,  300.58  L  111.67,  300.24  L  111.95,  299.77  L  112.04,  299.24  L  111.95,  298.70  L  111.67,  298.23  L  111.26,  297.89  L  110.75,  297.70  L  110.21,  297.70  L  109.70,  297.89  L  109.29,  298.23  L  109.68,  298.94  L  109.68,  299.53  L  110.06,  299.97  L  110.63,  300.07  L  111.13,  299.78  L  111.33,  299.24  L  111.13,  298.69  L  110.63,  298.40  L  110.06,  298.50  L  110.48,  299.24 " style="stroke-width: 0.85 ;&st7; "/>
	<path d=" M  245.27,  298.23  L  244.99,  298.70  L  244.90,  299.24  L  244.99,  299.77  L  245.27,  300.24  L  245.68,  300.58  L  246.19,  300.77  L  246.73,  300.77  L  247.24,  300.58  L  247.65,  300.24  L  247.92,  299.77  L  248.02,  299.24  L  247.92,  298.70  L  247.65,  298.23  L  247.24,  297.89  L  246.73,  297.70  L  246.19,  297.70  L  245.68,  297.89  L  245.27,  298.23  L  245.66,  298.94  L  245.66,  299.53  L  246.03,  299.97  L  246.61,  300.07  L  247.11,  299.78  L  247.31,  299.24  L  247.11,  298.69  L  246.61,  298.40  L  246.03,  298.50  L  246.46,  299.24 " style="stroke-width: 0.85 ;&st7; "/>
	<path d=" M   38.24,  177.42  L   33.99,  173.17  L   29.75,  177.42 " style="stroke-width: 1.42 ;&st7; "/>
	<path d=" M   38.24,  180.82  L   33.99,  176.57  L   29.75,  180.82 " style="stroke-width: 1.42 ;&st7; "/>
	<path d=" M   46.74,   78.27  L   46.74,   35.78  L   21.25,   35.78  L   21.25,   78.27  L   46.74,   78.27 " style="stroke-width: 1.42 ;&st7; "/>
	<path d=" M   33.99,   90.37  L   31.16,   87.54  L   31.16,   91.79  L   33.99,   94.62  L   36.83,   91.79  L   36.83,   87.54  L   33.99,   90.37 " style="stroke-width: 0.28 ;&st9;"/>
	<path d=" M  586.40,  697.25  L  586.40,  701.50 " style="stroke-width: 0.85 ;&st7; "/>
	<path d=" M  577.90,  701.50  L  594.90,  701.50 " style="stroke-width: 0.85 ;&st7; "/>
	<path d=" M  582.15,  704.33  L  590.65,  704.33 " style="stroke-width: 0.85 ;&st7; "/>
	<path d=" M  583.57,  707.17  L  589.23,  707.17 " style="stroke-width: 0.85 ;&st7; "/>
	<path d=" M  584.99,  710.00  L  587.82,  710.00 " style="stroke-width: 0.85 ;&st7; "/>
	<path d=" M  696.88,  324.73  L  696.88,  418.22  L  807.36,  418.22  L  807.36,  324.73  L  696.88,  324.73 " style="stroke-width: 1.42 ;&st7; "/>
	<path d=" M  168.78,  298.23  L  168.51,  298.70  L  168.41,  299.24  L  168.51,  299.77  L  168.78,  300.24  L  169.19,  300.58  L  169.70,  300.77  L  170.24,  300.77  L  170.75,  300.58  L  171.16,  300.24  L  171.44,  299.77  L  171.53,  299.24  L  171.44,  298.70  L  171.16,  298.23  L  170.75,  297.89  L  170.24,  297.70  L  169.70,  297.70  L  169.19,  297.89  L  168.78,  298.23  L  169.17,  298.94  L  169.17,  299.53  L  169.55,  299.97  L  170.12,  300.07  L  170.62,  299.78  L  170.82,  299.24  L  170.62,  298.69  L  170.12,  298.40  L  169.55,  298.50  L  169.97,  299.24 " style="stroke-width: 0.85 ;&st7; "/>
	<path d=" M    0.00,  282.24  L    0.00,  418.22  L  603.40,  418.22  L  603.40,  282.24  L    0.00,  282.24 " style="stroke-width: 1.42 ;&st7; "/>
	<path d=" M  582.15,  570.62  L  586.40,  574.87  L  590.65,  570.62 " style="stroke-width: 1.42 ;&st7; "/>
	<path d=" M  590.65,  574.02  L  586.40,  578.27  L  582.15,  574.02 " style="stroke-width: 1.42 ;&st7; "/>
	<path d=" M  789.17,  357.72  L  788.90,  358.19  L  788.81,  358.73  L  788.90,  359.26  L  789.17,  359.73  L  789.59,  360.07  L  790.10,  360.26  L  790.64,  360.26  L  791.15,  360.07  L  791.56,  359.73  L  791.83,  359.26  L  791.93,  358.73  L  791.83,  358.19  L  791.56,  357.72  L  791.15,  357.38  L  790.64,  357.19  L  790.10,  357.19  L  789.59,  357.38  L  789.17,  357.72  L  789.57,  358.43  L  789.57,  359.02  L  789.94,  359.46  L  790.51,  359.56  L  791.02,  359.27  L  791.22,  358.73  L  791.02,  358.18  L  790.51,  357.89  L  789.94,  357.99  L  790.37,  358.73 " style="stroke-width: 0.85 ;&st7; "/>
	<path d=" M  871.10,  477.14  L  875.35,  481.39  L  879.60,  477.14 " style="stroke-width: 1.42 ;&st7; "/>
	<path d=" M  879.60,  480.54  L  875.35,  484.79  L  871.10,  480.54 " style="stroke-width: 1.42 ;&st7; "/>
	<path d=" M  930.59,  477.14  L  934.84,  481.39  L  939.09,  477.14 " style="stroke-width: 1.42 ;&st7; "/>
	<path d=" M  939.09,  480.54  L  934.84,  484.79  L  930.59,  480.54 " style="stroke-width: 1.42 ;&st7; "/>
	<path d=" M  946.17,  210.00  L  950.42,  214.25  L  946.17,  218.50 " style="stroke-width: 1.42 ;&st7; "/>
	<path d=" M  942.78,  210.00  L  947.02,  214.25  L  942.78,  218.50 " style="stroke-width: 1.42 ;&st7; "/>
	<path d=" M  946.17,  243.99  L  950.42,  248.24  L  946.17,  252.49 " style="stroke-width: 1.42 ;&st7; "/>
	<path d=" M  942.78,  243.99  L  947.02,  248.24  L  942.78,  252.49 " style="stroke-width: 1.42 ;&st7; "/>
	<path d=" M  841.93,  218.50  L  837.68,  214.25  L  841.93,  210.00 " style="stroke-width: 1.42 ;&st7; "/>
	<path d=" M  838.53,  218.50  L  834.28,  214.25  L  838.53,  210.00 " style="stroke-width: 1.42 ;&st7; "/>
	<path d=" M  433.43,  571.19  C  433.43   566.50   429.62   562.69   424.93   562.69 " style="stroke-width: 1.42 ;&st7; "/>
	<path d=" M  424.93,  562.69  C  420.24   562.69   416.43   566.50   416.43   571.19 " style="stroke-width: 1.42 ;&st7; "/>
	<path d=" M  416.43,  571.19  C  416.43   575.88   420.24   579.69   424.93   579.69 " style="stroke-width: 1.42 ;&st7; "/>
	<path d=" M  424.93,  579.69  C  429.62   579.69   433.43   575.88   433.43   571.19 " style="stroke-width: 1.42 ;&st7; "/>
	<path d=" M  171.39,  368.64  C  171.39   367.86   170.75   367.22   169.97   367.22 " style="stroke-width: 0.85 ;&st7; "/>
	<path d=" M  169.97,  367.22  C  169.19   367.22   168.56   367.86   168.56   368.64 " style="stroke-width: 0.85 ;&st7; "/>
	<path d=" M  168.56,  368.64  C  168.56   369.42   169.19   370.06   169.97   370.06 " style="stroke-width: 0.85 ;&st7; "/>
	<path d=" M  169.97,  370.06  C  170.75   370.06   171.39   369.42   171.39   368.64 " style="stroke-width: 0.85 ;&st7; "/>
	<path d=" M  188.39,  368.64  C  188.39   367.86   187.75   367.22   186.97   367.22 " style="stroke-width: 0.85 ;&st7; "/>
	<path d=" M  186.97,  367.22  C  186.19   367.22   185.55   367.86   185.55   368.64 " style="stroke-width: 0.85 ;&st7; "/>
	<path d=" M  185.55,  368.64  C  185.55   369.42   186.19   370.06   186.97   370.06 " style="stroke-width: 0.85 ;&st7; "/>
	<path d=" M  186.97,  370.06  C  187.75   370.06   188.39   369.42   188.39   368.64 " style="stroke-width: 0.85 ;&st7; "/>
	<path d=" M   33.99,   47.11  C   31.26    48.72    30.34    52.25    31.96    54.99 " style="stroke-width: 1.42 ;&st7; "/>
	<path d=" M   31.96,   54.99  C   32.48    55.87    33.11    56.51    33.99    57.03 " style="stroke-width: 1.42 ;&st7; "/>
	<path d=" M   35.41,   45.69  C   35.41    44.91    34.78    44.28    33.99    44.28 " style="stroke-width: 0.85 ;&st7; "/>
	<path d=" M   33.99,   44.28  C   33.21    44.28    32.58    44.91    32.58    45.69 " style="stroke-width: 0.85 ;&st7; "/>
	<path d=" M   32.58,   45.69  C   32.58    46.48    33.21    47.11    33.99    47.11 " style="stroke-width: 0.85 ;&st7; "/>
	<path d=" M   33.99,   47.11  C   34.78    47.11    35.41    46.48    35.41    45.69 " style="stroke-width: 0.85 ;&st7; "/>
	<path d=" M   35.41,   68.36  C   35.41    67.57    34.78    66.94    33.99    66.94 " style="stroke-width: 0.85 ;&st7; "/>
	<path d=" M   33.99,   66.94  C   33.21    66.94    32.58    67.57    32.58    68.36 " style="stroke-width: 0.85 ;&st7; "/>
	<path d=" M   32.58,   68.36  C   32.58    69.14    33.21    69.77    33.99    69.77 " style="stroke-width: 0.85 ;&st7; "/>
	<path d=" M   33.99,   69.77  C   34.78    69.77    35.41    69.14    35.41    68.36 " style="stroke-width: 0.85 ;&st7; "/>
	<path d=" M   40.37,   99.52  C   40.37    97.17    38.47    95.27    36.12    95.27 " style="stroke-width: 1.42 ;&st7; "/>
	<path d=" M   36.12,  103.77  C   38.47   103.77    40.37   101.87    40.37    99.52 " style="stroke-width: 1.42 ;&st7; "/>
	<path d=" M   27.62,   99.52  C   27.62   101.87    29.52   103.77    31.87   103.77 " style="stroke-width: 1.42 ;&st7; "/>
	<path d=" M   31.87,   95.27  C   29.52    95.27    27.62    97.17    27.62    99.52 " style="stroke-width: 1.42 ;&st7; "/>
	<path d=" M  434.84,  368.64  C  434.84   367.86   434.21   367.22   433.43   367.22 " style="stroke-width: 0.85 ;&st7; "/>
	<path d=" M  433.43,  367.22  C  432.65   367.22   432.01   367.86   432.01   368.64 " style="stroke-width: 0.85 ;&st7; "/>
	<path d=" M  432.01,  368.64  C  432.01   369.42   432.65   370.06   433.43   370.06 " style="stroke-width: 0.85 ;&st7; "/>
	<path d=" M  433.43,  370.06  C  434.21   370.06   434.84   369.42   434.84   368.64 " style="stroke-width: 0.85 ;&st7; "/>
	<path d=" M  426.35,  382.80  C  426.35   382.02   425.71   381.39   424.93   381.39 " style="stroke-width: 0.85 ;&st7; "/>
	<path d=" M  424.93,  381.39  C  424.15   381.39   423.51   382.02   423.51   382.80 " style="stroke-width: 0.85 ;&st7; "/>
	<path d=" M  423.51,  382.80  C  423.51   383.59   424.15   384.22   424.93   384.22 " style="stroke-width: 0.85 ;&st7; "/>
	<path d=" M  424.93,  384.22  C  425.71   384.22   426.35   383.59   426.35   382.80 " style="stroke-width: 0.85 ;&st7; "/>
	<path d=" M  417.85,  368.64  C  417.85   367.86   417.21   367.22   416.43   367.22 " style="stroke-width: 0.85 ;&st7; "/>
	<path d=" M  416.43,  367.22  C  415.65   367.22   415.01   367.86   415.01   368.64 " style="stroke-width: 0.85 ;&st7; "/>
	<path d=" M  415.01,  368.64  C  415.01   369.42   415.65   370.06   416.43   370.06 " style="stroke-width: 0.85 ;&st7; "/>
	<path d=" M  416.43,  370.06  C  417.21   370.06   417.85   369.42   417.85   368.64 " style="stroke-width: 0.85 ;&st7; "/>
	<path d=" M  297.45,  571.19  C  297.45   575.88   301.26   579.69   305.95   579.69 " style="stroke-width: 1.42 ;&st7; "/>
	<path d=" M  305.95,  579.69  C  310.64   579.69   314.45   575.88   314.45   571.19 " style="stroke-width: 1.42 ;&st7; "/>
	<path d=" M  307.37,  382.80  C  307.37   382.02   306.73   381.39   305.95   381.39 " style="stroke-width: 0.85 ;&st7; "/>
	<path d=" M  305.95,  381.39  C  305.17   381.39   304.53   382.02   304.53   382.80 " style="stroke-width: 0.85 ;&st7; "/>
	<path d=" M  304.53,  382.80  C  304.53   383.59   305.17   384.22   305.95   384.22 " style="stroke-width: 0.85 ;&st7; "/>
	<path d=" M  305.95,  384.22  C  306.73   384.22   307.37   383.59   307.37   382.80 " style="stroke-width: 0.85 ;&st7; "/>
	<path d=" M  298.87,  368.64  C  298.87   367.86   298.23   367.22   297.45   367.22 " style="stroke-width: 0.85 ;&st7; "/>
	<path d=" M  297.45,  367.22  C  296.67   367.22   296.03   367.86   296.03   368.64 " style="stroke-width: 0.85 ;&st7; "/>
	<path d=" M  296.03,  368.64  C  296.03   369.42   296.67   370.06   297.45   370.06 " style="stroke-width: 0.85 ;&st7; "/>
	<path d=" M  297.45,  370.06  C  298.23   370.06   298.87   369.42   298.87   368.64 " style="stroke-width: 0.85 ;&st7; "/>
	<path d=" M  315.86,  368.64  C  315.86   367.86   315.23   367.22   314.45   367.22 " style="stroke-width: 0.85 ;&st7; "/>
	<path d=" M  314.45,  367.22  C  313.67   367.22   313.03   367.86   313.03   368.64 " style="stroke-width: 0.85 ;&st7; "/>
	<path d=" M  313.03,  368.64  C  313.03   369.42   313.67   370.06   314.45   370.06 " style="stroke-width: 0.85 ;&st7; "/>
	<path d=" M  314.45,  370.06  C  315.23   370.06   315.86   369.42   315.86   368.64 " style="stroke-width: 0.85 ;&st7; "/>
	<path d=" M   33.99,  571.19  C   33.99   575.88    37.80   579.69    42.49   579.69 " style="stroke-width: 1.42 ;&st7; "/>
	<path d=" M   42.49,  579.69  C   47.19   579.69    50.99   575.88    50.99   571.19 " style="stroke-width: 1.42 ;&st7; "/>
	<path d=" M   50.99,  571.19  C   50.99   566.50    47.19   562.69    42.49   562.69 " style="stroke-width: 1.42 ;&st7; "/>
	<path d=" M   42.49,  562.69  C   37.80   562.69    33.99   566.50    33.99   571.19 " style="stroke-width: 1.42 ;&st7; "/>
	<path d=" M  179.89,  382.80  C  179.89   382.02   179.25   381.39   178.47   381.39 " style="stroke-width: 0.85 ;&st7; "/>
	<path d=" M  178.47,  381.39  C  177.69   381.39   177.05   382.02   177.05   382.80 " style="stroke-width: 0.85 ;&st7; "/>
	<path d=" M  177.05,  382.80  C  177.05   383.59   177.69   384.22   178.47   384.22 " style="stroke-width: 0.85 ;&st7; "/>
	<path d=" M  178.47,  384.22  C  179.25   384.22   179.89   383.59   179.89   382.80 " style="stroke-width: 0.85 ;&st7; "/>
	<path d=" M  314.45,  571.19  C  314.45   566.50   310.64   562.69   305.95   562.69 " style="stroke-width: 1.42 ;&st7; "/>
	<path d=" M  305.95,  562.69  C  301.26   562.69   297.45   566.50   297.45   571.19 " style="stroke-width: 1.42 ;&st7; "/>
	<path d=" M   43.91,  382.80  C   43.91   382.02    43.28   381.39    42.49   381.39 " style="stroke-width: 0.85 ;&st7; "/>
	<path d=" M   42.49,  381.39  C   41.71   381.39    41.08   382.02    41.08   382.80 " style="stroke-width: 0.85 ;&st7; "/>
	<path d=" M   41.08,  382.80  C   41.08   383.59    41.71   384.22    42.49   384.22 " style="stroke-width: 0.85 ;&st7; "/>
	<path d=" M   42.49,  384.22  C   43.28   384.22    43.91   383.59    43.91   382.80 " style="stroke-width: 0.85 ;&st7; "/>
	<path d=" M   35.41,  368.64  C   35.41   367.86    34.78   367.22    33.99   367.22 " style="stroke-width: 0.85 ;&st7; "/>
	<path d=" M   33.99,  367.22  C   33.21   367.22    32.58   367.86    32.58   368.64 " style="stroke-width: 0.85 ;&st7; "/>
	<path d=" M   32.58,  368.64  C   32.58   369.42    33.21   370.06    33.99   370.06 " style="stroke-width: 0.85 ;&st7; "/>
	<path d=" M   33.99,  370.06  C   34.78   370.06    35.41   369.42    35.41   368.64 " style="stroke-width: 0.85 ;&st7; "/>
	<path d=" M   52.41,  368.64  C   52.41   367.86    51.77   367.22    50.99   367.22 " style="stroke-width: 0.85 ;&st7; "/>
	<path d=" M   50.99,  367.22  C   50.21   367.22    49.58   367.86    49.58   368.64 " style="stroke-width: 0.85 ;&st7; "/>
	<path d=" M   49.58,  368.64  C   49.58   369.42    50.21   370.06    50.99   370.06 " style="stroke-width: 0.85 ;&st7; "/>
	<path d=" M   50.99,  370.06  C   51.77   370.06    52.41   369.42    52.41   368.64 " style="stroke-width: 0.85 ;&st7; "/>
	<path d=" M  791.78,  377.14  C  791.78   376.36   791.15   375.72   790.37   375.72 " style="stroke-width: 0.85 ;&st7; "/>
	<path d=" M  790.37,  375.72  C  789.59   375.72   788.95   376.36   788.95   377.14 " style="stroke-width: 0.85 ;&st7; "/>
	<path d=" M  788.95,  377.14  C  788.95   377.92   789.59   378.56   790.37   378.56 " style="stroke-width: 0.85 ;&st7; "/>
	<path d=" M  790.37,  378.56  C  791.15   378.56   791.78   377.92   791.78   377.14 " style="stroke-width: 0.85 ;&st7; "/>
	<path d=" M  774.79,  377.14  C  774.79   376.36   774.15   375.72   773.37   375.72 " style="stroke-width: 0.85 ;&st7; "/>
	<path d=" M  773.37,  375.72  C  772.59   375.72   771.95   376.36   771.95   377.14 " style="stroke-width: 0.85 ;&st7; "/>
	<path d=" M  771.95,  377.14  C  771.95   377.92   772.59   378.56   773.37   378.56 " style="stroke-width: 0.85 ;&st7; "/>
	<path d=" M  773.37,  378.56  C  774.15   378.56   774.79   377.92   774.79   377.14 " style="stroke-width: 0.85 ;&st7; "/>
	<path d=" M  783.29,  391.30  C  783.29   390.52   782.65   389.89   781.87   389.89 " style="stroke-width: 0.85 ;&st7; "/>
	<path d=" M  781.87,  389.89  C  781.09   389.89   780.45   390.52   780.45   391.30 " style="stroke-width: 0.85 ;&st7; "/>
	<path d=" M  780.45,  391.30  C  780.45   392.09   781.09   392.72   781.87   392.72 " style="stroke-width: 0.85 ;&st7; "/>
	<path d=" M  781.87,  392.72  C  782.65   392.72   783.29   392.09   783.29   391.30 " style="stroke-width: 0.85 ;&st7; "/>
	<path d=" M  732.29,  377.14  C  732.29   376.36   731.66   375.72   730.88   375.72 " style="stroke-width: 0.85 ;&st7; "/>
	<path d=" M  730.88,  375.72  C  730.10   375.72   729.46   376.36   729.46   377.14 " style="stroke-width: 0.85 ;&st7; "/>
	<path d=" M  729.46,  377.14  C  729.46   377.92   730.10   378.56   730.88   378.56 " style="stroke-width: 0.85 ;&st7; "/>
	<path d=" M  730.88,  378.56  C  731.66   378.56   732.29   377.92   732.29   377.14 " style="stroke-width: 0.85 ;&st7; "/>
	<path d=" M  715.30,  377.14  C  715.30   376.36   714.66   375.72   713.88   375.72 " style="stroke-width: 0.85 ;&st7; "/>
	<path d=" M  713.88,  375.72  C  713.10   375.72   712.46   376.36   712.46   377.14 " style="stroke-width: 0.85 ;&st7; "/>
	<path d=" M  712.46,  377.14  C  712.46   377.92   713.10   378.56   713.88   378.56 " style="stroke-width: 0.85 ;&st7; "/>
	<path d=" M  713.88,  378.56  C  714.66   378.56   715.30   377.92   715.30   377.14 " style="stroke-width: 0.85 ;&st7; "/>
	<path d=" M  723.80,  391.30  C  723.80   390.52   723.16   389.89   722.38   389.89 " style="stroke-width: 0.85 ;&st7; "/>
	<path d=" M  722.38,  389.89  C  721.60   389.89   720.96   390.52   720.96   391.30 " style="stroke-width: 0.85 ;&st7; "/>
	<path d=" M  720.96,  391.30  C  720.96   392.09   721.60   392.72   722.38   392.72 " style="stroke-width: 0.85 ;&st7; "/>
	<path d=" M  722.38,  392.72  C  723.16   392.72   723.80   392.09   723.80   391.30 " style="stroke-width: 0.85 ;&st7; "/>
	<path d=" M  494.33,  368.64  C  494.33   367.86   493.70   367.22   492.92   367.22 " style="stroke-width: 0.85 ;&st7; "/>
	<path d=" M  492.92,  367.22  C  492.14   367.22   491.50   367.86   491.50   368.64 " style="stroke-width: 0.85 ;&st7; "/>
	<path d=" M  491.50,  368.64  C  491.50   369.42   492.14   370.06   492.92   370.06 " style="stroke-width: 0.85 ;&st7; "/>
	<path d=" M  492.92,  370.06  C  493.70   370.06   494.33   369.42   494.33   368.64 " style="stroke-width: 0.85 ;&st7; "/>
	<path d=" M  477.34,  368.64  C  477.34   367.86   476.70   367.22   475.92   367.22 " style="stroke-width: 0.85 ;&st7; "/>
	<path d=" M  475.92,  367.22  C  475.14   367.22   474.50   367.86   474.50   368.64 " style="stroke-width: 0.85 ;&st7; "/>
	<path d=" M  474.50,  368.64  C  474.50   369.42   475.14   370.06   475.92   370.06 " style="stroke-width: 0.85 ;&st7; "/>
	<path d=" M  475.92,  370.06  C  476.70   370.06   477.34   369.42   477.34   368.64 " style="stroke-width: 0.85 ;&st7; "/>
	<path d=" M  485.84,  382.80  C  485.84   382.02   485.20   381.39   484.42   381.39 " style="stroke-width: 0.85 ;&st7; "/>
	<path d=" M  484.42,  381.39  C  483.64   381.39   483.00   382.02   483.00   382.80 " style="stroke-width: 0.85 ;&st7; "/>
	<path d=" M  483.00,  382.80  C  483.00   383.59   483.64   384.22   484.42   384.22 " style="stroke-width: 0.85 ;&st7; "/>
	<path d=" M  484.42,  384.22  C  485.20   384.22   485.84   383.59   485.84   382.80 " style="stroke-width: 0.85 ;&st7; "/>
	<path d=" M  375.35,  368.64  C  375.35   367.86   374.72   367.22   373.94   367.22 " style="stroke-width: 0.85 ;&st7; "/>
	<path d=" M  373.94,  367.22  C  373.16   367.22   372.52   367.86   372.52   368.64 " style="stroke-width: 0.85 ;&st7; "/>
	<path d=" M  372.52,  368.64  C  372.52   369.42   373.16   370.06   373.94   370.06 " style="stroke-width: 0.85 ;&st7; "/>
	<path d=" M  373.94,  370.06  C  374.72   370.06   375.35   369.42   375.35   368.64 " style="stroke-width: 0.85 ;&st7; "/>
	<path d=" M  358.36,  368.64  C  358.36   367.86   357.72   367.22   356.94   367.22 " style="stroke-width: 0.85 ;&st7; "/>
	<path d=" M  356.94,  367.22  C  356.16   367.22   355.52   367.86   355.52   368.64 " style="stroke-width: 0.85 ;&st7; "/>
	<path d=" M  355.52,  368.64  C  355.52   369.42   356.16   370.06   356.94   370.06 " style="stroke-width: 0.85 ;&st7; "/>
	<path d=" M  356.94,  370.06  C  357.72   370.06   358.36   369.42   358.36   368.64 " style="stroke-width: 0.85 ;&st7; "/>
	<path d=" M  366.86,  382.80  C  366.86   382.02   366.22   381.39   365.44   381.39 " style="stroke-width: 0.85 ;&st7; "/>
	<path d=" M  365.44,  381.39  C  364.66   381.39   364.02   382.02   364.02   382.80 " style="stroke-width: 0.85 ;&st7; "/>
	<path d=" M  364.02,  382.80  C  364.02   383.59   364.66   384.22   365.44   384.22 " style="stroke-width: 0.85 ;&st7; "/>
	<path d=" M  365.44,  384.22  C  366.22   384.22   366.86   383.59   366.86   382.80 " style="stroke-width: 0.85 ;&st7; "/>
	<path d=" M  247.88,  368.64  C  247.88   367.86   247.24   367.22   246.46   367.22 " style="stroke-width: 0.85 ;&st7; "/>
	<path d=" M  246.46,  367.22  C  245.68   367.22   245.04   367.86   245.04   368.64 " style="stroke-width: 0.85 ;&st7; "/>
	<path d=" M  245.04,  368.64  C  245.04   369.42   245.68   370.06   246.46   370.06 " style="stroke-width: 0.85 ;&st7; "/>
	<path d=" M  246.46,  370.06  C  247.24   370.06   247.88   369.42   247.88   368.64 " style="stroke-width: 0.85 ;&st7; "/>
	<path d=" M  230.88,  368.64  C  230.88   367.86   230.24   367.22   229.46   367.22 " style="stroke-width: 0.85 ;&st7; "/>
	<path d=" M  229.46,  367.22  C  228.68   367.22   228.05   367.86   228.05   368.64 " style="stroke-width: 0.85 ;&st7; "/>
	<path d=" M  228.05,  368.64  C  228.05   369.42   228.68   370.06   229.46   370.06 " style="stroke-width: 0.85 ;&st7; "/>
	<path d=" M  229.46,  370.06  C  230.24   370.06   230.88   369.42   230.88   368.64 " style="stroke-width: 0.85 ;&st7; "/>
	<path d=" M  239.38,  382.80  C  239.38   382.02   238.74   381.39   237.96   381.39 " style="stroke-width: 0.85 ;&st7; "/>
	<path d=" M  237.96,  381.39  C  237.18   381.39   236.54   382.02   236.54   382.80 " style="stroke-width: 0.85 ;&st7; "/>
	<path d=" M  236.54,  382.80  C  236.54   383.59   237.18   384.22   237.96   384.22 " style="stroke-width: 0.85 ;&st7; "/>
	<path d=" M  237.96,  384.22  C  238.74   384.22   239.38   383.59   239.38   382.80 " style="stroke-width: 0.85 ;&st7; "/>
	<path d=" M  111.90,  368.64  C  111.90   367.86   111.26   367.22   110.48   367.22 " style="stroke-width: 0.85 ;&st7; "/>
	<path d=" M  110.48,  367.22  C  109.70   367.22   109.07   367.86   109.07   368.64 " style="stroke-width: 0.85 ;&st7; "/>
	<path d=" M  109.07,  368.64  C  109.07   369.42   109.70   370.06   110.48   370.06 " style="stroke-width: 0.85 ;&st7; "/>
	<path d=" M  110.48,  370.06  C  111.26   370.06   111.90   369.42   111.90   368.64 " style="stroke-width: 0.85 ;&st7; "/>
	<path d=" M   94.90,  368.64  C   94.90   367.86    94.27   367.22    93.48   367.22 " style="stroke-width: 0.85 ;&st7; "/>
	<path d=" M   93.48,  367.22  C   92.70   367.22    92.07   367.86    92.07   368.64 " style="stroke-width: 0.85 ;&st7; "/>
	<path d=" M   92.07,  368.64  C   92.07   369.42    92.70   370.06    93.48   370.06 " style="stroke-width: 0.85 ;&st7; "/>
	<path d=" M   93.48,  370.06  C   94.27   370.06    94.90   369.42    94.90   368.64 " style="stroke-width: 0.85 ;&st7; "/>
	<path d=" M  103.40,  382.80  C  103.40   382.02   102.77   381.39   101.98   381.39 " style="stroke-width: 0.85 ;&st7; "/>
	<path d=" M  101.98,  381.39  C  101.20   381.39   100.57   382.02   100.57   382.80 " style="stroke-width: 0.85 ;&st7; "/>
	<path d=" M  100.57,  382.80  C  100.57   383.59   101.20   384.22   101.98   384.22 " style="stroke-width: 0.85 ;&st7; "/>
	<path d=" M  101.98,  384.22  C  102.77   384.22   103.40   383.59   103.40   382.80 " style="stroke-width: 0.85 ;&st7; "/>
	<path d=" M  186.97,  571.19  C  186.97   566.50   183.16   562.69   178.47   562.69 " style="stroke-width: 1.42 ;&st7; "/>
	<path d=" M  178.47,  562.69  C  173.78   562.69   169.97   566.50   169.97   571.19 " style="stroke-width: 1.42 ;&st7; "/>
	<path d=" M  169.97,  571.19  C  169.97   575.88   173.78   579.69   178.47   579.69 " style="stroke-width: 1.42 ;&st7; "/>
	<path d=" M  178.47,  579.69  C  183.16   579.69   186.97   575.88   186.97   571.19 " style="stroke-width: 1.42 ;&st7; "/>
	<path d=" M  713.88,  571.19  C  713.88   575.88   717.69   579.69   722.38   579.69 " style="stroke-width: 1.42 ;&st7; "/>
	<path d=" M  722.38,  579.69  C  727.07   579.69   730.88   575.88   730.88   571.19 " style="stroke-width: 1.42 ;&st7; "/>
	<path d=" M  730.88,  571.19  C  730.88   566.50   727.07   562.69   722.38   562.69 " style="stroke-width: 1.42 ;&st7; "/>
	<path d=" M  722.38,  562.69  C  717.69   562.69   713.88   566.50   713.88   571.19 " style="stroke-width: 1.42 ;&st7; "/>
	<path d=" M   33.99,   66.94  C   36.73    65.33    37.64    61.80    36.03    59.06 " style="stroke-width: 1.42 ;&st7; "/>
	<path d=" M   36.03,   59.06  C   35.51    58.18    34.88    57.55    33.99    57.03 " style="stroke-width: 1.42 ;&st7; "/>
	<path d=" M  883.85,  571.19  C  883.85   566.50   880.05   562.69   875.35   562.69 " style="stroke-width: 1.42 ;&st7; "/>
	<path d=" M  875.35,  562.69  C  870.66   562.69   866.86   566.50   866.86   571.19 " style="stroke-width: 1.42 ;&st7; "/>
	<path d=" M  866.86,  571.19  C  866.86   575.88   870.66   579.69   875.35   579.69 " style="stroke-width: 1.42 ;&st7; "/>
	<path d=" M  875.35,  579.69  C  880.05   579.69   883.85   575.88   883.85   571.19 " style="stroke-width: 1.42 ;&st7; "/>
	<path d=" M  876.77,  391.30  C  876.77   390.52   876.14   389.89   875.35   389.89 " style="stroke-width: 0.85 ;&st7; "/>
	<path d=" M  875.35,  389.89  C  874.57   389.89   873.94   390.52   873.94   391.30 " style="stroke-width: 0.85 ;&st7; "/>
	<path d=" M  873.94,  391.30  C  873.94   392.09   874.57   392.72   875.35   392.72 " style="stroke-width: 0.85 ;&st7; "/>
	<path d=" M  875.35,  392.72  C  876.14   392.72   876.77   392.09   876.77   391.30 " style="stroke-width: 0.85 ;&st7; "/>
	<path d=" M  868.27,  377.14  C  868.27   376.36   867.64   375.72   866.86   375.72 " style="stroke-width: 0.85 ;&st7; "/>
	<path d=" M  866.86,  375.72  C  866.07   375.72   865.44   376.36   865.44   377.14 " style="stroke-width: 0.85 ;&st7; "/>
	<path d=" M  865.44,  377.14  C  865.44   377.92   866.07   378.56   866.86   378.56 " style="stroke-width: 0.85 ;&st7; "/>
	<path d=" M  866.86,  378.56  C  867.64   378.56   868.27   377.92   868.27   377.14 " style="stroke-width: 0.85 ;&st7; "/>
	<path d=" M  885.27,  377.14  C  885.27   376.36   884.63   375.72   883.85   375.72 " style="stroke-width: 0.85 ;&st7; "/>
	<path d=" M  883.85,  375.72  C  883.07   375.72   882.44   376.36   882.44   377.14 " style="stroke-width: 0.85 ;&st7; "/>
	<path d=" M  882.44,  377.14  C  882.44   377.92   883.07   378.56   883.85   378.56 " style="stroke-width: 0.85 ;&st7; "/>
	<path d=" M  883.85,  378.56  C  884.63   378.56   885.27   377.92   885.27   377.14 " style="stroke-width: 0.85 ;&st7; "/>
	<path d=" M  936.26,  391.30  C  936.26   390.52   935.63   389.89   934.84   389.89 " style="stroke-width: 0.85 ;&st7; "/>
	<path d=" M  934.84,  389.89  C  934.06   389.89   933.43   390.52   933.43   391.30 " style="stroke-width: 0.85 ;&st7; "/>
	<path d=" M  933.43,  391.30  C  933.43   392.09   934.06   392.72   934.84   392.72 " style="stroke-width: 0.85 ;&st7; "/>
	<path d=" M  934.84,  392.72  C  935.63   392.72   936.26   392.09   936.26   391.30 " style="stroke-width: 0.85 ;&st7; "/>
	<path d=" M  927.76,  377.14  C  927.76   376.36   927.13   375.72   926.35   375.72 " style="stroke-width: 0.85 ;&st7; "/>
	<path d=" M  926.35,  375.72  C  925.56   375.72   924.93   376.36   924.93   377.14 " style="stroke-width: 0.85 ;&st7; "/>
	<path d=" M  924.93,  377.14  C  924.93   377.92   925.56   378.56   926.35   378.56 " style="stroke-width: 0.85 ;&st7; "/>
	<path d=" M  926.35,  378.56  C  927.13   378.56   927.76   377.92   927.76   377.14 " style="stroke-width: 0.85 ;&st7; "/>
	<path d=" M  944.76,  377.14  C  944.76   376.36   944.12   375.72   943.34   375.72 " style="stroke-width: 0.85 ;&st7; "/>
	<path d=" M  943.34,  375.72  C  942.56   375.72   941.93   376.36   941.93   377.14 " style="stroke-width: 0.85 ;&st7; "/>
	<path d=" M  941.93,  377.14  C  941.93   377.92   942.56   378.56   943.34   378.56 " style="stroke-width: 0.85 ;&st7; "/>
	<path d=" M  943.34,  378.56  C  944.12   378.56   944.76   377.92   944.76   377.14 " style="stroke-width: 0.85 ;&st7; "/>
	<text style="&st18;" transform="matrix(&st16;  569.19  585.91 )">11</text>
	<text style="&st18;" transform="matrix(&st16;  303.05  573.16 )">M</text>
	<text style="&st18;" transform="matrix(&st16;  716.37  556.17 )">1</text>
	<text style="&st18;" transform="matrix(&st16;  715.59  590.71 )">2</text>
	<text style="&st18;" transform="matrix(&st17;  738.49  582.21 )">X2</text>
	<text ewd:textID="10" style="&st18;" transform="matrix(&st17;  329.17  582.21 )">Front Power Seat Slide <tspan dy="6" x="0">Position Motor Assembly LH</tspan></text>
	<text style="&st18;" transform="matrix(&st17;  322.06  582.21 )">X5</text>
	<text style="&st18;" transform="matrix(&st17;  194.58  582.21 )">X7</text>
	<text ewd:textID="8" style="&st18;" transform="matrix(&st17;  201.69  582.21 )">Front Power Seat Lift <tspan dy="6" x="0">Position Motor Assembly LH</tspan></text>
	<text ewd:textID="6" style="&st18;" transform="matrix(&st17;  745.6  582.21 )">Front Lumbar Support Forward <tspan dy="6" x="0">and Back Motor Assembly LH</tspan></text>
	<text style="&st18;" transform="matrix(&st16;  719.48  573.16 )">M</text>
	<text style="&st18;" transform="matrix(&st16;  175.57  573.16 )">M</text>
	<text style="&st18;" transform="matrix(&st16;  21.3  101.49 )">4</text>
	<text style="&st18;" transform="matrix(&st16;  29.05  101.49 )">DC</text>
	<text style="&st18;" transform="matrix(&st16;  51.3  56.17 )">30A <tspan dy="6" x="0">FR P/SEAT LH</tspan></text>
	<text style="&st18;" transform="matrix(&st16;  24.88  32.08 )">(BAT)</text>
	<text style="&st18;" transform="matrix(&st16;  16.0  169.48 )">10</text>
	<text style="&st18;" transform="matrix(&st16;  422.03  573.16 )">M</text>
	<text style="&st18;" transform="matrix(&st17;  814.98  412.24 )">X1</text>
	<text style="&st18;" transform="matrix(&st17;  30.3  131.24 )">L</text>
	<text style="&st18;" transform="matrix(&st17;  30.3  199.23 )">L</text>
	<text style="&st18;" transform="matrix(&st17;  786.67  301.21 )">L</text>
	<text style="&st18;" transform="matrix(&st17;  38.8  471.54 )">B</text>
	<text style="&st18;" transform="matrix(&st17;  98.29  473.87 )">BE</text>
	<text style="&st18;" transform="matrix(&st17;  174.77  471.54 )">Y</text>
	<text style="&st18;" transform="matrix(&st17;  234.26  471.96 )">G</text>
	<text style="&st18;" transform="matrix(&st17;  302.25  471.68 )">R</text>
	<text style="&st18;" transform="matrix(&st17;  361.74  471.54 )">P</text>
	<text style="&st18;" transform="matrix(&st17;  421.23  472.56 )">W</text>
	<text style="&st18;" transform="matrix(&st17;  480.72  473.94 )">LG</text>
	<text style="&st18;" transform="matrix(&st17;  582.71  476.91 )">W-B</text>
	<text style="&st18;" transform="matrix(&st17;  718.68  471.54 )">B</text>
	<text style="&st18;" transform="matrix(&st17;  778.17  473.87 )">BE</text>
	<text style="&st18;" transform="matrix(&st16;  36.83  290.43 )">B</text>
	<text style="&st18;" transform="matrix(&st16;  793.2  332.92 )">B</text>
	<text style="&st18;" transform="matrix(&st16;  35.7  426.41 )">2</text>
	<text style="&st18;" transform="matrix(&st16;  95.19  426.41 )">3</text>
	<text style="&st18;" transform="matrix(&st16;  171.68  426.41 )">8</text>
	<text style="&st18;" transform="matrix(&st16;  231.17  426.41 )">7</text>
	<text style="&st18;" transform="matrix(&st16;  299.16  426.41 )">6</text>
	<text style="&st18;" transform="matrix(&st16;  358.65  426.41 )">9</text>
	<text style="&st18;" transform="matrix(&st16;  418.14  426.41 )">5</text>
	<text style="&st18;" transform="matrix(&st16;  474.45  426.41 )">10</text>
	<text style="&st18;" transform="matrix(&st16;  579.61  426.41 )">4</text>
	<text style="&st18;" transform="matrix(&st16;  715.59  426.41 )">4</text>
	<text style="&st18;" transform="matrix(&st16;  775.86  426.41 )">1</text>
	<text style="&st18;" transform="matrix(&st16;  27.98  278.55 )">1</text>
	<text style="&st18;" transform="matrix(&st16;  783.58  321.04 )">3</text>
	<text style="&st18;" transform="matrix(&st16;  45.33  414.53 )">RCLR</text>
	<text style="&st18;" transform="matrix(&st16;  104.82  414.53 )">RCLF</text>
	<text style="&st18;" transform="matrix(&st16;  181.3  414.53 )">LDWN</text>
	<text style="&st18;" transform="matrix(&st16;  240.79  414.53 )">LUP</text>
	<text style="&st18;" transform="matrix(&st16;  308.78  414.53 )">SLDR</text>
	<text ewd:textID="19" style="&st18;" transform="matrix(&st17;  256.93  380.17 )">Up</text>
	<text style="&st18;" transform="matrix(&st16;  368.27  414.53 )">SLDF</text>
	<text style="&st18;" transform="matrix(&st16;  427.76  414.53 )">FDWN</text>
	<text style="&st18;" transform="matrix(&st16;  487.25  414.53 )">FUP</text>
	<text style="&st18;" transform="matrix(&st16;  589.23  414.53 )">E</text>
	<text ewd:textID="3" style="&st18;" transform="matrix(&st17;  163.44  384.69 )">Down</text>
	<text ewd:textID="15" style="&st18;" transform="matrix(&st17;  27.47  383.35 )">Rear</text>
	<text style="&st18;" transform="matrix(&st16;  39.6  573.16 )">M</text>
	<text ewd:textID="4" style="&st18;" transform="matrix(&st17;  120.95  383.99 )">Front</text>
	<text ewd:textID="14" style="&st18;" transform="matrix(&st16;  203.52  386.19 )">Lift</text>
	<text style="&st18;" transform="matrix(&st16;  784.7  414.53 )">R</text>
	<text style="&st18;" transform="matrix(&st16;  725.21  414.53 )">H</text>
	<text ewd:textID="18" style="&st18;" transform="matrix(&st16;  327.96  386.19 )">Slide</text>
	<text ewd:textID="15" style="&st18;" transform="matrix(&st17;  290.92  383.35 )">Rear</text>
	<text ewd:textID="4" style="&st18;" transform="matrix(&st17;  384.41  383.99 )">Front</text>
	<text ewd:textID="3" style="&st18;" transform="matrix(&st17;  409.9  384.69 )">Down</text>
	<text ewd:textID="19" style="&st18;" transform="matrix(&st17;  503.39  380.17 )">Up</text>
	<text ewd:textID="13" style="&st18;" transform="matrix(&st16;  442.95  383.36 )">Front <tspan dy="6" x="0">Vertical</tspan></text>
	<text ewd:textID="16" style="&st18;" transform="matrix(&st16;  57.86  386.19 )">Reclining</text>
	<text ewd:textID="5" style="&st18;" transform="matrix(&st17;  822.08  412.24 )">Front Lumbar Power Seat Switch LH</text>
	<text ewd:textID="9" style="&st18;" transform="matrix(&st17;  65.71  582.21 )">Front Power Seat Reclining <tspan dy="6" x="0">Position Motor Assembly LH</tspan></text>
	<text style="&st18;" transform="matrix(&st17;  58.6  582.21 )">X8</text>
	<text ewd:textID="12" style="&st18;" transform="matrix(&st17;  448.15  582.21 )">Front Power Seat Vertical <tspan dy="6" x="0">Position Motor Assembly LH</tspan></text>
	<text style="&st18;" transform="matrix(&st17;  441.04  582.21 )">X6</text>
	<text ewd:textID="17" style="&st18;" transform="matrix(&st17;  975.06  412.24 )">Seat Variable Cushion Switch LH</text>
	<text style="&st18;" transform="matrix(&st16;  878.19  414.53 )">CSNR</text>
	<text style="&st18;" transform="matrix(&st16;  937.68  414.53 )">CSNF</text>
	<text style="&st18;" transform="matrix(&st16;  860.07  321.04 )">3</text>
	<text style="&st18;" transform="matrix(&st16;  928.83  426.41 )">1</text>
	<text style="&st18;" transform="matrix(&st16;  868.56  426.41 )">4</text>
	<text style="&st18;" transform="matrix(&st16;  869.69  332.92 )">B</text>
	<text style="&st18;" transform="matrix(&st17;  967.95  412.24 )">z14</text>
	<text style="&st18;" transform="matrix(&st17;  933.98  292.67 )">(*2)</text>
	<text style="&st18;" transform="matrix(&st16;  299.94  590.71 )">1</text>
	<text style="&st18;" transform="matrix(&st16;  418.92  590.71 )">1</text>
	<text style="&st18;" transform="matrix(&st16;  418.14  556.17 )">2</text>
	<text style="&st18;" transform="matrix(&st16;  872.46  573.16 )">M</text>
	<text ewd:textID="7" style="&st18;" transform="matrix(&st17;  898.57  582.21 )">Front Power Seat Cushion <tspan dy="6" x="0">Control Motor Assembly LH</tspan></text>
	<text style="&st18;" transform="matrix(&st17;  891.46  582.21 )">X9</text>
	<text style="&st18;" transform="matrix(&st16;  299.16  556.17 )">2</text>
	<text style="&st18;" transform="matrix(&st16;  869.34  590.71 )">1</text>
	<text style="&st18;" transform="matrix(&st16;  868.56  556.17 )">2</text>
	<text style="&st18;" transform="matrix(&st16;  172.46  556.17 )">1</text>
	<text style="&st18;" transform="matrix(&st16;  36.48  556.17 )">1</text>
	<text style="&st18;" transform="matrix(&st16;  171.68  590.71 )">2</text>
	<text style="&st18;" transform="matrix(&st16;  35.7  590.71 )">2</text>
	<text style="&st18;" transform="matrix(&st16;  76.83  210.55 )">L(*2)</text>
	<text style="&st18;" transform="matrix(&st16;  83.01  227.55 )">L</text>
	<text style="&st18;" transform="matrix(&st17;  30.3  258.72 )">L</text>
	<text style="&st18;" transform="matrix(&st17;  769.68  306.94 )">W-B</text>
	<text style="&st18;" transform="matrix(&st17;  727.18  306.94 )">W-B</text>
	<text style="&st18;" transform="matrix(&st17;  880.16  300.37 )">W-B(*2)</text>
	<text style="&st18;" transform="matrix(&st17;  922.65  294.19 )">W-B</text>
	<text style="&st18;" transform="matrix(&st17;  863.16  297.4 )">LG(*2)</text>
	<text style="&st18;" transform="matrix(&st16;  886.69  332.92 )">E</text>
	<text style="&st18;" transform="matrix(&st16;  929.18  332.92 )">E2</text>
	<text style="&st18;" transform="matrix(&st16;  877.06  321.04 )">5</text>
	<text style="&st18;" transform="matrix(&st16;  919.56  321.04 )">2</text>
	<text style="&st18;" transform="matrix(&st17;  636.53  543.38 )">(*2)</text>
	<text style="&st18;" transform="matrix(&st17;  679.02  543.38 )">(*2)</text>
	<text style="&st18;" transform="matrix(&st17;  625.2  476.91 )">W-B</text>
	<text style="&st18;" transform="matrix(&st17;  667.69  476.91 )">W-B</text>
	<text style="&st18;" transform="matrix(&st17;  582.71  544.9 )">W-B</text>
	<text style="&st18;" transform="matrix(&st16;  733.71  332.92 )">E</text>
	<text style="&st18;" transform="matrix(&st17;  625.2  544.9 )">W-B</text>
	<text style="&st18;" transform="matrix(&st16;  724.09  321.04 )">5</text>
	<text style="&st18;" transform="matrix(&st17;  667.69  544.9 )">W-B</text>
	<text style="&st18;" transform="matrix(&st16;  766.58  321.04 )">2</text>
	<text style="&st18;" transform="matrix(&st17;  582.71  621.38 )">W-B</text>
	<text style="&st18;" transform="matrix(&st16;  776.2  332.92 )">E2</text>
	<text style="&st18;" transform="matrix(&st16;  599.95  499.5 )">W-B</text>
	<text style="&st18;" transform="matrix(&st16;  642.44  499.5 )">W-B</text>
	<text ewd:textID="2" style="&st18;" transform="matrix(&st16;  838.83  54.75 )">* 2 :10 Way Control</text>
	<text ewd:textID="1" style="&st18;" transform="matrix(&st16;  838.83  46.25 )">* 1 :8 Way Control</text>
	<text style="&st18;" transform="matrix(&st17;  41.63  267.41 )">(*1,*2)</text>
	<text style="&st18;" transform="matrix(&st17;  50.13  479.87 )">(*1,*2)</text>
	<text style="&st18;" transform="matrix(&st17;  109.62  479.87 )">(*1,*2)</text>
	<text style="&st18;" transform="matrix(&st17;  186.11  479.87 )">(*1,*2)</text>
	<text style="&st18;" transform="matrix(&st17;  245.6  479.87 )">(*1,*2)</text>
	<text style="&st18;" transform="matrix(&st17;  313.59  479.87 )">(*1,*2)</text>
	<text style="&st18;" transform="matrix(&st17;  373.08  479.87 )">(*1,*2)</text>
	<text style="&st18;" transform="matrix(&st17;  432.57  479.87 )">(*1,*2)</text>
	<text style="&st18;" transform="matrix(&st17;  492.06  479.87 )">(*1,*2)</text>
	<text style="&st18;" transform="matrix(&st17;  594.04  479.87 )">(*1,*2)</text>
	<text ewd:textID="11" style="&st18;" transform="matrix(&st16;  133.45  278.54 )">Front Power Seat Switch LH</text>
	<text style="&st18;" transform="matrix(&st16;  133.45  271.44 )">X3</text>
	<text style="&st18;" transform="matrix(&st16;  484.76  210.55 )">L(*2)</text>
	<text style="&st18;" transform="matrix(&st16;  490.94  227.55 )">L</text>
	<text style="&st18;" transform="matrix(&st16;  535.75  210.55 )">L(*2)</text>
	<text style="&st18;" transform="matrix(&st16;  541.93  227.55 )">L</text>
	<text ewd:textID="11" style="&st18;" transform="matrix(&st16;  541.38  272.59 )">Front Power <tspan dy="6" x="0">Seat Switch LH</tspan></text>
	<text style="&st18;" transform="matrix(&st16;  541.38  265.49 )">X3</text>
	<text style="&st18;" transform="matrix(&st17;  931.15  514.17 )">R</text>
	<text style="&st18;" transform="matrix(&st17;  871.66  514.03 )">Y</text>
	<text style="&st18;" transform="matrix(&st17;  882.99  517.88 )">(*2)</text>
	<text style="&st18;" transform="matrix(&st17;  942.48  517.88 )">(*2)</text>
	<text style="&st18;" transform="matrix(&st16;  860.54  492.42 )">4</text>
	<text style="&st18;" transform="matrix(&st16;  920.03  492.42 )">6</text>
	<text style="&st18;" transform="matrix(&st16;  958.36  207.01 )">2</text>
	<text style="&st18;" transform="matrix(&st16;  958.36  241.01 )">3</text>
	<text style="&st18;" transform="matrix(&st16;  822.77  207.01 )">1</text>
	<text style="&st18;" transform="matrix(&st17;  990.64  294.19 )">W-B</text>
	<text style="&st18;" transform="matrix(&st17;  1001.97  292.67 )">(*2)</text>
	<text style="&st18;" transform="matrix(&st17;  1016.13  294.19 )">W-B</text>
	<text style="&st18;" transform="matrix(&st17;  1027.47  292.67 )">(*2)</text>
	<text style="&st18;" transform="matrix(&st17;  871.66  455.56 )">W</text>
	<text style="&st18;" transform="matrix(&st17;  882.99  458.39 )">(*2)</text>
	<text style="&st18;" transform="matrix(&st17;  931.15  454.54 )">Y</text>
	<text style="&st18;" transform="matrix(&st17;  942.48  458.39 )">(*2)</text>
	<a ewd:code="OX1" ewd:figID="12" ewd:figtype="w2w" ewd:pinNo="10" style="cursor:pointer;">
		<path d=" M   42.49,  163.26  L   25.50,  163.26  L   25.50,  171.76  L   42.49,  171.76  L   42.49,  163.26 " style="&st2;"/>
		<text style="&st8;" transform="matrix(&st16;  26.97  170.0 )"><tspan style="&st18;" x="0" y="0">OX1</tspan></text>
	</a>
	<a ewd:code="OX1" ewd:figID="13" ewd:figtype="w2w" ewd:pinNo="11" style="cursor:pointer;">
		<path d=" M  594.90,  579.69  L  577.90,  579.69  L  577.90,  588.19  L  594.90,  588.19  L  594.90,  579.69 " style="&st2;"/>
		<text style="&st8;" transform="matrix(&st16;  579.37  586.43 )"><tspan style="&st18;" x="0" y="0">OX1</tspan></text>
	</a>
	<a ewd:code="Xz1" ewd:figID="14" ewd:figtype="w2w" ewd:pinNo="4" style="cursor:pointer;">
		<path d=" M  883.85,  486.20  L  866.86,  486.20  L  866.86,  494.70  L  883.85,  494.70  L  883.85,  486.20 " style="&st2;"/>
		<text style="&st8;" transform="matrix(&st16;  869.37  492.95 )"><tspan style="&st18;" x="0" y="0">Xz1</tspan></text>
	</a>
	<a ewd:code="Xz1" ewd:figID="15" ewd:figtype="w2w" ewd:pinNo="6" style="cursor:pointer;">
		<path d=" M  943.34,  486.20  L  926.35,  486.20  L  926.35,  494.70  L  943.34,  494.70  L  943.34,  486.20 " style="&st2;"/>
		<text style="&st8;" transform="matrix(&st16;  928.86  492.95 )"><tspan style="&st18;" x="0" y="0">Xz1</tspan></text>
	</a>
	<a ewd:code="Xz1" ewd:figID="16" ewd:figtype="w2w" ewd:pinNo="2" style="cursor:pointer;">
		<path d=" M  968.84,  210.00  L  951.84,  210.00  L  951.84,  218.50  L  968.84,  218.50  L  968.84,  210.00 " style="&st2;"/>
		<text style="&st8;" transform="matrix(&st16;  954.35  216.74 )"><tspan style="&st18;" x="0" y="0">Xz1</tspan></text>
	</a>
	<a ewd:code="Xz1" ewd:figID="17" ewd:figtype="w2w" ewd:pinNo="3" style="cursor:pointer;">
		<path d=" M  968.84,  243.99  L  951.84,  243.99  L  951.84,  252.49  L  968.84,  252.49  L  968.84,  243.99 " style="&st2;"/>
		<text style="&st8;" transform="matrix(&st16;  954.35  250.74 )"><tspan style="&st18;" x="0" y="0">Xz1</tspan></text>
	</a>
	<a ewd:code="Xz1" ewd:figID="18" ewd:figtype="w2w" ewd:pinNo="1" style="cursor:pointer;">
		<path d=" M  832.86,  210.00  L  815.86,  210.00  L  815.86,  218.50  L  832.86,  218.50  L  832.86,  210.00 " style="&st2;"/>
		<text style="&st8;" transform="matrix(&st16;  818.38  216.74 )"><tspan style="&st18;" x="0" y="0">Xz1</tspan></text>
	</a>
	<a ewd:code="O1" ewd:figID="19" ewd:figtype="gp" style="cursor:pointer;">
		<path d=" M  575.78,  681.67  L  597.03,  681.67  L  586.40,  697.25  L  575.78,  681.67 " style="&st2;"/>
		<text style="&st8;" transform="matrix(&st16;  581.83  689.83 )"><tspan style="&st18;" x="0" y="0">O1</tspan></text>
	</a>
	<a ewd:code="6505" ewd:figID="20" ewd:figtype="sp" style="cursor:pointer;">
		<path d=" M  624.65,  494.70  L  633.14,  494.70  L  637.39,  498.95  L  637.39,  507.45  L  633.14,  511.70  L  624.65,  511.70  L  620.40,  507.45  L  620.40,  498.95  L  624.65,  494.70 " style="&st2;"/>
	</a>
	<a ewd:code="6397" ewd:figID="21" ewd:figtype="sp" style="cursor:pointer;">
		<path d=" M  582.15,  494.70  L  590.65,  494.70  L  594.90,  498.95  L  594.90,  507.45  L  590.65,  511.70  L  582.15,  511.70  L  577.90,  507.45  L  577.90,  498.95  L  582.15,  494.70 " style="&st2;"/>
	</a>
	<a ewd:code="6625" ewd:figID="22" ewd:figtype="sp" style="cursor:pointer;">
		<path d=" M  667.14,  494.70  L  675.64,  494.70  L  679.89,  498.95  L  679.89,  507.45  L  675.64,  511.70  L  667.14,  511.70  L  662.89,  507.45  L  662.89,  498.95  L  667.14,  494.70 " style="&st2;"/>
	</a>
	<a ewd:code="6733" ewd:figID="23" ewd:figtype="sp" style="cursor:pointer;">
		<path d=" M   29.75,  205.75  L   38.24,  205.75  L   42.49,  210.00  L   42.49,  218.50  L   38.24,  222.75  L   29.75,  222.75  L   25.50,  218.50  L   25.50,  210.00  L   29.75,  205.75 " style="&st2;"/>
	</a>
</g>
</svg>