﻿<?xml version="1.0" encoding="utf-8"?>
<!DOCTYPE svg PUBLIC "-//W3C//DTD SVG 1.0//EN" "http://www.w3.org/TR/2001/REC-SVG-20010904/DTD/svg10.dtd"[
	<!ENTITY ns_flows "http://ns.adobe.com/Flows/1.0/">
	<!ENTITY ns_svg "http://www.w3.org/2000/svg">
	<!ENTITY ns_xlink "http://www.w3.org/1999/xlink">
	<!ENTITY st0 "font-size:7px;font-family:'MS-PGothic';adobe-font-script:japanese;">
	<!ENTITY st1 "font-size:6px;font-family:'ArialMT';">
	<!-- White fill  -->
	<!ENTITY st2 "fill:#FFFFFF;stroke:#000000; stroke-width:1.41;stroke-linecap:round;stroke-linejoin:round;">
	<!-- Yellow fill  -->
	<!ENTITY st3 "fill:#FFFFCC;stroke:#FFFFCC; stroke-width:0.1;stroke-linecap:round;stroke-linejoin:round;">
	<!-- Gray fill  -->
	<!ENTITY st4 "fill:#CCCCCC;stroke:#CCCCCC; stroke-width:0.1;stroke-linecap:round;stroke-linejoin:round;">
	<!-- Light-blue fill -->
	<!ENTITY st5 "fill:#CCECF4;stroke:#000000; stroke-width:1.133;stroke-linecap:round;stroke-linejoin:round;">
	<!ENTITY st6 "fill:none;stroke-linecap:butt; stroke-linejoin:round;">
	<!ENTITY st7 "fill:none;stroke:#000000;stroke-linecap:round;stroke-linejoin:round;">
	<!ENTITY st8 "enable-background:new    ;">
	<!-- Black fill -->
	<!ENTITY st9 "fill:#000000;stroke:#000000; stroke-linecap:round;stroke-linejoin:round;">
	<!-- SRS note   -->
	<!ENTITY st10 "font-size:9px;font-family:'ArialMT';">
	<!ENTITY st11 "font-size:9px;font-family:'Svg Symbol';">
	<!ENTITY st12 "font-size:6px;font-family:'Svg Symbol';">
	<!ENTITY st13 "fill:none;stroke:#ff0000;stroke-linecap:round;stroke-linejoin:round;">
	<!-- Yellow fill  -->
	<!ENTITY st14 "fill:#FFFF00;stroke:#FFFF00; stroke-width:0.1;stroke-linecap:round;stroke-linejoin:round;">
	<!ENTITY st15 "font-size:6px;font-family:'MS-PGothic';adobe-font-script:japanese;">
	<!ENTITY st16 "1.00 0.00 0.00 1.00">
	<!ENTITY st17 "0.00 -1.00 1.00 0.00">
	<!ENTITY st18 "font-size:6px;font-family:'Arial';">
	<!ENTITY st19 "font-size:9px;font-family:'Arial';">
	<!ENTITY st20 "font-size:6px;font-family:'MS-PGothic','MS PGothic';adobe-font-script:japanese;">
	<!ENTITY st21 "font-size:7px;font-family:'MS-PGothic','MS PGothic';adobe-font-script:japanese;">
	<!ATTLIST svg
		xmlns:ewd CDATA #FIXED "http://shcl.co.jp/ewd"
		xmlns:a CDATA #FIXED "http://ns.adobe.com/AdobeSVGViewerExtensions/3.0/"
		ewd:ver CDATA #IMPLIED
	>
	<!ATTLIST a
		ewd:lineID CDATA #IMPLIED
		ewd:groupID CDATA #IMPLIED
		ewd:figtype CDATA #IMPLIED
		ewd:code CDATA #IMPLIED
		ewd:figID CDATA #IMPLIED
		ewd:pinNo CDATA #IMPLIED
		ewd:comment CDATA #IMPLIED >
	<!ATTLIST g
		ewd:lineID CDATA #IMPLIED
		ewd:groupID CDATA #IMPLIED
		ewd:figtype CDATA #IMPLIED
		ewd:code CDATA #IMPLIED
		ewd:figID CDATA #IMPLIED
		ewd:pinNo CDATA #IMPLIED
		ewd:comment CDATA #IMPLIED >
	<!ATTLIST text
		ewd:textID CDATA #IMPLIED >
	<!ATTLIST title
		ewd:textID CDATA #IMPLIED >
]>
<!-- Generator: Shintec Hozumi YS   -->
<svg onload="call_execInitLoadProc_svg('system')" style="overflow:visible;  enable-background:new 0 0 487.791 710.000" viewBox="0 0 487.791 710.000" height="710.000" width="487.791" xml:space="preserve" ewd:ver="L2.1.2.9" xmlns="&ns_svg;" xmlns:a="http://ns.adobe.com/AdobeSVGViewerExtensions/3.0/" xmlns:ewd="http://shcl.co.jp/ewd" xmlns:xlink="&ns_xlink;"><script type="text/javascript" xlink:href="../../../../../system/js/ewd/fig/svgfig.js" xmlns:xlink="http://www.w3.org/1999/xlink" /><defs><font horiz-adv-x="1229"><font-face font-family="Svg Symbol" units-per-em="2048" panose-1="5 5 1 2 1 7 6 2 5 7" ascent="2059" descent="450" alphabetic="0" /><missing-glyph d="M 103,0 l 0,1280 1024,0 0,-1280 -1024,0 z m 32,32 l 960,0 0,1216 -960,0 0,-1216 z" /><glyph unicode="" horiz-adv-x="1573" d="M 1517,0 l -567,0 24,279 q 141,59 207.5,168 66.5,109 66.5,306    0,272 -132.5,417.5 -132.5,145.5 -333.5,145.5 -194,0 -328,-147.5 -134,-147.5 -134,-401.5 0,-200 68.5,-319 68.5,-119     206.5,-169 l 25,-279 -564,0 0,279 35,0 q 3,-61 32,-83 45,-35 137,-35 l 270,0 0,70 q -210,61 -324.5,209 -114.5,148     -114.5,349 0,252 186.5,425 186.5,173 504.5,173 195,0 358.5,-73.5 163.5,-73.5 252,-214.5 88.5,-141 88.5,-310 0,-207     -121.5,-360.5 -121.5,-153.5 -317.5,-197.5 l -8,-70 275,0 q 92,0 128,28 36,28 42,90 l 38,0 0,-279 z" /></font></defs>
<g id="ewd_top"><a ewd:code="W13" ewd:figID="1" ewd:figtype="conn" style="cursor:pointer;"><path d=" M  165.72,  572.33  L  165.72,  572.33  L  165.72,  568.36  L  174.22,  568.36  L  174.22,  572.33  C  175.58   573.11   176.55   574.08   177.33   575.44  L  177.33,  575.44  C  179.68   579.50   178.29   584.70   174.22   587.05  L  174.22,  587.05  L  174.22,  591.02  L  165.72,  591.02  L  165.73,  587.05  C  164.37   586.27   163.39   585.29   162.61   583.93  L  162.61,  583.93  C  160.27   579.87   161.66   574.67   165.73   572.33 " style="&st5;" /><title ewd:textID="5">Front Power Seat Reclining Position Motor Assembly RH</title></a><a ewd:code="W10" ewd:figID="2" ewd:figtype="conn" style="cursor:pointer;"><path d=" M  356.94,  333.23  L  356.94,  426.71  L  467.42,  426.71  L  467.42,  333.23  L  356.94,  333.23 " style="&st5;" /><title ewd:textID="3">Front Lumbar Power Seat Switch RH</title></a><a ewd:code="W11" ewd:figID="3" ewd:figtype="conn" style="cursor:pointer;"><path d=" M  378.19,  555.33  L  378.19,  555.33  L  378.19,  551.36  L  386.69,  551.36  L  386.69,  555.33  C  388.04   556.11   389.01   557.09   389.80   558.44  L  389.80,  558.44  C  392.14   562.50   390.75   567.70   386.69   570.05  L  386.69,  570.05  L  386.69,  574.02  L  378.19,  574.02  L  378.19,  570.05  C  376.83   569.27   375.86   568.29   375.08   566.94  L  375.08,  566.94  C  372.73   562.87   374.12   557.67   378.19   555.33 " style="&st5;" /><title ewd:textID="4">Front Lumbar Support Forward and Back Motor Assembly RH</title></a><a ewd:code="W14" ewd:figID="4" ewd:figtype="conn" style="cursor:pointer;"><path d=" M   67.99,  256.74  L  127.48,  256.74  L  127.48,  273.74  L   67.99,  273.74  L   67.99,  256.74 " style="&st5;" /><title ewd:textID="8">Junction Connector</title></a><a ewd:code="W9" ewd:figID="5" ewd:figtype="conn" style="cursor:pointer;"><path d=" M   59.49,  350.23  L   59.49,  443.71  L  246.46,  443.71  L  246.46,  350.23  L   59.49,  350.23 " style="&st5;" /><title ewd:textID="7">Front Power Seat Switch RH</title></a><a ewd:code="W12" ewd:figID="6" ewd:figtype="conn" style="cursor:pointer;"><path d=" M   80.74,  572.33  L   80.74,  572.33  L   80.74,  568.36  L   89.24,  568.36  L   89.24,  572.33  C   90.59   573.11    91.56   574.08    92.35   575.44  L   92.35,  575.44  C   94.69   579.50    93.30   584.70    89.24   587.05  L   89.24,  587.05  L   89.24,  591.02  L   80.74,  591.02  L   80.74,  587.05  C   79.38   586.27    78.41   585.29    77.63   583.93  L   77.63,  583.93  C   75.28   579.87    76.67   574.67    80.74   572.33 " style="&st5;" /><title ewd:textID="6">Front Power Seat Slide Position Motor Assembly RH</title></a><a ewd:code="W14" ewd:figID="7" ewd:figtype="conn" style="cursor:pointer;"><path d=" M  280.45,  256.74  L  339.94,  256.74  L  339.94,  273.74  L  280.45,  273.74  L  280.45,  256.74 " style="&st5;" /><title ewd:textID="8">Junction Connector</title></a><a ewd:code="DJB" ewd:figID="8" ewd:figtype="jb" style="cursor:pointer;"><path d=" M   59.49,   35.78  L   59.49,  103.77  L  144.48,  103.77  L  144.48,   35.78  L   59.49,   35.78 " style="&st4;" /></a><a ewd:code="FUSE79" ewd:figID="9" ewd:figtype="fuse" style="cursor:pointer;"><path d=" M   89.24,   78.27  L   89.24,   35.78  L   63.74,   35.78  L   63.74,   78.27  L   89.24,   78.27 " style="&st7;" /></a><a ewd:lineID="1" style="cursor:pointer;"><path d=" M   76.49,  350.23  L   76.49,  291.87 " style="stroke:#C3AF96;stroke-width: 5.10 ;&st6;" /></a><a ewd:lineID="2" style="cursor:pointer;"><path d=" M   76.49,  211.98  L   76.49,  238.61 " style="stroke:#00A0C6;stroke-width: 5.10 ;&st6;" /></a><a ewd:lineID="3" style="cursor:pointer;"><path d=" M   76.49,  169.49  L   76.49,  197.25 " style="stroke:#00A0C6;stroke-width: 5.10 ;&st6;" /></a><a ewd:lineID="4" style="cursor:pointer;"><path d=" M   76.49,  154.76  L   76.49,  103.77 " style="stroke:#00A0C6;stroke-width: 5.10 ;&st6;" /></a><a ewd:lineID="5" style="cursor:pointer;"><path d=" M  135.98,  443.71  L  135.98,  613.68  L   84.99,  613.68  L   84.99,  591.02 " style="stroke:#000000;stroke-width: 5.10 ;&st6;" /><path d=" M  135.98,  443.71  L  135.98,  613.68  L   84.99,  613.68  L   84.99,  591.02 " style="stroke:#FFFFFF;stroke-width: 4.53 ;&st6;" /></a><a ewd:lineID="6" style="cursor:pointer;"><path d=" M   84.99,  443.71  L   84.99,  568.36 " style="stroke:#000000;stroke-width: 5.10 ;&st6;" /></a><a ewd:lineID="7" style="cursor:pointer;"><path d=" M  450.42,  333.23  L  450.42,  180.26  L  118.98,  180.26  L  118.98,  238.61 " style="stroke:#000000;stroke-width: 5.10 ;&st6;" /><path d=" M  450.42,  333.23  L  450.42,  180.26  L  118.98,  180.26  L  118.98,  238.61 " style="stroke:#FFFFFF;stroke-width: 4.53 ;&st6;" /></a><a ewd:lineID="8" style="cursor:pointer;"><path d=" M  220.96,  443.71  L  220.96,  613.68  L  169.97,  613.68  L  169.97,  591.02 " style="stroke:#008837;stroke-width: 5.10 ;&st6;" /></a><a ewd:lineID="9" style="cursor:pointer;"><path d=" M  169.97,  443.71  L  169.97,  568.36 " style="stroke:#FF0000;stroke-width: 5.10 ;&st6;" /></a><a ewd:lineID="10" style="cursor:pointer;"><path d=" M  246.46,  384.22  L  288.95,  384.22  L  288.95,  291.87 " style="stroke:#000000;stroke-width: 5.10 ;&st6;" /><path d=" M  246.46,  384.22  L  288.95,  384.22  L  288.95,  291.87 " style="stroke:#FFFFFF;stroke-width: 4.53 ;&st6;" /><path d=" M  246.46,  384.22  L  288.95,  384.22  L  288.95,  291.87 " style="stroke:#000000;stroke-width: 1.13 ;&st6;" /></a><a ewd:lineID="11" style="cursor:pointer;"><path d=" M  433.43,  333.23  L  433.43,  197.25  L  288.95,  197.25  L  288.95,  238.61 " style="stroke:#000000;stroke-width: 5.10 ;&st6;" /><path d=" M  433.43,  333.23  L  433.43,  197.25  L  288.95,  197.25  L  288.95,  238.61 " style="stroke:#FFFFFF;stroke-width: 4.53 ;&st6;" /><path d=" M  433.43,  333.23  L  433.43,  197.25  L  288.95,  197.25  L  288.95,  238.61 " style="stroke:#000000;stroke-width: 1.13 ;&st6;" /></a><a ewd:lineID="12" style="cursor:pointer;"><path d=" M  331.44,  681.67  L  331.44,  528.70 " style="stroke:#000000;stroke-width: 5.10 ;&st6;" /><path d=" M  331.44,  681.67  L  331.44,  528.70 " style="stroke:#FFFFFF;stroke-width: 4.53 ;&st6;" /><path d=" M  331.44,  681.67  L  331.44,  528.70 " style="stroke:#000000;stroke-width: 1.13 ;&st6;" /></a><a ewd:lineID="13" style="cursor:pointer;"><path d=" M  331.44,  513.97  L  331.44,  291.87 " style="stroke:#000000;stroke-width: 5.10 ;&st6;" /><path d=" M  331.44,  513.97  L  331.44,  291.87 " style="stroke:#FFFFFF;stroke-width: 4.53 ;&st6;" /><path d=" M  331.44,  513.97  L  331.44,  291.87 " style="stroke:#000000;stroke-width: 1.13 ;&st6;" /></a><a ewd:lineID="14" style="cursor:pointer;"><path d=" M  390.93,  333.23  L  390.93,  214.25  L  331.44,  214.25  L  331.44,  238.61 " style="stroke:#000000;stroke-width: 5.10 ;&st6;" /><path d=" M  390.93,  333.23  L  390.93,  214.25  L  331.44,  214.25  L  331.44,  238.61 " style="stroke:#FFFFFF;stroke-width: 4.53 ;&st6;" /><path d=" M  390.93,  333.23  L  390.93,  214.25  L  331.44,  214.25  L  331.44,  238.61 " style="stroke:#000000;stroke-width: 1.13 ;&st6;" /></a><a ewd:lineID="15" style="cursor:pointer;"><path d=" M  441.93,  426.71  L  441.93,  596.69  L  382.44,  596.69  L  382.44,  574.02 " style="stroke:#C3AF96;stroke-width: 5.10 ;&st6;" /></a><a ewd:lineID="16" style="cursor:pointer;"><path d=" M  382.44,  426.71  L  382.44,  551.36 " style="stroke:#000000;stroke-width: 5.10 ;&st6;" /></a><a ewd:code="PW2" ewd:figID="10" ewd:figtype="w2w" ewd:pinNo="1" style="cursor:pointer;"><path d=" M   84.99,  197.25  L   67.99,  197.25  L   67.99,  205.75  L   84.99,  205.75  L   84.99,  197.25 " style="&st2;" /><text style="&st8;" transform="matrix(&st16;  68.42  204.0 )"><tspan style="&st18;" x="0" y="0">PW2</tspan></text></a><a ewd:code="HP1" ewd:figID="11" ewd:figtype="w2w" ewd:pinNo="11" style="cursor:pointer;"><path d=" M   84.99,  154.76  L   67.99,  154.76  L   67.99,  163.26  L   84.99,  163.26  L   84.99,  154.76 " style="&st2;" /><text style="&st8;" transform="matrix(&st16;  69.76  161.5 )"><tspan style="&st18;" x="0" y="0">HP1</tspan></text></a><a ewd:code="PW2" ewd:figID="12" ewd:figtype="w2w" ewd:pinNo="3" style="cursor:pointer;"><path d=" M  339.94,  520.20  L  322.95,  520.20  L  322.95,  528.70  L  339.94,  528.70  L  339.94,  520.20 " style="&st2;" /><text style="&st8;" transform="matrix(&st16;  323.38  526.94 )"><tspan style="&st18;" x="0" y="0">PW2</tspan></text></a><a ewd:code="P1" ewd:figID="13" ewd:figtype="gp" style="cursor:pointer;"><path d=" M  320.82,  681.67  L  342.07,  681.67  L  331.44,  697.25  L  320.82,  681.67 " style="&st2;" /><text style="&st8;" transform="matrix(&st16;  327.32  689.83 )"><tspan style="&st18;" x="0" y="0">P1</tspan></text></a></g></svg>