﻿<?xml version="1.0" encoding="utf-8"?>
<!DOCTYPE svg PUBLIC "-//W3C//DTD SVG 1.0//EN" "http://www.w3.org/TR/2001/REC-SVG-20010904/DTD/svg10.dtd"[
	<!ENTITY ns_flows "http://ns.adobe.com/Flows/1.0/">
	<!ENTITY ns_svg "http://www.w3.org/2000/svg">
	<!ENTITY ns_xlink "http://www.w3.org/1999/xlink">
	<!ENTITY st0 "font-size:7px;font-family:'MS-PGothic';adobe-font-script:japanese;">
	<!ENTITY st1 "font-size:6px;font-family:'ArialMT';">
	<!-- White fill  -->
	<!ENTITY st2 "fill:#FFFFFF;stroke:#000000; stroke-width:1.41;stroke-linecap:round;stroke-linejoin:round;">
	<!-- Yellow fill  -->
	<!ENTITY st3 "fill:#FFFFCC;stroke:#FFFFCC; stroke-width:0.1;stroke-linecap:round;stroke-linejoin:round;">
	<!-- Gray fill  -->
	<!ENTITY st4 "fill:#CCCCCC;stroke:#CCCCCC; stroke-width:0.1;stroke-linecap:round;stroke-linejoin:round;">
	<!-- Light-blue fill -->
	<!ENTITY st5 "fill:#CCECF4;stroke:#000000; stroke-width:1.133;stroke-linecap:round;stroke-linejoin:round;">
	<!ENTITY st6 "fill:none;stroke-linecap:butt; stroke-linejoin:round;">
	<!ENTITY st7 "fill:none;stroke:#000000;stroke-linecap:round;stroke-linejoin:round;">
	<!ENTITY st8 "enable-background:new    ;">
	<!-- Black fill -->
	<!ENTITY st9 "fill:#000000;stroke:#000000; stroke-linecap:round;stroke-linejoin:round;">
	<!-- SRS note   -->
	<!ENTITY st10 "font-size:9px;font-family:'ArialMT';">
	<!ENTITY st11 "font-size:9px;font-family:'Svg Symbol';">
	<!ENTITY st12 "font-size:6px;font-family:'Svg Symbol';">
	<!ENTITY st13 "fill:none;stroke:#ff0000;stroke-linecap:round;stroke-linejoin:round;">
	<!-- Yellow fill  -->
	<!ENTITY st14 "fill:#FFFF00;stroke:#FFFF00; stroke-width:0.1;stroke-linecap:round;stroke-linejoin:round;">
	<!ENTITY st15 "font-size:6px;font-family:'MS-PGothic';adobe-font-script:japanese;">
	<!ENTITY st16 "1.00 0.00 0.00 1.00">
	<!ENTITY st17 "0.00 -1.00 1.00 0.00">
	<!ENTITY st18 "font-size:6px;font-family:'Arial';">
	<!ENTITY st19 "font-size:9px;font-family:'Arial';">
	<!ENTITY st20 "font-size:6px;font-family:'MS-PGothic','MS PGothic';adobe-font-script:japanese;">
	<!ENTITY st21 "font-size:7px;font-family:'MS-PGothic','MS PGothic';adobe-font-script:japanese;">
	<!ATTLIST svg
		xmlns:ewd CDATA #FIXED "http://shcl.co.jp/ewd"
		xmlns:a CDATA #FIXED "http://ns.adobe.com/AdobeSVGViewerExtensions/3.0/"
		ewd:ver CDATA #IMPLIED
	>
	<!ATTLIST a
		ewd:lineID CDATA #IMPLIED
		ewd:groupID CDATA #IMPLIED
		ewd:figtype CDATA #IMPLIED
		ewd:code CDATA #IMPLIED
		ewd:figID CDATA #IMPLIED
		ewd:pinNo CDATA #IMPLIED
		ewd:comment CDATA #IMPLIED >
	<!ATTLIST g
		ewd:lineID CDATA #IMPLIED
		ewd:groupID CDATA #IMPLIED
		ewd:figtype CDATA #IMPLIED
		ewd:code CDATA #IMPLIED
		ewd:figID CDATA #IMPLIED
		ewd:pinNo CDATA #IMPLIED
		ewd:comment CDATA #IMPLIED >
	<!ATTLIST text
		ewd:textID CDATA #IMPLIED >
	<!ATTLIST title
		ewd:textID CDATA #IMPLIED >
]>
<!-- Generator: Shintec Hozumi YS   -->
<svg onload="call_execInitLoadProc_svg('system')" style="overflow:visible;  enable-background:new 0 0 2058.616 710.000" viewBox="0 0 2058.616 710.000" height="710.000" width="2058.616" xml:space="preserve" ewd:ver="L2.1.2.9" xmlns="&ns_svg;" xmlns:a="http://ns.adobe.com/AdobeSVGViewerExtensions/3.0/" xmlns:ewd="http://shcl.co.jp/ewd" xmlns:xlink="&ns_xlink;">
<path d=" M 1002.83,  154.76  L 1011.33,  154.76 " style="stroke-width: 1.42 ;&st7; " /><path d=" M 1096.32,  307.73  L 1104.82,  307.73 " style="stroke-width: 1.42 ;&st7; " /><path d=" M 1104.82,  394.14  L 1110.48,  371.47 " style="stroke-width: 1.42 ;&st7; " /><path d=" M 1104.82,  401.22  L 1104.82,  396.97 " style="stroke-width: 0.85 ;&st7; " /><path d=" M 1104.82,  371.47  L 1104.82,  367.22 " style="stroke-width: 0.85 ;&st7; " /><path d=" M 1427.76,  154.76  L 1427.76,  163.26 " style="stroke-width: 0.85 ;&st7; " /><path d=" M 1429.89,  188.75  L 1425.64,  188.75 " style="stroke-width: 1.42 ;&st7; " /><path d=" M 1429.89,  197.25  L 1425.64,  197.25 " style="stroke-width: 1.42 ;&st7; " /><path d=" M 1308.78,  180.26  L 1317.28,  180.26 " style="stroke-width: 1.42 ;&st7; " /><path d=" M 1342.78,  571.19  L 1334.28,  571.19 " style="stroke-width: 1.42 ;&st7; " /><path d=" M 1308.78,  571.19  L 1300.28,  571.19 " style="stroke-width: 1.42 ;&st7; " /><path d=" M 1308.78,  231.25  L 1317.28,  231.25 " style="stroke-width: 1.42 ;&st7; " /><path d=" M 1015.58,  149.09  L 1011.33,  153.34  L 1007.08,  149.09 " style="stroke-width: 1.42 ;&st7; " /><path d=" M 1007.08,  145.69  L 1011.33,  149.94  L 1015.58,  145.69 " style="stroke-width: 1.42 ;&st7; " /><path d=" M 1096.32,  146.26  L 1096.32,  171.76  L 1113.31,  171.76  L 1113.31,  146.26  L 1096.32,  146.26 " style="stroke-width: 1.42 ;&st7; " /><path d=" M 1096.32,  154.76  L 1113.31,  154.76 " style="stroke-width: 1.13 ;&st7;stroke-dasharray:3, 1.5;" /><path d=" M 1096.32,  163.26  L 1113.31,  163.26 " style="stroke-width: 1.13 ;&st7;stroke-dasharray:3, 1.5;" /><path d=" M 1104.81,  146.26  L 1104.81,  171.76 " style="stroke-width: 0.85 ;&st7; " /><path d=" M 1100.57,  298.67  L 1104.81,  302.92  L 1109.06,  298.67 " style="stroke-width: 1.42 ;&st7; " /><path d=" M 1109.06,  302.07  L 1104.81,  306.32  L 1100.57,  302.07 " style="stroke-width: 1.42 ;&st7; " /><path d=" M 1113.31,  401.22  L 1113.31,  367.22  L 1096.32,  367.22  L 1096.32,  401.22  L 1113.31,  401.22 " style="stroke-width: 1.42 ;&st7; " /><path d=" M 1104.81,  401.22  L 1104.81,  409.72 " style="stroke-width: 0.85 ;&st7; " /><path d=" M 1096.32,  409.72  L 1113.31,  409.72 " style="stroke-width: 0.85 ;&st7; " /><path d=" M 1100.57,  412.55  L 1109.06,  412.55 " style="stroke-width: 0.85 ;&st7; " /><path d=" M 1101.98,  415.38  L 1107.65,  415.38 " style="stroke-width: 0.85 ;&st7; " /><path d=" M 1103.40,  418.22  L 1106.23,  418.22 " style="stroke-width: 0.85 ;&st7; " /><path d=" M 1096.32,  231.25  L 1096.32,  256.74  L 1113.31,  256.74  L 1113.31,  231.25  L 1096.32,  231.25 " style="stroke-width: 1.42 ;&st7; " /><path d=" M 1096.32,  239.75  L 1113.31,  239.75 " style="stroke-width: 1.13 ;&st7;stroke-dasharray:3, 1.5;" /><path d=" M 1096.32,  248.24  L 1113.31,  248.24 " style="stroke-width: 1.13 ;&st7;stroke-dasharray:3, 1.5;" /><path d=" M 1104.81,  231.25  L 1104.81,  256.74 " style="stroke-width: 0.85 ;&st7; " /><path d=" M 1427.76,  163.26  L 1427.76,  188.75 " style="stroke-width: 0.85 ;&st7; " /><path d=" M 1415.01,  120.77  L 1415.01,  163.26  L 1440.51,  163.26  L 1440.51,  120.77  L 1415.01,  120.77 " style="stroke-width: 1.42 ;&st7; " /><path d=" M 1427.76,  183.86  L 1424.93,  181.03  L 1424.93,  185.28  L 1427.76,  188.11  L 1430.59,  185.28  L 1430.59,  181.03  L 1427.76,  183.86 " style="stroke-width: 0.28 ;&st9;" /><path d=" M 1419.26,  248.24  L 1436.26,  248.24  L 1436.26,  265.24  L 1419.26,  265.24  L 1419.26,  248.24 " style="stroke-width: 1.42 ;&st7; " /><path d=" M 1427.76,  248.24  L 1427.76,  265.24 " style="stroke-width: 0.85 ;&st7; " /><path d=" M 1419.26,  324.73  L 1419.26,  341.73  L 1436.26,  341.73  L 1436.26,  324.73  L 1419.26,  324.73 " style="stroke-width: 1.42 ;&st7; " /><path d=" M 1427.76,  324.73  L 1427.76,  341.73 " style="stroke-width: 0.85 ;&st7; " /><path d=" M 1313.03,  171.19  L 1317.28,  175.44  L 1321.53,  171.19 " style="stroke-width: 1.42 ;&st7; " /><path d=" M 1321.53,  174.59  L 1317.28,  178.84  L 1313.03,  174.59 " style="stroke-width: 1.42 ;&st7; " /><path d=" M 1283.29,  460.71  L 1283.29,  503.20  L 1351.27,  503.20  L 1351.27,  460.71  L 1283.29,  460.71 " style="stroke-width: 1.42 ;&st7; " /><path d=" M 1147.31,  554.19  L 1147.31,  571.19  L 1198.30,  571.19  L 1198.30,  554.19  L 1147.31,  554.19 " style="stroke-width: 1.42 ;&st7; " /><path d=" M 1304.53,  580.26  L 1300.28,  576.01  L 1296.03,  580.26 " style="stroke-width: 1.42 ;&st7; " /><path d=" M 1304.53,  576.86  L 1300.28,  572.61  L 1296.03,  576.86 " style="stroke-width: 1.42 ;&st7; " /><path d=" M 1338.53,  580.26  L 1334.28,  576.01  L 1330.03,  580.26 " style="stroke-width: 1.42 ;&st7; " /><path d=" M 1338.53,  576.86  L 1334.28,  572.61  L 1330.03,  576.86 " style="stroke-width: 1.42 ;&st7; " /><path d=" M 1198.30,  460.71  L 1198.30,  477.71  L 1147.31,  477.71  L 1147.31,  460.71  L 1198.30,  460.71 " style="stroke-width: 1.42 ;&st7; " /><path d=" M 1189.80,  554.19  L 1189.80,  571.19 " style="stroke-width: 0.85 ;&st7; " /><path d=" M 1155.81,  554.19  L 1155.81,  571.19 " style="stroke-width: 0.85 ;&st7; " /><path d=" M 1189.80,  460.71  L 1189.80,  477.71 " style="stroke-width: 0.85 ;&st7; " /><path d=" M 1155.81,  460.71  L 1155.81,  477.71 " style="stroke-width: 0.85 ;&st7; " /><path d=" M 1301.70,  307.73  L 1315.86,  307.73 " style="stroke-width: 0.85 ;&st7; " /><path d=" M 1274.79,  299.24  L 1325.78,  299.24 " style="stroke-width: 0.85 ;&st7; " /><path d=" M 1291.78,  384.22  L 1308.78,  384.22  L 1308.78,  401.22  L 1291.78,  401.22  L 1291.78,  384.22 " style="stroke-width: 1.42 ;&st7; " /><path d=" M 1274.79,  282.24  L 1274.79,  316.23  L 1325.78,  316.23  L 1325.78,  282.24  L 1274.79,  282.24 " style="stroke-width: 1.42 ;&st7; " /><path d=" M 1291.78,  282.24  L 1291.78,  316.23 " style="stroke-width: 0.85 ;&st7; " /><path d=" M 1308.78,  282.24  L 1308.78,  316.23 " style="stroke-width: 0.85 ;&st7; " /><path d=" M 1300.28,  384.22  L 1300.28,  401.22 " style="stroke-width: 0.85 ;&st7; " /><path d=" M 1313.03,  222.18  L 1317.28,  226.43  L 1321.53,  222.18 " style="stroke-width: 1.42 ;&st7; " /><path d=" M 1321.53,  225.58  L 1317.28,  229.83  L 1313.03,  225.58 " style="stroke-width: 1.42 ;&st7; " /><path d=" M 1015.86,   91.30  C 1015.86    88.80  1013.83    86.77  1011.33    86.77 " style="stroke-width: 1.42 ;&st7; " /><path d=" M 1011.33,   86.77  C 1008.83    86.77  1006.80    88.80  1006.80    91.30 " style="stroke-width: 1.42 ;&st7; " /><path d=" M 1006.80,   91.30  C 1006.80    93.81  1008.83    95.84  1011.33    95.84 " style="stroke-width: 1.42 ;&st7; " /><path d=" M 1011.33,   95.84  C 1013.83    95.84  1015.86    93.81  1015.86    91.30 " style="stroke-width: 1.42 ;&st7; " /><path d=" M 1109.35,   91.30  C 1109.35    88.80  1107.32    86.77  1104.82    86.77 " style="stroke-width: 1.42 ;&st7; " /><path d=" M 1104.82,   86.77  C 1102.31    86.77  1100.28    88.80  1100.28    91.30 " style="stroke-width: 1.42 ;&st7; " /><path d=" M 1100.28,   91.30  C 1100.28    93.81  1102.31    95.84  1104.82    95.84 " style="stroke-width: 1.42 ;&st7; " /><path d=" M 1104.82,   95.84  C 1107.32    95.84  1109.35    93.81  1109.35    91.30 " style="stroke-width: 1.42 ;&st7; " /><path d=" M 1109.35,  176.29  C 1109.35   173.79  1107.32   171.76  1104.82   171.76 " style="stroke-width: 1.42 ;&st7; " /><path d=" M 1104.82,  171.76  C 1102.31   171.76  1100.28   173.79  1100.28   176.29 " style="stroke-width: 1.42 ;&st7; " /><path d=" M 1100.28,  176.29  C 1100.28   178.79  1102.31   180.82  1104.82   180.82 " style="stroke-width: 1.42 ;&st7; " /><path d=" M 1104.82,  180.82  C 1107.32   180.82  1109.35   178.79  1109.35   176.29 " style="stroke-width: 1.42 ;&st7; " /><path d=" M 1109.35,  141.73  C 1109.35   139.23  1107.32   137.20  1104.82   137.20 " style="stroke-width: 1.42 ;&st7; " /><path d=" M 1104.82,  137.20  C 1102.31   137.20  1100.28   139.23  1100.28   141.73 " style="stroke-width: 1.42 ;&st7; " /><path d=" M 1100.28,  141.73  C 1100.28   144.23  1102.31   146.26  1104.82   146.26 " style="stroke-width: 1.42 ;&st7; " /><path d=" M 1104.82,  146.26  C 1107.32   146.26  1109.35   144.23  1109.35   141.73 " style="stroke-width: 1.42 ;&st7; " /><path d=" M 1106.23,  395.55  C 1106.23   394.77  1105.60   394.14  1104.82   394.14 " style="stroke-width: 0.85 ;&st7; " /><path d=" M 1104.82,  394.14  C 1104.03   394.14  1103.40   394.77  1103.40   395.55 " style="stroke-width: 0.85 ;&st7; " /><path d=" M 1103.40,  395.55  C 1103.40   396.33  1104.03   396.97  1104.82   396.97 " style="stroke-width: 0.85 ;&st7; " /><path d=" M 1104.82,  396.97  C 1105.60   396.97  1106.23   396.33  1106.23   395.55 " style="stroke-width: 0.85 ;&st7; " /><path d=" M 1106.23,  372.89  C 1106.23   372.11  1105.60   371.47  1104.82   371.47 " style="stroke-width: 0.85 ;&st7; " /><path d=" M 1104.82,  371.47  C 1104.03   371.47  1103.40   372.11  1103.40   372.89 " style="stroke-width: 0.85 ;&st7; " /><path d=" M 1103.40,  372.89  C 1103.40   373.67  1104.03   374.31  1104.82   374.31 " style="stroke-width: 0.85 ;&st7; " /><path d=" M 1104.82,  374.31  C 1105.60   374.31  1106.23   373.67  1106.23   372.89 " style="stroke-width: 0.85 ;&st7; " /><path d=" M 1109.35,  226.71  C 1109.35   224.21  1107.32   222.18  1104.82   222.18 " style="stroke-width: 1.42 ;&st7; " /><path d=" M 1104.82,  222.18  C 1102.31   222.18  1100.28   224.21  1100.28   226.71 " style="stroke-width: 1.42 ;&st7; " /><path d=" M 1100.28,  226.71  C 1100.28   229.22  1102.31   231.25  1104.82   231.25 " style="stroke-width: 1.42 ;&st7; " /><path d=" M 1104.82,  231.25  C 1107.32   231.25  1109.35   229.22  1109.35   226.71 " style="stroke-width: 1.42 ;&st7; " /><path d=" M 1109.35,  261.27  C 1109.35   258.77  1107.32   256.74  1104.82   256.74 " style="stroke-width: 1.42 ;&st7; " /><path d=" M 1104.82,  256.74  C 1102.31   256.74  1100.28   258.77  1100.28   261.27 " style="stroke-width: 1.42 ;&st7; " /><path d=" M 1100.28,  261.27  C 1100.28   263.78  1102.31   265.81  1104.82   265.81 " style="stroke-width: 1.42 ;&st7; " /><path d=" M 1104.82,  265.81  C 1107.32   265.81  1109.35   263.78  1109.35   261.27 " style="stroke-width: 1.42 ;&st7; " /><path d=" M 1432.29,  320.20  C 1432.29   317.70  1430.26   315.67  1427.76   315.67 " style="stroke-width: 1.42 ;&st7; " /><path d=" M 1427.76,  315.67  C 1425.26   315.67  1423.23   317.70  1423.23   320.20 " style="stroke-width: 1.42 ;&st7; " /><path d=" M 1423.23,  320.20  C 1423.23   322.70  1425.26   324.73  1427.76   324.73 " style="stroke-width: 1.42 ;&st7; " /><path d=" M 1427.76,  324.73  C 1430.26   324.73  1432.29   322.70  1432.29   320.20 " style="stroke-width: 1.42 ;&st7; " /><path d=" M 1427.76,  132.10  C 1425.02   133.71  1424.11   137.24  1425.72   139.97 " style="stroke-width: 1.42 ;&st7; " /><path d=" M 1425.72,  139.97  C 1426.24   140.86  1426.88   141.49  1427.76   142.01 " style="stroke-width: 1.42 ;&st7; " /><path d=" M 1427.76,  151.93  C 1430.50   150.31  1431.41   146.79  1429.80   144.05 " style="stroke-width: 1.42 ;&st7; " /><path d=" M 1429.80,  144.05  C 1429.28   143.17  1428.64   142.53  1427.76   142.01 " style="stroke-width: 1.42 ;&st7; " /><path d=" M 1429.18,  130.68  C 1429.18   129.90  1428.54   129.26  1427.76   129.26 " style="stroke-width: 0.85 ;&st7; " /><path d=" M 1427.76,  129.26  C 1426.98   129.26  1426.35   129.90  1426.35   130.68 " style="stroke-width: 0.85 ;&st7; " /><path d=" M 1426.35,  130.68  C 1426.35   131.46  1426.98   132.10  1427.76   132.10 " style="stroke-width: 0.85 ;&st7; " /><path d=" M 1427.76,  132.10  C 1428.54   132.10  1429.18   131.46  1429.18   130.68 " style="stroke-width: 0.85 ;&st7; " /><path d=" M 1429.18,  153.34  C 1429.18   152.56  1428.54   151.93  1427.76   151.93 " style="stroke-width: 0.85 ;&st7; " /><path d=" M 1427.76,  151.93  C 1426.98   151.93  1426.35   152.56  1426.35   153.34 " style="stroke-width: 0.85 ;&st7; " /><path d=" M 1426.35,  153.34  C 1426.35   154.13  1426.98   154.76  1427.76   154.76 " style="stroke-width: 0.85 ;&st7; " /><path d=" M 1427.76,  154.76  C 1428.54   154.76  1429.18   154.13  1429.18   153.34 " style="stroke-width: 0.85 ;&st7; " /><path d=" M 1425.64,  188.75  C 1423.29   188.75  1421.39   190.66  1421.39   193.00 " style="stroke-width: 1.42 ;&st7; " /><path d=" M 1421.39,  193.00  C 1421.39   195.35  1423.29   197.25  1425.64   197.25 " style="stroke-width: 1.42 ;&st7; " /><path d=" M 1429.89,  197.25  C 1432.23   197.25  1434.14   195.35  1434.14   193.00 " style="stroke-width: 1.42 ;&st7; " /><path d=" M 1434.14,  193.00  C 1434.14   190.66  1432.23   188.75  1429.89   188.75 " style="stroke-width: 1.42 ;&st7; " /><path d=" M 1432.29,  243.71  C 1432.29   241.21  1430.26   239.18  1427.76   239.18 " style="stroke-width: 1.42 ;&st7; " /><path d=" M 1427.76,  239.18  C 1425.26   239.18  1423.23   241.21  1423.23   243.71 " style="stroke-width: 1.42 ;&st7; " /><path d=" M 1423.23,  243.71  C 1423.23   246.21  1425.26   248.24  1427.76   248.24 " style="stroke-width: 1.42 ;&st7; " /><path d=" M 1427.76,  248.24  C 1430.26   248.24  1432.29   246.21  1432.29   243.71 " style="stroke-width: 1.42 ;&st7; " /><path d=" M 1432.29,  269.77  C 1432.29   267.27  1430.26   265.24  1427.76   265.24 " style="stroke-width: 1.42 ;&st7; " /><path d=" M 1427.76,  265.24  C 1425.26   265.24  1423.23   267.27  1423.23   269.77 " style="stroke-width: 1.42 ;&st7; " /><path d=" M 1423.23,  269.77  C 1423.23   272.28  1425.26   274.31  1427.76   274.31 " style="stroke-width: 1.42 ;&st7; " /><path d=" M 1427.76,  274.31  C 1430.26   274.31  1432.29   272.28  1432.29   269.77 " style="stroke-width: 1.42 ;&st7; " /><path d=" M 1432.29,  346.26  C 1432.29   343.76  1430.26   341.73  1427.76   341.73 " style="stroke-width: 1.42 ;&st7; " /><path d=" M 1427.76,  341.73  C 1425.26   341.73  1423.23   343.76  1423.23   346.26 " style="stroke-width: 1.42 ;&st7; " /><path d=" M 1423.23,  346.26  C 1423.23   348.76  1425.26   350.79  1427.76   350.79 " style="stroke-width: 1.42 ;&st7; " /><path d=" M 1427.76,  350.79  C 1430.26   350.79  1432.29   348.76  1432.29   346.26 " style="stroke-width: 1.42 ;&st7; " /><path d=" M 1160.34,   91.30  C 1160.34    88.80  1158.31    86.77  1155.81    86.77 " style="stroke-width: 1.42 ;&st7; " /><path d=" M 1155.81,   86.77  C 1153.30    86.77  1151.27    88.80  1151.27    91.30 " style="stroke-width: 1.42 ;&st7; " /><path d=" M 1151.27,   91.30  C 1151.27    93.81  1153.30    95.84  1155.81    95.84 " style="stroke-width: 1.42 ;&st7; " /><path d=" M 1155.81,   95.84  C 1158.31    95.84  1160.34    93.81  1160.34    91.30 " style="stroke-width: 1.42 ;&st7; " /><path d=" M 1338.81,  507.73  C 1338.81   505.23  1336.78   503.20  1334.28   503.20 " style="stroke-width: 1.42 ;&st7; " /><path d=" M 1334.28,  503.20  C 1331.77   503.20  1329.74   505.23  1329.74   507.73 " style="stroke-width: 1.42 ;&st7; " /><path d=" M 1329.74,  507.73  C 1329.74   510.24  1331.77   512.27  1334.28   512.27 " style="stroke-width: 1.42 ;&st7; " /><path d=" M 1334.28,  512.27  C 1336.78   512.27  1338.81   510.24  1338.81   507.73 " style="stroke-width: 1.42 ;&st7; " /><path d=" M 1304.82,  507.73  C 1304.82   505.23  1302.79   503.20  1300.28   503.20 " style="stroke-width: 1.42 ;&st7; " /><path d=" M 1300.28,  503.20  C 1297.78   503.20  1295.75   505.23  1295.75   507.73 " style="stroke-width: 1.42 ;&st7; " /><path d=" M 1295.75,  507.73  C 1295.75   510.24  1297.78   512.27  1300.28   512.27 " style="stroke-width: 1.42 ;&st7; " /><path d=" M 1300.28,  512.27  C 1302.79   512.27  1304.82   510.24  1304.82   507.73 " style="stroke-width: 1.42 ;&st7; " /><path d=" M 1194.33,   91.30  C 1194.33    88.80  1192.30    86.77  1189.80    86.77 " style="stroke-width: 1.42 ;&st7; " /><path d=" M 1189.80,   86.77  C 1187.30    86.77  1185.27    88.80  1185.27    91.30 " style="stroke-width: 1.42 ;&st7; " /><path d=" M 1185.27,   91.30  C 1185.27    93.81  1187.30    95.84  1189.80    95.84 " style="stroke-width: 1.42 ;&st7; " /><path d=" M 1189.80,   95.84  C 1192.30    95.84  1194.33    93.81  1194.33    91.30 " style="stroke-width: 1.42 ;&st7; " /><path d=" M 1304.82,  456.18  C 1304.82   453.67  1302.79   451.64  1300.28   451.64 " style="stroke-width: 1.42 ;&st7; " /><path d=" M 1300.28,  451.64  C 1297.78   451.64  1295.75   453.67  1295.75   456.18 " style="stroke-width: 1.42 ;&st7; " /><path d=" M 1295.75,  456.18  C 1295.75   458.68  1297.78   460.71  1300.28   460.71 " style="stroke-width: 1.42 ;&st7; " /><path d=" M 1300.28,  460.71  C 1302.79   460.71  1304.82   458.68  1304.82   456.18 " style="stroke-width: 1.42 ;&st7; " /><path d=" M 1318.70,  307.73  C 1318.70   306.95  1318.06   306.32  1317.28   306.32 " style="stroke-width: 0.85 ;&st7; " /><path d=" M 1317.28,  306.32  C 1316.50   306.32  1315.86   306.95  1315.86   307.73 " style="stroke-width: 0.85 ;&st7; " /><path d=" M 1315.86,  307.73  C 1315.86   308.52  1316.50   309.15  1317.28   309.15 " style="stroke-width: 0.85 ;&st7; " /><path d=" M 1317.28,  309.15  C 1318.06   309.15  1318.70   308.52  1318.70   307.73 " style="stroke-width: 0.85 ;&st7; " /><path d=" M 1301.70,  307.73  C 1301.70   306.95  1301.07   306.32  1300.28   306.32 " style="stroke-width: 0.85 ;&st7; " /><path d=" M 1300.28,  306.32  C 1299.50   306.32  1298.87   306.95  1298.87   307.73 " style="stroke-width: 0.85 ;&st7; " /><path d=" M 1298.87,  307.73  C 1298.87   308.52  1299.50   309.15  1300.28   309.15 " style="stroke-width: 0.85 ;&st7; " /><path d=" M 1300.28,  309.15  C 1301.07   309.15  1301.70   308.52  1301.70   307.73 " style="stroke-width: 0.85 ;&st7; " /><path d=" M 1304.82,  405.75  C 1304.82   403.25  1302.79   401.22  1300.28   401.22 " style="stroke-width: 1.42 ;&st7; " /><path d=" M 1300.28,  401.22  C 1297.78   401.22  1295.75   403.25  1295.75   405.75 " style="stroke-width: 1.42 ;&st7; " /><path d=" M 1295.75,  405.75  C 1295.75   408.25  1297.78   410.28  1300.28   410.28 " style="stroke-width: 1.42 ;&st7; " /><path d=" M 1300.28,  410.28  C 1302.79   410.28  1304.82   408.25  1304.82   405.75 " style="stroke-width: 1.42 ;&st7; " /><path d=" M 1304.82,  379.69  C 1304.82   377.19  1302.79   375.16  1300.28   375.16 " style="stroke-width: 1.42 ;&st7; " /><path d=" M 1300.28,  375.16  C 1297.78   375.16  1295.75   377.19  1295.75   379.69 " style="stroke-width: 1.42 ;&st7; " /><path d=" M 1295.75,  379.69  C 1295.75   382.19  1297.78   384.22  1300.28   384.22 " style="stroke-width: 1.42 ;&st7; " /><path d=" M 1300.28,  384.22  C 1302.79   384.22  1304.82   382.19  1304.82   379.69 " style="stroke-width: 1.42 ;&st7; " /><text style="&st18;" transform="matrix(&st16;  1008.86  93.27 )">D</text><text style="&st18;" transform="matrix(&st16;  1002.64  83.07 )">MIRB</text><text style="&st18;" transform="matrix(&st17;  1007.64  123.24 )">R</text><text style="&st18;" transform="matrix(&st17;  1007.64  191.23 )">R</text><text style="&st18;" transform="matrix(&st16;  1004.54  219.06 )">3</text><text style="&st18;" transform="matrix(&st16;  1006.42  230.38 )">M+</text><text ewd:textID="6" style="&st18;" transform="matrix(&st16;  1093.79  70.33 )">Main Body ECU</text><text style="&st18;" transform="matrix(&st16;  1093.79  63.22 )">H2(B),H3(C),H4(D)</text><text style="&st18;" transform="matrix(&st16;  1244.06  626.98 )">GR</text><text style="&st18;" transform="matrix(&st16;  1245.94  609.99 )">W</text><text style="&st18;" transform="matrix(&st16;  1149.02  550.5 )">4</text><text style="&st18;" transform="matrix(&st16;  1179.83  550.5 )">15</text><text style="&st18;" transform="matrix(&st16;  1149.02  579.38 )">3</text><text style="&st18;" transform="matrix(&st16;  1179.83  579.38 )">14</text><text style="&st18;" transform="matrix(&st16;  1149.02  485.9 )">5</text><text style="&st18;" transform="matrix(&st16;  1179.83  485.9 )">16</text><text style="&st18;" transform="matrix(&st16;  1179.83  457.02 )">17</text><text style="&st18;" transform="matrix(&st16;  1149.02  457.02 )">6</text><text style="&st18;" transform="matrix(&st17;  1101.12  125.57 )">BR</text><text style="&st18;" transform="matrix(&st16;  1102.34  93.27 )">D</text><text style="&st18;" transform="matrix(&st16;  1095.42  83.07 )">DCTY</text><text style="&st18;" transform="matrix(&st16;  1089.98  93.27 )">24</text><text style="&st18;" transform="matrix(&st16;  1102.48  178.26 )">B</text><text style="&st18;" transform="matrix(&st16;  1090.76  178.26 )">10</text><text style="&st18;" transform="matrix(&st16;  1102.48  143.7 )">A</text><text style="&st18;" transform="matrix(&st16;  1094.72  143.7 )">1</text><text ewd:textID="5" style="&st18;" transform="matrix(&st17;  1128.03  174.28 )">Junction Connector</text><text style="&st18;" transform="matrix(&st17;  1120.93  174.28 )">H79(A),H80(B)</text><text style="&st18;" transform="matrix(&st16;  1086.82  313.95 )">15</text><text style="&st18;" transform="matrix(&st16;  1098.8  363.53 )">1</text><text ewd:textID="4" style="&st18;" transform="matrix(&st17;  1128.03  403.74 )">Front Door Courtesy <tspan dy="6" x="0">Light Switch LH</tspan></text><text style="&st18;" transform="matrix(&st17;  1120.93  403.74 )">O8</text><text style="&st18;" transform="matrix(&st17;  1101.12  200.61 )">W</text><text style="&st18;" transform="matrix(&st17;  1101.12  287.04 )">BR</text><text style="&st18;" transform="matrix(&st17;  1101.12  346.39 )">SB</text><text style="&st18;" transform="matrix(&st16;  1102.48  228.68 )">A</text><text style="&st18;" transform="matrix(&st16;  1094.72  228.68 )">1</text><text style="&st18;" transform="matrix(&st16;  1102.48  263.24 )">B</text><text style="&st18;" transform="matrix(&st16;  1091.54  263.24 )">11</text><text ewd:textID="5" style="&st18;" transform="matrix(&st17;  1128.03  259.27 )">Junction Connector</text><text style="&st18;" transform="matrix(&st17;  1120.93  259.27 )">H77(A),H78(B)</text><text style="&st18;" transform="matrix(&st17;  1424.07  293.07 )">B</text><text style="&st18;" transform="matrix(&st16;  1425.43  322.17 )">B</text><text style="&st18;" transform="matrix(&st16;  1413.71  322.17 )">21</text><text style="&st18;" transform="matrix(&st17;  1424.07  369.98 )">G</text><text style="&st18;" transform="matrix(&st16;  1445.07  141.16 )">7.5A <tspan dy="6" x="0">LH-IG</tspan></text><text style="&st18;" transform="matrix(&st16;  1422.82  194.97 )">DD</text><text style="&st18;" transform="matrix(&st16;  1411.12  194.97 )">55</text><text style="&st18;" transform="matrix(&st16;  1421.69  117.07 )">(IG)</text><text style="&st18;" transform="matrix(&st16;  1425.43  245.68 )">A</text><text style="&st18;" transform="matrix(&st16;  1413.71  245.68 )">10</text><text style="&st18;" transform="matrix(&st16;  1425.43  271.74 )">A</text><text style="&st18;" transform="matrix(&st16;  1414.48  271.74 )">11</text><text ewd:textID="5" style="&st18;" transform="matrix(&st17;  1450.98  267.77 )">Junction <tspan dy="6" x="-0.01">Connector</tspan></text><text style="&st18;" transform="matrix(&st17;  1443.87  267.77 )">H77(A)</text><text style="&st18;" transform="matrix(&st17;  1424.07  227.41 )">SB</text><text ewd:textID="5" style="&st18;" transform="matrix(&st17;  1450.98  344.25 )">Junction <tspan dy="6" x="0">Connector</tspan></text><text style="&st18;" transform="matrix(&st17;  1443.87  344.25 )">H80(B)</text><text style="&st18;" transform="matrix(&st16;  1412.93  348.23 )">22</text><text style="&st18;" transform="matrix(&st16;  1425.43  348.23 )">B</text><text style="&st18;" transform="matrix(&st16;  1299.29  186.47 )">10</text><text style="&st18;" transform="matrix(&st17;  1313.58  208.51 )">G</text><text style="&st18;" transform="matrix(&st16;  1340.02  125.57 )">G</text><text style="&st18;" transform="matrix(&st16;  1180.55  83.07 )">CANL</text><text style="&st18;" transform="matrix(&st16;  1178.92  93.27 )">6</text><text style="&st18;" transform="matrix(&st17;  1205.91  480.23 )">H119</text><text style="&st18;" transform="matrix(&st17;  1152.11  437.19 )">L</text><text style="&st18;" transform="matrix(&st17;  1186.11  438.57 )">W</text><text style="&st18;" transform="matrix(&st16;  1146.06  83.07 )">CANH</text><text style="&st18;" transform="matrix(&st17;  1186.11  506.56 )">W</text><text style="&st18;" transform="matrix(&st17;  1152.11  505.67 )">R</text><text style="&st18;" transform="matrix(&st16;  1153.48  93.27 )">B</text><text style="&st18;" transform="matrix(&st16;  1144.93  93.27 )">5</text><text style="&st18;" transform="matrix(&st16;  1187.47  93.27 )">B</text><text style="&st18;" transform="matrix(&st17;  1205.91  573.71 )">H115</text><text ewd:textID="5" style="&st18;" transform="matrix(&st17;  1213.02  573.71 )">Junction Connector</text><text style="&st18;" transform="matrix(&st17;  1330.58  542.42 )">GR</text><text style="&st18;" transform="matrix(&st17;  1296.59  540.55 )">W</text><text style="&st18;" transform="matrix(&st16;  1324.53  499.5 )">CANH</text><text style="&st18;" transform="matrix(&st16;  1291.03  499.5 )">CANL</text><text style="&st18;" transform="matrix(&st16;  1331.95  509.7 )">A</text><text style="&st18;" transform="matrix(&st16;  1320.22  509.7 )">10</text><text style="&st18;" transform="matrix(&st16;  1297.95  509.7 )">A</text><text style="&st18;" transform="matrix(&st16;  1287.0  509.7 )">11</text><text style="&st18;" transform="matrix(&st16;  1281.51  568.91 )">22</text><text style="&st18;" transform="matrix(&st16;  1316.28  568.91 )">21</text><text ewd:textID="5" style="&st18;" transform="matrix(&st17;  1213.02  480.23 )">Junction Connector</text><text style="&st18;" transform="matrix(&st17;  1313.58  259.5 )">G</text><text style="&st18;" transform="matrix(&st17;  1296.59  357.33 )">G-B</text><text style="&st18;" transform="matrix(&st16;  1280.95  309.7 )">P</text><text style="&st18;" transform="matrix(&st17;  1296.59  442.31 )">G-B</text><text style="&st18;" transform="matrix(&st16;  1297.95  458.14 )">B</text><text style="&st18;" transform="matrix(&st16;  1289.43  458.14 )">2</text><text style="&st18;" transform="matrix(&st16;  1297.95  468.34 )">P</text><text style="&st18;" transform="matrix(&st16;  1293.49  324.43 )">6</text><text style="&st18;" transform="matrix(&st16;  1295.97  292.71 )">PL</text><text style="&st18;" transform="matrix(&st16;  1310.49  278.55 )">2</text><text style="&st18;" transform="matrix(&st16;  1312.48  292.71 )">RB</text><text style="&st18;" transform="matrix(&st17;  1333.39  318.76 )">D21</text><text ewd:textID="12" style="&st18;" transform="matrix(&st17;  1340.5  318.76 )">Park/Neutral Position <tspan dy="6" x="0">Switch Assembly</tspan></text><text style="&st18;" transform="matrix(&st16;  1290.18  407.72 )">1</text><text style="&st18;" transform="matrix(&st16;  1297.95  407.72 )">B</text><text style="&st18;" transform="matrix(&st16;  1289.41  381.66 )">2</text><text style="&st18;" transform="matrix(&st16;  1297.95  381.66 )">B</text><text ewd:textID="5" style="&st18;" transform="matrix(&st16;  1311.92  393.27 )">Junction <tspan dy="6" x="0">Connector</tspan></text><text style="&st18;" transform="matrix(&st16;  1311.92  386.17 )">D55(B)</text><text style="&st18;" transform="matrix(&st17;  1365.99  505.73 )">ECM</text><text style="&st18;" transform="matrix(&st17;  1358.89  505.73 )">A27(A),D56(B)</text><text style="&st18;" transform="matrix(&st17;  1152.11  122.74 )">L</text><text style="&st18;" transform="matrix(&st17;  1186.11  124.12 )">W</text><text style="&st18;" transform="matrix(&st16;  1302.47  237.47 )">4</text></svg>